# Title: SA-17
# Author: BMS
# Revision: Missile Data Manager ver:0.1.8.0 Date: 1/30/2015 1:33:03 PM
#-----------------------------------------------------
# Comments
#-----------------------------------------------------
#-----------------------------------------------------
#     INPUT DATA
#-----------------------------------------------------
#
# Final Time (sec)
40.000000
# Pk (0.0-1.0)
1.000000
# Weight of missile (lbs)
1320.60
# Weight of propellant (lbs)
850.00
# Motor Impulse (lb-sec)
140600.00
# Reference Area (ft*ft)
0.948740
# Nozzle Exit Area (ft*ft)
0.790000
# Length (ft)
19.030000
# AOA max (deg)
15.0
# AOA min (deg)
-15.0
# Beta max (deg)
15.0
# Beta min (deg)
-15.0
# Velocity min (mach)
0.500000
# Gimbal Angle Limit (deg)
55.0
# Gimbl Ang Rate Lim (deg/sec)
20.0
# Field of View (deg)
8.0
# Guidance Delay (sec)
1.50
# Lofting Bias (Gs)
0.20
# Proportional nav gain
2.30
# Autopilot Bandwidth
0.00
# Time To Go Active (sec)
-1.00
# Seeker Type
6
# Seeker Version
1
# Display
0
# Missile loft time
10.000000
# boostguidesec
3.500000
# terminalguiderange
28228.000000
# boostguideSensorPrecision
4.000000
# sustainguideSensorPrecision
3.000000
# terminalguideSensorPrecision
3.000000
# boostguideLead
1.000000
# sustainguideLead
1.000000
# terminalguideLead
1.000000
# boostguideGnav
1.000000
# sustainguideGnav
3.000000
# terminalguideGnav
3.000000
# boostguideBwap
0.080000
# sustainguideBwap
0.080000
# terminalguideBwap
0.250000
#-----------------------------------------------------
#     AERO DATA
#-----------------------------------------------------
#
#-----------------------------------------------------
# MACH BREAKPOINTS
#-----------------------------------------------------
# MACH
2
  +0.000000  +4.000000
#
#-----------------------------------------------------
# ALPHA BREAKPOINTS
#-----------------------------------------------------
# ALPHA
7
  +0.000000  +4.000000  +8.000000 +12.000000 +16.000000 +20.000000 +24.000000
#
#-----------------------------------------------------
# NORMAL FORCE COEFFICIENT CZ (SYMMETRIC ABOUT ALPHA = 0)
#-----------------------------------------------------
#
# Normal Multiplier
1.000000
#
# Mach: 0.0
  +0.000000  -4.800000 -14.200000 -24.000000 -32.800000 -42.200000 -48.000000
#
# Mach: 4.0
  +0.000000  -6.500000 -18.000000 -30.000000 -42.000000 -52.500000 -60.000000
#
#
#-----------------------------------------------------
# AXIAL FORCE COEFFICIENT CX (SYMMETRIC ABOUT ALPHA = 0)
#-----------------------------------------------------
#
# Axial Multiplier
0.500000
#
# Mach: 0.0
  -1.120000  -1.040000  -0.960000  -0.880000  -0.800000  -0.720000  -0.640000
#
# Mach: 4.0
  -1.400000  -1.300000  -1.200000  -1.100000  -1.000000  -0.900000  -0.800000
#
#
#-----------------------------------------------------
#     Rocket SOLID ROCKET ENGINE DATA
#-----------------------------------------------------
#
#-----------------------------------------------------
# BURN TIME BREAKPOINTS
#-----------------------------------------------------
# BRNTIME
9
  +0.000000  +0.025000  +4.100000
  +4.200000 +12.000000 +26.700000
 +26.800000 +27.000000 +28.000000
#
#-----------------------------------------------------
# ENGINE THRUST (LBS)
#-----------------------------------------------------
#
        +0.000000    +20000.000000    +20000.000000
     +5500.000000     +3800.000000     +4000.000000
     +1500.000000      +800.000000        +0.000000
#
#-----------------------------------------------------
#     Range Data
#-----------------------------------------------------
#
#Table Multiplier
1.00
#
#-----------------------------------------------------
# Number of Altitude Breakpoints
#-----------------------------------------------------
#
11
      +0.000000   +5000.000000  +10000.000000
  +15000.000000  +20000.000000  +25000.000000
  +30000.000000  +35000.000000  +40000.000000
  +45000.000000  +50000.000000
#
#-----------------------------------------------------
# number of ownship vel breakpoints
#-----------------------------------------------------
#
1
      +0.000000
#
#-----------------------------------------------------
# number of aspect breakpoints
#-----------------------------------------------------
#
1
      +0.000000
#
# Alt = 0.0
# Vel = 0.0
  +60767.600000
#
#
# Alt = 5000.0
# Vel = 0.0
  +66844.400000
#
#
# Alt = 10000.0
# Vel = 0.0
  +70921.400000
#
#
# Alt = 15000.0
# Vel = 0.0
  +72913.400000
#
#
# Alt = 20000.0
# Vel = 0.0
  +72913.400000
#
#
# Alt = 25000.0
# Vel = 0.0
  +75913.400000
#
#
# Alt = 30000.0
# Vel = 0.0
  +78913.400000
#
#
# Alt = 35000.0
# Vel = 0.0
  +81913.400000
#
#
# Alt = 40000.0
# Vel = 0.0
  +84913.400000
#
#
# Alt = 45000.0
# Vel = 0.0
      +0.000000
#
#
# Alt = 50000.0
# Vel = 0.0
      +0.000000
#
#
#-----------------------------------------------------
#     Aux Data
#-----------------------------------------------------
#
#-----------------------------------------------------
# Type and Misc
#-----------------------------------------------------
maxToe 0
foxType 0
maxspeed 0
correctedWeigthCode 0
deployableWingsTime 0
errorfromparrent 0
pickleTimeDelay 0
AspectSelectorSize 50
#-----------------------------------------------------
# Engine
#-----------------------------------------------------
engLocation 0.00 0.00 0.00
EngineSound 267
hasGasDynamicManeuvering 0
mistrail 2
contrail 0
misengGlowBSP 0
#-----------------------------------------------------
# Rocket
#-----------------------------------------------------
rocketDispersionConeAngle 0
rocketSalvoSize -1
#-----------------------------------------------------
# SecondStage
#-----------------------------------------------------
SecondStageTimer 0
SecondStageWeight 0
SecondStageOffset 0
#-----------------------------------------------------
# Guidance
#-----------------------------------------------------
OpticalEyeOffset 5
hasInertialGuidance 0
InsDrift 0.0
AntiRadSensorPrecision 0.0
TerminalStageDist 7.0
dataLinkPodType 0
#-----------------------------------------------------
# Range
#-----------------------------------------------------
MinEngagementRange 9840
MinEngagementAlt 93
miniaerorange 0
#-----------------------------------------------------
# Loft
#-----------------------------------------------------
loftTableFilename 
RMaxTableType 0
#-----------------------------------------------------
# Gs
#-----------------------------------------------------
maxGTerminal 15
maxGNormal 15
RaeroTerminalGmax 8
RaeroTerminalGmin 2
#-----------------------------------------------------
# Fuse
#-----------------------------------------------------
ProximityfuseChange 75
proximityfuserange 1000
#-----------------------------------------------------
# AIM-9 Sounds
#-----------------------------------------------------
sndAim9Growl 6
sndAim9GrowlLock 7
sndAim9Uncaged 182
sndAim9EnviroSky 186
sndAim9EnviroGround 187
#-----------------------------------------------------
# Particle sys files
#-----------------------------------------------------
psGroundImpact 
psMissileKill 
psFeatureImpact 
psBombImpact 
psArmingDelay 
psExceedFOV 
psRocketBurst 
#-----------------------------------------------------
# Counter
#-----------------------------------------------------
ChaffBurstChances 2
ChaffBurstResetInterval 2000
ClutterFactorHeight 4000
ChaffClutterFactor 1.1
BeamScanRatioForSearch 2
#
#-----------------------------------------------------
# Additionals that are not included in MDM.
#-----------------------------------------------------
