# Title: F-15CJ-220 Eagle
# Author: BMS
# Revision: Flight Model Manager ver:1.7.1.15 Date: 5/30/2015 11:39:35
#-----------------------------------------------------
# Comments
#-----------------------------------------------------
#PW-F100-220
#MODIF MAV-JP / STORE LIMITER / TO BE USED WITH ASSOCIATED WCD
#Modified by TOPOLO 18/11/2008
#MODIF Falcas HasOldLandingLight / Wake / Lights 6/13/2013
#13455 = 4000+4000+2000+1455+1000+1000
#Chaff & Flares added by Revientor modified by Dee-Jay 04/03/2012
#MODIF CMDS changed by uri_ba 07/03/2015
#
#-----------------------------------------------------
# SIMULATION INPUT PANEL
#-----------------------------------------------------
#
#-----------------------------------------------------
# INPUT MASS AND GEOMETRIC PROPERTIES
#-----------------------------------------------------
         +28600.000000  # Empty Weight (lbs)
           +608.000000  # Reference Area
         +13455.000000  # Internal Fuel
#-----------------------------------------------------
# ANGLE OF ATTACK AND SIDESLIP LIMITS
#-----------------------------------------------------
            +30.000000  # AOA Max
            -15.000000  # AOA Min
            +15.000000  # Beta Max
            -15.000000  # Beta Min
             +9.000000  # Max G
           +190.000000  # Max Roll
           +250.000000  # Min Vcas
           +900.000000  # Max Vcas
           +420.000000  # Corner Vcas
            +13.000000  # Theta Max
             +3.000000  # Num Gear
#
#Gear    xPos [ft]          yPos [ft]         zPos [ft]         Extent [deg]
         +21.00         +0.00         +6.60         +100.85
         +40.00         -5.20         +6.60          +90.00
         +40.00         +5.20         +6.60          +90.00
#-----------------------------------------------------
# Physical data
#-----------------------------------------------------
            +36.200000  # CG Loc
            +60.000000  # Length
            +42.800000  # Span
             +3.000000  # Fus Radius
             +4.000000  # Tail Ht
#
# End of Airframe data
#
#
#     BASIC AERODYNAMIC COEFFICIENTS
#
#
#-----------------------------------------------------
#     MACH BREAKPOINTS
#-----------------------------------------------------
+14.000000  # Num MACH
#
  +0.000000  +0.200000  +0.400000  +0.600000  +0.870000  +0.970000  +1.000000  +1.100000  +1.150000  +1.250000
  +1.300000  +1.400000  +1.500000  +2.500000
#-----------------------------------------------------
#     ALPHA BREAKPOINTS
#-----------------------------------------------------
+20.000000  # Num Alpha
#
 -20.000000 -10.000000  -5.000000  +0.000000  +1.000000  +2.000000  +3.000000  +4.000000  +5.000000  +6.000000
  +7.000000  +8.000000  +9.000000 +10.000000 +15.000000 +20.000000 +25.000000 +30.000000 +35.000000 +40.000000

#-----------------------------------------------------
#     LIFT COEFFICIENT  CL
#-----------------------------------------------------
+1.000000   # Table Multiplier
#
# Mach: 0
  -1.000000  -0.550000  -0.259600  +0.050000  +0.095000  +0.140000  +0.185000  +0.230000  +0.275000  +0.320000
  +0.365000  +0.410000  +0.455000  +0.500000  +0.650000  +0.750000  +0.820000  +0.850000  +0.850000  +0.800000

#
# Mach: 0.2
  -1.000000  -0.550000  -0.259600  +0.050000  +0.095000  +0.140000  +0.185000  +0.230000  +0.275000  +0.320000
  +0.365000  +0.410000  +0.455000  +0.500000  +0.650000  +0.750000  +0.820000  +0.850000  +0.850000  +0.800000

#
# Mach: 0.4
  -1.000000  -0.550000  -0.259600  +0.050000  +0.095000  +0.140000  +0.185000  +0.230000  +0.275000  +0.320000
  +0.365000  +0.410000  +0.455000  +0.500000  +0.650000  +0.750000  +0.820000  +0.850000  +0.850000  +0.800000

#
# Mach: 0.6
  -1.000000  -0.550000  -0.259600  +0.050000  +0.095000  +0.140000  +0.185000  +0.230000  +0.275000  +0.320000
  +0.365000  +0.410000  +0.455000  +0.500000  +0.650000  +0.750000  +0.820000  +0.850000  +0.850000  +0.800000

#
# Mach: 0.87
  -1.000000  -0.550000  -0.259600  +0.050000  +0.095000  +0.140000  +0.185000  +0.230000  +0.275000  +0.320000
  +0.365000  +0.410000  +0.455000  +0.500000  +0.650000  +0.750000  +0.820000  +0.850000  +0.850000  +0.800000

#
# Mach: 0.97
  -1.000000  -0.550000  -0.259600  +0.025000  +0.065800  +0.106500  +0.147300  +0.188000  +0.228800  +0.269500
  +0.310300  +0.351000  +0.391800  +0.432500  +0.636300  +0.734200  +0.802700  +0.832100  +0.832100  +0.783200

#
# Mach: 1
  -1.000000  -0.550000  -0.259600  +0.025000  +0.065800  +0.106500  +0.147300  +0.188000  +0.228800  +0.269500
  +0.310300  +0.351000  +0.391800  +0.432500  +0.636300  +0.734200  +0.802700  +0.832100  +0.832100  +0.783200

#
# Mach: 1.1
  -1.000000  -0.550000  -0.259600  +0.025000  +0.062100  +0.099200  +0.136300  +0.173400  +0.210500  +0.247600
  +0.284700  +0.321800  +0.358900  +0.396100  +0.581600  +0.671100  +0.733700  +0.760500  +0.760500  +0.715800

#
# Mach: 1.15
  -1.000000  -0.550000  -0.259600  +0.025000  +0.057500  +0.090100  +0.122600  +0.155200  +0.187700  +0.220300
  +0.252800  +0.285400  +0.317900  +0.350400  +0.513200  +0.592100  +0.647400  +0.671100  +0.671100  +0.631600

#
# Mach: 1.25
  -1.000000  -0.550000  -0.259600  +0.037500  +0.073600  +0.109600  +0.145700  +0.181800  +0.217800  +0.253900
  +0.290000  +0.326000  +0.362100  +0.398200  +0.578500  +0.667500  +0.729800  +0.756500  +0.756500  +0.712000

#
# Mach: 1.3
  -1.000000  -0.550000  -0.259600  +0.050000  +0.087800  +0.125700  +0.163500  +0.201300  +0.239200  +0.277000
  +0.314800  +0.352700  +0.390500  +0.428300  +0.617500  +0.712500  +0.779000  +0.807500  +0.807500  +0.760000

#
# Mach: 1.4
  -1.000000  -0.550000  -0.259600  +0.050000  +0.090000  +0.130000  +0.170000  +0.210000  +0.250000  +0.290000
  +0.330000  +0.370000  +0.410000  +0.450000  +0.650000  +0.750000  +0.820000  +0.850000  +0.850000  +0.800000

#
# Mach: 1.5
  -1.000000  -0.550000  -0.259600  +0.050000  +0.090000  +0.130000  +0.170000  +0.210000  +0.250000  +0.290000
  +0.330000  +0.370000  +0.410000  +0.450000  +0.650000  +0.750000  +0.820000  +0.850000  +0.850000  +0.800000

#
# Mach: 2.5
  -1.000000  -0.550000  -0.259600  +0.050000  +0.090000  +0.130000  +0.170000  +0.210000  +0.250000  +0.290000
  +0.330000  +0.370000  +0.410000  +0.450000  +0.650000  +0.750000  +0.820000  +0.850000  +0.850000  +0.800000

#
#-----------------------------------------------------
#     DRAG COEFFICIENT  CD
#-----------------------------------------------------
+0.666660   # Table Multiplier
#
# Mach: 0
  +0.281800  +0.080000  +0.034900  +0.021000  +0.023000  +0.024500  +0.026000  +0.027000  +0.034900  +0.045200
  +0.051700  +0.060000  +0.069400  +0.080000  +0.176500  +0.281800  +0.410000  +0.538200  +0.666400  +0.794500

#
# Mach: 0.2
  +0.281800  +0.080000  +0.034900  +0.021000  +0.023000  +0.024500  +0.026000  +0.027000  +0.034900  +0.045200
  +0.051700  +0.060000  +0.069400  +0.080000  +0.176500  +0.281800  +0.410000  +0.538200  +0.666400  +0.794500

#
# Mach: 0.4
  +0.281800  +0.080000  +0.034900  +0.021000  +0.023000  +0.024500  +0.026000  +0.027000  +0.034900  +0.045200
  +0.051700  +0.060000  +0.069400  +0.080000  +0.176500  +0.281800  +0.410000  +0.538200  +0.666400  +0.794500

#
# Mach: 0.6
  +0.281800  +0.080000  +0.034900  +0.021000  +0.023000  +0.024500  +0.026000  +0.027000  +0.034900  +0.045200
  +0.051700  +0.060000  +0.069400  +0.080000  +0.176500  +0.281800  +0.410000  +0.538200  +0.666400  +0.794500

#
# Mach: 0.87
  +0.281800  +0.066700  +0.029600  +0.021000  +0.023000  +0.024500  +0.026000  +0.027000  +0.029600  +0.034400
  +0.040600  +0.048200  +0.056900  +0.066700  +0.152900  +0.281800  +0.410000  +0.538200  +0.666400  +0.794500

#
# Mach: 0.97
  +0.338200  +0.080000  +0.035500  +0.025200  +0.027600  +0.029400  +0.031200  +0.032400  +0.035500  +0.041300
  +0.048700  +0.057900  +0.068300  +0.080000  +0.183500  +0.338200  +0.492000  +0.645800  +0.799600  +0.953500

#
# Mach: 1
  +0.408600  +0.095000  +0.041800  +0.029400  +0.032300  +0.034400  +0.036600  +0.038100  +0.041800  +0.048700
  +0.057500  +0.068500  +0.080900  +0.095000  +0.219900  +0.408600  +0.594500  +0.780400  +0.966200  +1.152100

#
# Mach: 1.1
  +0.620000  +0.138300  +0.059500  +0.041000  +0.045100  +0.048400  +0.051700  +0.054000  +0.059500  +0.069700
  +0.082600  +0.098900  +0.117300  +0.138300  +0.326900  +0.620000  +0.902000  +1.184000  +1.466000  +1.748000

#
# Mach: 1.15
  +0.620000  +0.140000  +0.060600  +0.042000  +0.046200  +0.049500  +0.052800  +0.055100  +0.060600  +0.070900
  +0.084000  +0.100300  +0.118900  +0.140000  +0.328800  +0.620000  +0.902000  +1.184000  +1.466000  +1.748000

#
# Mach: 1.25
  +0.563600  +0.128300  +0.055800  +0.038900  +0.042700  +0.045700  +0.048700  +0.050800  +0.055800  +0.065200
  +0.077200  +0.092100  +0.109100  +0.128300  +0.300100  +0.563600  +0.820000  +1.076400  +1.332700  +1.589100

#
# Mach: 1.3
  +0.535500  +0.122700  +0.053500  +0.037400  +0.041100  +0.043900  +0.046700  +0.048700  +0.053500  +0.062500
  +0.073900  +0.088200  +0.104300  +0.122700  +0.286000  +0.535500  +0.779000  +1.022500  +1.266100  +1.509600

#
# Mach: 1.4
  +0.521400  +0.120000  +0.052500  +0.036800  +0.040400  +0.043100  +0.045900  +0.047800  +0.052500  +0.061200
  +0.072400  +0.086300  +0.102100  +0.120000  +0.279100  +0.521400  +0.758500  +0.995600  +1.232800  +1.469900

#
# Mach: 1.5
  +0.521400  +0.120000  +0.052500  +0.036800  +0.040400  +0.043100  +0.045900  +0.047800  +0.052500  +0.061200
  +0.072400  +0.086300  +0.102100  +0.120000  +0.279100  +0.521400  +0.758500  +0.995600  +1.232800  +1.469900

#
# Mach: 2.5
  +0.521400  +0.120000  +0.052500  +0.036800  +0.040400  +0.043100  +0.045900  +0.047800  +0.052500  +0.061200
  +0.072400  +0.086300  +0.102100  +0.120000  +0.279100  +0.521400  +0.758500  +0.995600  +1.232800  +1.469900

#
#-----------------------------------------------------
#     SIDE FORCE DERIVATIVE CY-BETA
#-----------------------------------------------------
+1.000000   # Table Multiplier
#
# Mach: 0
  -0.011000  -0.010900  -0.016600  -0.018200  -0.018400  -0.018600  -0.018800  -0.019000  -0.019200  -0.019100
  -0.019000  -0.018900  -0.018800  -0.018700  -0.016300  -0.017600  -0.016400  -0.015800  -0.014100  -0.009000

#
# Mach: 0.2
  -0.011000  -0.010900  -0.016600  -0.018200  -0.018400  -0.018600  -0.018800  -0.019000  -0.019200  -0.019100
  -0.019000  -0.018900  -0.018800  -0.018700  -0.016300  -0.017600  -0.016400  -0.015800  -0.014100  -0.009000

#
# Mach: 0.4
  -0.011000  -0.010900  -0.016600  -0.018200  -0.018400  -0.018600  -0.018800  -0.019000  -0.019200  -0.019100
  -0.019000  -0.018900  -0.018800  -0.018700  -0.016300  -0.017600  -0.016400  -0.015800  -0.014100  -0.009000

#
# Mach: 0.6
  -0.011000  -0.010900  -0.016600  -0.018200  -0.018400  -0.018600  -0.018800  -0.019000  -0.019200  -0.019100
  -0.019000  -0.018900  -0.018800  -0.018700  -0.016300  -0.017600  -0.016400  -0.015800  -0.014100  -0.009000

#
# Mach: 0.87
  -0.012000  -0.011800  -0.018000  -0.019500  -0.019500  -0.019600  -0.019600  -0.019700  -0.019700  -0.019800
  -0.019800  -0.019900  -0.019900  -0.020000  -0.017400  -0.018200  -0.017100  -0.016800  -0.015500  -0.014200

#
# Mach: 0.97
  -0.016000  -0.012200  -0.021000  -0.028000  -0.028100  -0.028200  -0.028400  -0.028500  -0.028600  -0.028900
  -0.029200  -0.029400  -0.029700  -0.030000  -0.025000  -0.026700  -0.022300  -0.021500  -0.018700  -0.017200

#
# Mach: 1
  -0.016000  -0.012200  -0.021000  -0.028000  -0.028100  -0.028200  -0.028400  -0.028500  -0.028600  -0.028900
  -0.029200  -0.029400  -0.029700  -0.030000  -0.025000  -0.026700  -0.022300  -0.021500  -0.018700  -0.017200

#
# Mach: 1.1
  -0.017000  -0.017200  -0.027000  -0.033000  -0.033400  -0.033800  -0.034200  -0.034600  -0.035000  -0.034700
  -0.034300  -0.034000  -0.033600  -0.033300  -0.032100  -0.028800  -0.025400  -0.023100  -0.020700  -0.018800

#
# Mach: 1.15
  -0.017200  -0.017300  -0.027200  -0.033500  -0.033900  -0.034300  -0.034700  -0.035100  -0.035500  -0.035200
  -0.034800  -0.034500  -0.034100  -0.033800  -0.032600  -0.029200  -0.026000  -0.024000  -0.021000  -0.020000

#
# Mach: 1.25
  -0.017200  -0.017300  -0.027200  -0.033500  -0.033900  -0.034300  -0.034700  -0.035100  -0.035500  -0.035200
  -0.034800  -0.034500  -0.034100  -0.033800  -0.032600  -0.029200  -0.026000  -0.024000  -0.021000  -0.020000

#
# Mach: 1.3
  -0.017200  -0.017300  -0.027200  -0.033500  -0.033900  -0.034300  -0.034700  -0.035100  -0.035500  -0.035200
  -0.034800  -0.034500  -0.034100  -0.033800  -0.032600  -0.029200  -0.026000  -0.024000  -0.021000  -0.020000

#
# Mach: 1.4
  -0.017200  -0.017300  -0.027200  -0.033500  -0.033900  -0.034300  -0.034700  -0.035100  -0.035500  -0.035200
  -0.034800  -0.034500  -0.034100  -0.033800  -0.032600  -0.029200  -0.026000  -0.024000  -0.021000  -0.020000

#
# Mach: 1.5
  -0.017200  -0.017300  -0.027200  -0.033500  -0.033900  -0.034300  -0.034700  -0.035100  -0.035500  -0.035200
  -0.034800  -0.034500  -0.034100  -0.033800  -0.032600  -0.029200  -0.026000  -0.024000  -0.021000  -0.020000

#
# Mach: 2.5
  -0.016100  -0.016200  -0.019400  -0.019400  -0.019800  -0.020200  -0.020700  -0.021100  -0.021500  -0.021500
  -0.021500  -0.021600  -0.021600  -0.021600  -0.021400  -0.021500  -0.020500  -0.017900  -0.015300  -0.010500

#
# End of Aero Data
#
#-----------------------------------------------------
# PROPULSION DATA
#-----------------------------------------------------
#
      +2.000000   # Thrust multiplier
      +0.600000   # Fuel Flow Multiplier
#-----------------------------------------------------
# MACH BREAKPOINTS
#-----------------------------------------------------
+20.000000  # Number of Mach Breaks
#
  +0.000000  +0.200000  +0.400000  +0.600000  +0.800000  +0.900000  +1.000000  +1.100000  +1.200000  +1.300000
  +1.400000  +1.500000  +1.600000  +1.700000  +1.800000  +1.900000  +2.000000  +2.100000  +2.200000  +2.500000

#-----------------------------------------------------
#     ALTITUDE BREAKPOINTS
#-----------------------------------------------------
+8.000000  # Number of Alt Break Points
#
  +0.000000 +10000.000000 +20000.000000 +30000.000000 +40000.000000 +50000.000000 +60000.000000 +100000.000000
#
#-----------------------------------------------------
#    THRST1 - THRUST AT IDLE (THROTL = 0.00)
#-----------------------------------------------------
# Alt: 0
   +800.000000   +635.000000    +60.000000  -1020.000000  -2700.000000  -3850.000000  -3600.000000   +300.000000  +5000.000000  +8700.000000
  +9455.000000  +8873.000000  +8385.000000  +7971.000000  +7625.000000  +7342.000000  +7108.000000  +6944.000000  +6797.000000  +6356.000000

#
# Alt: 10000
   +610.000000   +425.000000    +25.000000   -710.000000  -1900.000000  -2125.000000  -1400.000000  +1600.000000  +5000.000000  +7500.000000
  +8018.000000  +7613.000000  +7230.000000  +6917.000000  +6630.000000  +6403.000000  +6213.000000  +6037.000000  +5913.000000  +5541.000000

#
# Alt: 20000
   +790.000000   +690.000000   +345.000000   -300.000000  -1300.000000  -1400.000000   -595.000000  +2050.000000  +5000.000000  +6500.000000
  +6867.000000  +6646.000000  +6517.000000  +6425.000000  +6316.000000  +6283.000000  +6270.000000  +6250.000000  +6224.000000  +6146.000000

#
# Alt: 30000
  +1160.000000  +1010.000000   +755.000000   +350.000000   -247.000000   -650.000000   -342.000000  +1700.000000  +4300.000000  +5500.000000
  +6194.000000  +6268.000000  +6379.000000  +6438.000000  +6490.000000  +6528.000000  +6562.000000  +6650.000000  +6667.000000  +6718.000000

#
# Alt: 40000
  +1460.000000  +1330.000000  +1130.000000   +910.000000   +600.000000    -25.000000   -200.000000  +1000.000000  +2900.000000  +4600.000000
  +5600.000000  +6054.000000  +6544.000000  +7042.000000  +7475.000000  +7910.000000  +8282.000000  +8655.000000  +8972.000000  +9923.000000

#
# Alt: 50000
  +1800.000000  +1700.000000  +1525.000000  +1360.000000  +1100.000000   +800.000000   +700.000000  +1500.000000  +2500.000000  +3500.000000
  +4622.000000  +5130.000000  +5764.000000  +6266.000000  +6748.000000  +7208.000000  +7594.000000  +7940.000000  +8255.000000  +9200.000000

#
# Alt: 60000
   +700.000000   +750.000000   +860.000000   +975.000000  +1150.000000  +1275.000000  +1400.000000  +1600.000000  +1800.000000  +2000.000000
  +2200.000000  +2400.000000  +2600.000000  +2800.000000  +3000.000000  +3200.000000  +3400.000000  +3600.000000  +3800.000000  +4400.000000

#
# Alt: 100000
    +56.000000    +53.000000    +48.000000    +43.000000    +34.000000    +25.000000    +22.000000    +47.000000    +81.000000   +117.000000
   +143.000000   +159.000000   +166.000000   +168.000000   +169.000000   +169.000000   +169.000000   +168.000000   +164.000000   +152.000000

#-----------------------------------------------------
#    THRST2 - THRUST AT MIL POWER (THROTL = 1.00)
#-----------------------------------------------------
# Alt: 0
 +12500.000000 +12330.000000 +12260.000000 +12290.000000 +12350.000000 +12250.000000 +12050.000000 +11501.000000 +10820.000000 +10129.000000
  +9455.000000  +8873.000000  +8385.000000  +7971.000000  +7625.000000  +7342.000000  +7108.000000  +6944.000000  +6797.000000  +6356.000000

#
# Alt: 10000
  +9100.000000  +9100.000000  +9300.000000  +9800.000000  +9950.000000  +9870.000000  +9680.000000  +9325.000000  +8897.000000  +8475.000000
  +8018.000000  +7613.000000  +7230.000000  +6917.000000  +6630.000000  +6403.000000  +6213.000000  +6037.000000  +5913.000000  +5541.000000

#
# Alt: 20000
  +5900.000000  +6000.000000  +6300.000000  +6750.000000  +7650.000000  +7930.000000  +7890.000000  +7675.000000  +7400.000000  +7117.000000
  +6867.000000  +6646.000000  +6517.000000  +6425.000000  +6316.000000  +6283.000000  +6270.000000  +6250.000000  +6224.000000  +6146.000000

#
# Alt: 30000
  +3720.000000  +3840.000000  +4090.000000  +4460.000000  +5120.000000  +5575.000000  +5800.000000  +5929.000000  +6005.000000  +6100.000000
  +6234.000000  +6350.000000  +6531.000000  +6734.000000  +6896.000000  +7097.000000  +7276.000000  +7453.000000  +7598.000000  +8035.000000

#
# Alt: 40000
  +2400.000000  +2470.000000  +2600.000000  +2840.000000  +3250.000000  +3500.000000  +3800.000000  +4182.000000  +4609.000000  +5083.000000
  +5600.000000  +6054.000000  +6544.000000  +7042.000000  +7475.000000  +7910.000000  +8282.000000  +8655.000000  +8972.000000  +9923.000000

#
# Alt: 50000
  +1325.000000  +1400.000000  +1560.000000  +1750.000000  +2150.000000  +2400.000000  +2650.000000  +2916.000000  +3214.000000  +3545.000000
  +3905.000000  +4222.000000  +4564.000000  +4911.000000  +5213.000000  +5516.000000  +5776.000000  +6036.000000  +6257.000000  +6920.000000

#
# Alt: 60000
   +700.000000   +750.000000   +860.000000   +975.000000  +1150.000000  +1275.000000  +1400.000000  +1600.000000  +1800.000000  +2000.000000
  +2200.000000  +2400.000000  +2600.000000  +2800.000000  +3000.000000  +3200.000000  +3400.000000  +3600.000000  +3800.000000  +4400.000000

#
# Alt: 100000
    +57.000000    +56.000000    +62.000000    +66.000000    +77.000000    +84.000000    +92.000000   +102.000000   +114.000000   +128.000000
   +143.000000   +159.000000   +166.000000   +168.000000   +169.000000   +169.000000   +169.000000   +168.000000   +164.000000   +152.000000

#-----------------------------------------------------
#    THRST3 - THRUST AT FULL AB (THROTL = 1.05)
#-----------------------------------------------------
# Alt: 0
 +22200.000000 +21420.000000 +22700.000000 +24240.000000 +26000.000000 +27000.000000 +28400.000000 +31600.000000 +33500.000000 +34400.000000
 +34370.000000 +33495.000000 +31925.000000 +29790.000000 +27150.000000 +23985.000000 +20560.000000 +16855.000000 +12950.000000  +1235.000000

#
# Alt: 10000
 +16000.000000 +15700.000000 +16860.000000 +18910.000000 +21075.000000 +22100.000000 +23319.000000 +24364.000000 +25410.000000 +26455.000000
 +27500.000000 +28000.000000 +28000.000000 +28000.000000 +27500.000000 +25429.000000 +23357.000000 +21286.000000 +19214.000000 +13000.000000

#
# Alt: 20000
 +10950.000000 +11225.000000 +12250.000000 +13760.000000 +15975.000000 +17100.000000 +18300.000000 +19225.000000 +20150.000000 +21075.000000
 +22000.000000 +22500.000000 +23000.000000 +23000.000000 +23000.000000 +22571.000000 +22143.000000 +21714.000000 +21286.000000 +20000.000000

#
# Alt: 30000
  +7050.000000  +7323.000000  +8154.000000  +9285.000000 +11115.000000 +12150.000000 +13400.000000 +14300.000000 +15200.000000 +16100.000000
 +17000.000000 +18000.000000 +19000.000000 +19667.000000 +20333.000000 +21000.000000 +21667.000000 +22333.000000 +23000.000000 +25000.000000

#
# Alt: 40000
  +4350.000000  +4435.000000  +4800.000000  +5400.000000  +6250.000000  +7100.000000  +8500.000000  +9625.000000 +10750.000000 +11875.000000
 +13000.000000 +14250.000000 +15000.000000 +15489.000000 +15978.000000 +16467.000000 +16956.000000 +17444.000000 +17933.000000 +19400.000000

#
# Alt: 50000
  +2500.000000  +2600.000000  +2835.000000  +3215.000000  +3950.000000  +4500.000000  +5057.000000  +6000.000000  +7000.000000  +7750.000000
  +8200.000000  +8600.000000  +9000.000000  +9389.000000  +9778.000000 +10167.000000 +10556.000000 +10944.000000 +11333.000000 +12500.000000

#
# Alt: 60000
  +1350.000000  +1400.000000  +1600.000000  +1800.000000  +2200.000000  +2450.000000  +2850.000000  +3400.000000  +4000.000000  +4350.000000
  +4450.000000  +4500.000000  +4750.000000  +4803.000000  +4900.000000  +5033.000000  +5203.000000  +5300.000000  +5300.000000  +5300.000000

#
# Alt: 100000
   +163.000000   +163.000000   +177.000000   +201.000000   +247.000000   +281.000000   +316.000000   +375.000000   +438.000000   +484.000000
   +516.000000   +531.000000   +541.000000   +547.000000   +550.000000   +550.000000   +550.000000   +547.000000   +531.000000   +483.000000

#-----------------------------------------------------
#    ROLL DATA
#-----------------------------------------------------
#    ALPHA BREAKPOINTS
7 # Num ALPHA
   -10   0   10   20   30   40   90
#
7 # DYNAMIC PRESSURE BREAKPOINTS
   0   100   200   300   400   500   2000
#-----------------------------------------------------
#     RCMDMX - PEAK ROLL RATE
#-----------------------------------------------------
1   # Table Multiplier

# ALPHA -10
 0.00 68.18 136.36 150.00 177.27 177.27 163.64
#
# ALPHA 0
 0.00 190.91 259.09 272.73 300.00 300.00 286.36
#
# ALPHA 10
 0.00 68.18 136.36 150.00 177.27 177.27 163.64
#
# ALPHA 20
 0.00 23.64 27.27 40.91 54.55 54.55 54.55
#
# ALPHA 30
 0.00 16.82 16.82 20.45 34.09 34.09 27.27
#
# ALPHA 40
 0.00 10.00 10.00 15.00 20.00 20.00 17.00
#
# ALPHA 90
 0.00 0.00 0.00 0.00 0.00 0.00 0.00
#
# End Of Roll Data
#
#-----------------------------------------------------
# LIMITERS
#-----------------------------------------------------
17   # Number of limiters
# Type Key Values
#
# Neg G Limiter
0 0     250.0     -3.0     100.0     0.0
# Pos G Limiter (Cat I)
3 1     15.0     9.0     20.4     7.3     30.0     1.0
# Roll Rate Limiter
0 2     15.0     1.0     29.0     1.0
# Yaw Alpha Limiter
0 3     14.0     1.0     26.0     0.0
# Yaw Roll Rate Limiter
0 4     20.0     1.0     360.0     0.0
# Cat III Command Type
0 5     100.0     7.0     420.0     15.0
# Cat III AOA Limiter
1 6     17.0
# Cat III Roll Rate Limiter
2 7     0.6
# Cat III Yaw Alpha Limiter
0 8     3.0     1.0     15.0     0.0
# Cat III Yaw Roll Rate Limiter
0 9     20.0     1.0     180.0     0.0
# Pitch and Yaw Control Damper
3 10     0.00     0.30     15.00     0.85     50.00     1.00
# Roll Control Damper
3 11     0.00     0.60     15.00     0.85     50.00     1.00
# Command Type
1 12     30
# Low Speed Omega
3 13     0.01     0.10     40.00     0.80     60.00     1.00
# Stores Drag
0 14     0.9     0.000049     1.0     0.000140
# Cat III Max Gs
1 16     6.0
# AOA Limiter
1 17     30.0
#-----------------------------------------------------
# Vapor data
#-----------------------------------------------------
39   #Total Number of vapor chains - MUST MATCH THE REAL NUMBER OF CHAINS DEFINED LATER OR YOU'LL GET CTDs!
#
#		              POSITION				  SIZE					   TIME/ALPHA				   OTHER	
#	startX  startY  startZ  endX	endY	endZ	Init	Growth	RandPos t1	a1	t2	a2	t3	a3	t4	a4	LEVEL	PSID
# level 0
	+3.59	+6.77	-2.50	-5.76	+6.77	-4.50	+0.312	+0.2500	+0.100	+0.00	+0.20	+1.00	+0.10	+0.00	+0.00	+0.00	+0.00	+0	+1
	+3.08	+7.28	-2.50	-5.92	+7.28	-4.50	+0.412	+0.2500	+0.100	+0.00	+0.15	+1.00	+0.10	+0.00	+0.00	+0.00	+0.00	+0	+1
	+2.57	+7.80	-2.50	-6.07	+7.80	-4.50	+0.412	+0.2500	+0.100	+0.00	+0.15	+1.00	+0.10	+0.00	+0.00	+0.00	+0.00	+0	+1
	+2.22	+8.22	-2.50	-6.10	+8.22	-4.50	+1.212	+0.3000	+0.100	+0.00	+0.20	+1.00	+0.10	+0.00	+0.00	+0.00	+0.00	+0	+1
	+1.71	+8.73	-2.50	-6.22	+8.73	-4.50	+1.212	+0.3000	+0.100	+0.00	+0.20	+1.00	+0.10	+0.00	+0.00	+0.00	+0.00	+0	+1
	+1.20	+9.24	-2.50	-6.38	+9.24	-4.50	+1.212	+0.3000	+0.100	+0.00	+0.20	+1.00	+0.10	+0.00	+0.00	+0.00	+0.00	+0	+1
	+0.69	+9.75	-2.50	-6.46	+9.75	-4.50	+1.212	+0.3000	+0.100	+0.00	+0.20	+1.00	+0.10	+0.00	+0.00	+0.00	+0.00	+0	+1
	+0.44	+10.09	-2.50	-6.61	+10.09	-4.50	+1.212	+0.3000	+0.100	+0.00	+0.20	+1.00	+0.10	+0.00	+0.00	+0.00	+0.00	+0	+1
	-0.60	+10.52	-2.50	-6.69	+10.52	-4.50	+1.212	+0.3000	+0.100	+0.00	+0.20	+1.00	+0.10	+0.00	+0.00	+0.00	+0.00	+0	+1
	-0.66	+11.12	-2.50	-6.84	+11.12	-4.50	+1.212	+0.3000	+0.100	+0.00	+0.20	+1.00	+0.10	+0.00	+0.00	+0.00	+0.00	+0	+1
	-1.26	+11.72	-2.50	-7.00	+11.72	-4.50	+1.212	+0.3000	+0.100	+0.00	+0.20	+1.00	+0.10	+0.00	+0.00	+0.00	+0.00	+0	+1
	-1.70	+12.31	-2.50	-7.15	+12.32	-4.50	+1.212	+0.3000	+0.100	+0.00	+0.20	+1.00	+0.10	+0.00	+0.00	+0.00	+0.00	+0	+1
	-2.19	+12.82	-2.50	-7.31	+12.82	-4.50	+1.212	+0.3000	+0.100	+0.00	+0.20	+1.00	+0.10	+0.00	+0.00	+0.00	+0.00	+0	+1
	-2.70	+13.33	-2.50	-7.46	+13.33	-4.50	+1.212	+0.3000	+0.100	+0.00	+0.20	+1.00	+0.10	+0.00	+0.00	+0.00	+0.00	+0	+1
	-3.21	+13.93	-2.50	-7.62	+13.93	-4.50	+1.212	+0.3000	+0.100	+0.00	+0.20	+1.00	+0.10	+0.00	+0.00	+0.00	+0.00	+0	+1
	-3.73	+14.44	-2.50	-7.93	+14.44	-4.50	+1.212	+0.3000	+0.100	+0.00	+0.20	+1.00	+0.10	+0.00	+0.00	+0.00	+0.00	+0	+1
	-4.15	+14.86	-2.50	-8.20	+14.86	-4.50	+1.212	+0.3000	+0.100	+0.00	+0.20	+1.00	+0.10	+0.00	+0.00	+0.00	+0.00	+0	+1
	-4.58	+15.37	-2.50	-8.00	+15.37	-4.50	+1.212	+0.3000	+0.100	+0.00	+0.20	+1.00	+0.10	+0.00	+0.00	+0.00	+0.00	+0	+1
	-5.00	+15.88	-2.50	-8.20	+15.88	-4.50	+1.212	+0.3000	+0.100	+0.00	+0.20	+1.00	+0.10	+0.00	+0.00	+0.00	+0.00	+0	+1
	-5.50	+16.31	-2.50	-8.26	+16.31	-4.50	+1.212	+0.3000	+0.100	+0.00	+0.20	+1.00	+0.10	+0.00	+0.00	+0.00	+0.00	+0	+1
# level 1
	+3.08	+7.28	-3.10	-16.00	+7.28	-5.50	+1.612	+0.3000	+0.100	+0.00	+0.20	+1.00	+0.10	+0.00	+0.00	+0.00	+0.00	+1	+1
	+2.57	+7.80	-3.10	-16.00	+7.80	-5.50	+1.612	+0.3000	+0.100	+0.00	+0.20	+1.00	+0.10	+0.00	+0.00	+0.00	+0.00	+1	+1
	+1.71	+8.73	-3.00	-16.00	+8.73	-5.50	+1.612	+0.3000	+0.100	+0.00	+0.20	+1.00	+0.10	+0.00	+0.00	+0.00	+0.00	+1	+1
	+0.69	+9.75	-2.90	-16.00	+9.75	-5.50	+1.612	+0.3000	+0.100	+0.00	+0.20	+1.00	+0.10	+0.00	+0.00	+0.00	+0.00	+1	+1
	-0.60	+10.52	-2.90	-16.00	+10.52	-5.50	+1.612	+0.3000	+0.100	+0.00	+0.20	+1.00	+0.10	+0.00	+0.00	+0.00	+0.00	+1	+1
	-1.26	+11.72	-2.80	-16.00	+11.72	-5.50	+1.612	+0.3000	+0.100	+0.00	+0.20	+1.00	+0.10	+0.00	+0.00	+0.00	+0.00	+1	+1
	-2.19	+12.82	-2.80	-16.00	+12.82	-5.50	+1.612	+0.3000	+0.100	+0.00	+0.20	+1.00	+0.10	+0.00	+0.00	+0.00	+0.00	+1	+1
	-3.21	+13.93	-2.70	-16.00	+13.93	-5.50	+1.612	+0.3000	+0.100	+0.00	+0.20	+1.00	+0.10	+0.00	+0.00	+0.00	+0.00	+1	+1
	-4.15	+14.86	-2.70	-16.00	+14.86	-5.50	+1.612	+0.3000	+0.100	+0.00	+0.20	+1.00	+0.10	+0.00	+0.00	+0.00	+0.00	+1	+1
	-5.00	+15.88	-2.60	-16.00	+15.88	-5.50	+1.612	+0.3000	+0.100	+0.00	+0.20	+1.00	+0.10	+0.00	+0.00	+0.00	+0.00	+1	+1
# level 2
	+1.25	+1.07	-2.60	-16.00	+1.07	-5.50	+1.712	+0.3500	+0.150	+0.00	+0.20	+1.00	+0.10	+0.00	+0.00	+0.00	+0.00	+2	+1
	+1.25	+1.41	-2.60	-16.00	+1.41	-5.50	+1.712	+0.3500	+0.150	+0.00	+0.20	+1.00	+0.10	+0.00	+0.00	+0.00	+0.00	+2	+1
	+1.25	+1.76	-2.60	-16.00	+1.76	-5.50	+1.712	+0.3500	+0.150	+0.00	+0.20	+1.00	+0.10	+0.00	+0.00	+0.00	+0.00	+2	+1
	+1.25	+2.17	-2.60	-16.00	+2.17	-5.50	+1.712	+0.3500	+0.150	+0.00	+0.20	+1.00	+0.10	+0.00	+0.00	+0.00	+0.00	+2	+1
	+1.25	+2.40	-2.60	-16.00	+2.40	-5.50	+1.712	+0.3500	+0.150	+0.00	+0.20	+1.00	+0.10	+0.00	+0.00	+0.00	+0.00	+2	+1
	+1.25	+2.87	-2.60	-16.00	+2.87	-5.50	+1.712	+0.3500	+0.150	+0.00	+0.20	+1.00	+0.10	+0.00	+0.00	+0.00	+0.00	+2	+1
	+1.25	+3.28	-2.60	-16.00	+3.28	-5.50	+1.712	+0.3500	+0.150	+0.00	+0.20	+1.00	+0.10	+0.00	+0.00	+0.00	+0.00	+2	+1
	+1.25	+3.80	-2.60	-16.00	+3.80	-5.50	+1.712	+0.3500	+0.150	+0.00	+0.20	+1.00	+0.10	+0.00	+0.00	+0.00	+0.00	+2	+1
	+1.25	+4.27	-2.60	-16.00	+3.80	-5.50	+1.712	+0.3500	+0.150	+0.00	+0.20	+1.00	+0.10	+0.00	+0.00	+0.00	+0.00	+2	+1
#
#-----------------------------------------------------
# ADDITIONAL DATA
#-----------------------------------------------------
#
#-----------------------------------------------------
# Aircraft
#-----------------------------------------------------
typeAC 4
isComplex 1
#-----------------------------------------------------
# Engine
#-----------------------------------------------------
typeEngine 2
nEngines 2
engine1Location -24.20 -2.40 0.10
engine2Location -24.20 2.40 0.10
engine3Location 0.00 0.00 0.00
engine4Location 0.00 0.00 0.00
engineSmokes 0
normSpoolRate 1.0
abSpoolRate 1.0
nozzleMil 0.00
LGIdle 0
jfsStartUpTime 15
jfsSpoolUpRate 15.0
jfsSpoolUpLimit 0.25
lightupSpoolRate 10.0
flameoutSpoolRate 35.0
jfsRechargeTime 60
jfsMinRechargeRpm 0.12
jfsSpinTime 240
FTITStart 6.100
FTITIdle 5.100
FTITMax 7.600
FTITAB 7.623
mainGenRpm 0.63
stbyGenRpm 0.60
epuBurnTime 600
DeepStallEngineStall 0
engineDamageStopThreshold 15
engineDamageNoRestartThreshold 3
engineDamageHitThreshold 42
complexnozzle 0
animExhNozIdle 0.0
animExhNozMil 10.0
animExhNozMax 5.0
animExhNozAB 0.0
animExhNozABMax 15.0
animExhNozRate 5.0
PropEngineSwitchStates 0
animEngineRPMMult 1000
HeatBlurShift -7
hasReverseThrust 0
ReverseThrustFactor 0.0
minReverseThrustSpeed 0
animReverseAngle 0
animReverseRate 0.0
#-----------------------------------------------------
# JetBlast data
#-----------------------------------------------------
WakeFactor 1.0
WakeAngle 4.28
WakeRange 668
#-----------------------------------------------------
# IntakeRamp
#-----------------------------------------------------
animIntakeRamp1Table 3, 0 8 15, 4, 0.00 0.40 0.50 0.95, 11 11 0 11, 11 11 0 11, 11 11 11 11
animIntakeRamp1Rate 11.0
#-----------------------------------------------------
# Flight Dynamics
#-----------------------------------------------------
area2Span 0.0704
pitchMomentum 1.10
rollMomentum 0.90
yawMomentum 1.50
pitchElasticity 1.00
gearPitchFactor 0.00
pitchGearGain 1.00
rollGearGain 1.00
yawGearGain 1.00
AFMcriticalAOA 0.0
#-----------------------------------------------------
# Controls
#-----------------------------------------------------
elevonMaxAngle 20.0
aileronMaxAngle 20.0
rudderMaxAngle 20.0
rollCouple -0.05
elevatorRoll 0
elevRate 60
animAileronRate 45
rudderRate 120
animSpoiler1Max 0
animSpoiler1Rate 45.0
animSpoiler1OffAtWingSweep 70.0
animSpoiler1AirBrake 0
animSpoiler2Max 0
animSpoiler2Rate 45.0
animSpoiler2OffAtWingSweep 70.0
animSpoiler2AirBrake 0
#-----------------------------------------------------
# Trim
#-----------------------------------------------------
pitchElevatorTrimRate 0.05
pitchAileronTrimRate 0.05
pitchRudderTrimRate 0.25
trimDeadZonePercentage 0.05
#-----------------------------------------------------
# Flaps
#-----------------------------------------------------
hasFlapperons 0
flapGearRelative 1
maxFlapVcas 270
flapVcasRange 60
flap2Nozzle 0
#-----------------------------------------------------
# Lef (Slats)
#-----------------------------------------------------
haslef 0
lefGround -2.0
lefMaxAngle 20.0
lefMaxMach 0.04
lefNStages 1
CDlefFactor 0.00
lefRate 5
#-----------------------------------------------------
# Tef (Flaps)
#-----------------------------------------------------
hasTef 1
tefMaxAngle 45.0
CLtefFactor 0.80
CDtefFactor 0.20
AFMCDtefFactor 0.05
tefNStages 3
tefTakeoff 15.0
tefRate 5
NoTefSound 0
#-----------------------------------------------------
# Air-Brakes
#-----------------------------------------------------
CDSPDBFactor 0.080
airbrakeMaxAngle 45
airbrakeOutRateFactor 0.500000 #Falcas 04/16/2014
airbrakeInRateFactor 0.187000 #Falcas 04/16/2014
airbrakeApproachAngle 25 #Added Falcas
minAirbrakeSpeed -1
#-----------------------------------------------------
# Drag Chute
#-----------------------------------------------------
dragChuteCd 0.000
dragChuteMaxSpeed 170
dragChuteDropSpeed 90 #Added Falcas
dragChuteMinRunwayLength 0 #Added Falcas
dragChuteDelay 2.0 #Added Falcas
#-----------------------------------------------------
# Gear and NWS
#-----------------------------------------------------
CDLDGFactor 0.060
sinkRate 15
MLGWOWPercentage 0.90
NLGWOWPercentage 0.50
NWSRateUp 1.5
NWSRateDown 4.0
animWheelRadius1 0.90
animWheelRadius2 1.28
animWheelRadius3 1.28
animWheelRadius4 0.00
animWheelRadius5 0.00
animWheelRadius6 0.00
animWheelRadius7 0.00
animWheelRadius8 0.00
animGearMaxComp1 0.50
animGearMaxComp2 0.20
animGearMaxComp3 0.20
animGearMaxComp4 0.00
animGearMaxComp5 0.00
animGearMaxComp6 0.00
animGearMaxComp7 0.00
animGearMaxComp8 0.00
animGearMaxExt1 0.60
animGearMaxExt2 0.60
animGearMaxExt3 0.60
animGearMaxExt4 0.00
animGearMaxExt5 0.00
animGearMaxExt6 0.00
animGearMaxExt7 0.00
animGearMaxExt8 0.00
animGearInverted 0
GearDofRate1 0.60 #Added Falcas 01/13/1014
GearDofRate2 0.60
GearDofRate3 0.60
GearDofRate4 0.60
GearDofRate5 0.60
GearDofRate6 0.60
GearDofRate7 0.60
GearDofRate8 0.60
GearDelayDown1 1.50 #Added Falcas 01/13/1014
GearDelayDown2 1.50
GearDelayDown3 1.50
GearDelayDown4 1.50
GearDelayDown5 1.50
GearDelayDown6 1.50
GearDelayDown7 1.50
GearDelayDown8 1.50
GearDelayUp1 0.00 #Added Falcas 01/13/1014
GearDelayUp2 0.00
GearDelayUp3 0.00
GearDelayUp4 0.00
GearDelayUp5 0.00
GearDelayUp6 0.00
GearDelayUp7 0.00
GearDelayUp8 0.00
DoorDofRate1 0.60 #Added Falcas 01/13/1014
DoorDofRate2 0.60
DoorDofRate3 0.60
DoorDofRate4 0.60
DoorDofRate5 0.60
DoorDofRate6 0.60
DoorDofRate7 0.60
DoorDofRate8 0.60
DoorDelayDown1 0.00 #Added Falcas 01/13/1014
DoorDelayDown2 0.00
DoorDelayDown3 0.00
DoorDelayDown4 0.00
DoorDelayDown5 0.00
DoorDelayDown6 0.00
DoorDelayDown7 0.00
DoorDelayDown8 0.00
DoorDelayUp1 1.50 #Added Falcas 01/13/1014
DoorDelayUp2 1.50
DoorDelayUp3 1.50
DoorDelayUp4 1.50
DoorDelayUp5 1.50
DoorDelayUp6 1.50
DoorDelayUp7 1.50
DoorDelayUp8 1.50
#-----------------------------------------------------
# Hook
#-----------------------------------------------------
hookTipLocation 0.00 0.00 0.00
animHookAngle 0.0
animHookRate 0.0
#-----------------------------------------------------
# Wing fold
#-----------------------------------------------------
animWingFoldAngle 0
animWingFoldRate 0.0
#-----------------------------------------------------
# Canopy
#-----------------------------------------------------
canopyMaxAngle 20
canopyOpenRate 5.0
canopyCloseRate 5.0
canopyMaxSpeed 70
#-----------------------------------------------------
# Fuel
#-----------------------------------------------------
fuelGaugeMultiplier 10.0
fuelFlowFactorNormal 0.690
fuelFlowFactorAb 2.170
minFuelFlow 860
fuelFwdRes 4000
fuelAftRes 4000
fuelFwd1 2000
fuelFwd2 0
fuelAft1 1455
fuelWingAl 1000
fuelWingFr 1000
fuelFwdResRate 22.200
fuelAftResRate 22.200
fuelFwd1Rate 22.200
fuelFwd2Rate 0.000
fuelAft1Rate 22.200
fuelWingAlRate 22.200
fuelWingFrRate 22.200
fuelClineRate 20.000
fuelWingExtRate 33.300
fuelMinFwd 400
fuelMinAft 250
#-----------------------------------------------------
# Air-Air Refuel
#-----------------------------------------------------
receiverRefuelServiceType 1 #Added Falcas 01/21/2014
refuelLocation 5.67 -5.59 -1.90
refuelSpeed 310
refuelAltitude 22500
refuelRate 50
AIBoomDistance 10
decelDistance 5000
desiredClosureFactor 0.45
longLeg 60
shortLeg 25
IL78Factor 36.0
animRefuelAngle 0.0
animRefuelRate 0.0
#-----------------------------------------------------
# Avionics
#-----------------------------------------------------
avionicsCanUseSpice 0
avionicsJDAMAvionicsType 0
avionicsDiffICPStyle 0
avionicsMLUPFL 1
avionicsDatalink 1
avionicsHudLadderTapeType 0
avionicsHudVAHTapeType 0
avionicsHudDGFTDefaultMode 0
avionicsDGFTMasterModeLabelOnHud 0
avionicsDGFTAttitudeAwareness 1
avionicsMLUM2TAOnHUD 1
avionicsHudAATargetAspectAngle 1
avionicsHudOlderMasterModeWindow 0
avionicsNewAMRAAMdlz 1
avionicsBullseyeOnHud 1
avionicsDEDHudRepeaterBlanksOnDGFT 1
avionicsHudNavDeclutterEnabled 1
avionicsHudNavSpdAltTapesLag 0
avionicsZenithNadirOnHud 1
avionicsGhostHorizonAwareness 1
avionicsEPAFRadarCues 1
avionicsRadarJamChevrons 1
avionicsColorMfd 1
avionicsGrayScaleGM 1
avionicsActivateMFDBoot 1 #uri_ba 07/03/2015
avionicsMMCUpgrade 1
avionicsEGIUpgrade 1
avionicsDigitalFLCS 1
avionicsRWRType 0
avionicsGunEEGSMode 1
avionicsGunSSLCMode 1
avionicsGunLCOSMode 1
avionicsGunSNAPMode 1
avionicsEngineType 0
avionicsMfdCataSymbolAim120 0
avionicsHudOldBAIType 0
avionicsCursorEnableAsToggle 0
avionicsMaverickHandoffCapeable 1
#-----------------------------------------------------
# Autopilot
#-----------------------------------------------------
maxAutopilotMach 0.95
#-----------------------------------------------------
# Locations
#-----------------------------------------------------
PilotEyePos 21.50 0.00 -3.60
wingTipLocation -10.50 20.90 -2.00
#-----------------------------------------------------
# Counter measure
#-----------------------------------------------------
hasEWS 1
ecmStrength 0.000
nChaff 120
nFlare 60
FlareDispensers 4
FlareSeq 0
FlarePos1 4.00 2.95 2.25
FlareVec1 0.00 0.00 75.00
FlareCount1 15
FlarePos2 4.00 -2.95 2.25
FlareVec2 0.00 0.00 75.00
FlareCount2 15
FlarePos3 4.50 2.95 2.25
FlareVec3 0.00 0.00 75.00
FlareCount3 15
FlarePos4 4.50 -2.95 2.25
FlareVec4 0.00 0.00 75.00
FlareCount4 15
ChaffDispensers 4
ChaffSeq 0
ChaffPos1 4.00 3.60 2.25
ChaffVec1 0.00 0.00 75.00
ChaffCount1 30
ChaffPos2 4.00 -3.60 2.25
ChaffVec2 0.00 0.00 75.00
ChaffCount2 30
ChaffPos3 4.50 3.60 2.25
ChaffVec3 0.00 0.00 75.00
ChaffCount3 30
ChaffPos4 4.50 -3.60 2.25
ChaffVec4 0.00 0.00 75.00
ChaffCount4 30
#-----------------------------------------------------
# Hardpoint data
#-----------------------------------------------------
hardpoint1Grp 0
hardpoint2Grp generic-aim
hardpoint3Grp generic-aim
hardpoint4Grp generic-aim
hardpoint5Grp generic-aim
hardpoint6Grp nopylon-left
hardpoint7Grp f15c-center
hardpoint8Grp nopylon-right
hardpoint9Grp generic-aim
hardpoint10Grp generic-aim
hardpoint11Grp generic-aim
hardpoint12Grp generic-aim
hardpoint13Grp 0
hardpoint14Grp 0
hardpoint15Grp 0
hardpoint16Grp 0
#-----------------------------------------------------
# Sounds
#-----------------------------------------------------
sndExternalVol -2000
sndSpdBrakeStart 141
sndSpdBrakeLoop 140
sndSpdBrakeEnd 139
sndSpdBrakeWind 142
sndOverSpeed1 191
sndOverSpeed2 192
sndGunStart 25
sndGunLoop 26
sndGunEnd 27
sndBBPullup 68
sndBBBingo 66
sndBBWarning 63
sndBBCaution 64
sndBBBeeps 301
sndBBChaffFlareLow 184
sndBBFlare 138
sndBBChaffFlare 183
sndBBChaffFlareOut 185
sndBBAltitude 65
sndBBLock 67
sndTouchDown 42
sndWheelBrakes 132
sndDragChute 218
sndLowSpeed 167
sndFlapStart 145
sndFlapLoop 144
sndFlapEnd 143
sndHookStart 195
sndHookLoop 194
sndHookEnd 193
sndGearCloseStart 147
sndGearCloseEnd 146
sndGearOpenStart 149
sndGearOpenEnd 150
sndGearLoop 148
sndCanopyOpenStart 271
sndCanopyOpenLoop 275
sndCanopyOpenEnd 272
sndCanopyCloseStart 273
sndCanopyCloseLoop 361
sndCanopyCloseEnd 274
sndEject 5
sndWind 33
sndBattery 304
sndRadioBuzz 305
sndJFSStart 288
sndJFSLoop 289
sndJFSEnd 290
sndJFSStartInt 306
sndJFSLoopInt 307
sndJFSendInt 308
#-----------------------------------------------------
# Sounds Engine Ext
#-----------------------------------------------------
sndAbExt 225
#
sndExt 222
#
sndExt2 276
#
sndExt3 0
#-----------------------------------------------------
# Sounds Engine Int
#-----------------------------------------------------
sndInt 34
#
sndInt2 278
#
sndInt3 303
#
sndAbInt 40
#
sndAbInt2 297
#-----------------------------------------------------
# Sounds Aero
#-----------------------------------------------------
sndAero1 0
#
sndAero2 0
#
sndAero3 0
#
sndAero4 0
#-----------------------------------------------------
# AI behaviour
#-----------------------------------------------------
rollLimitForAiInWP 60
followRate 70
BingoReturnDistance 50
jokerFactor 5.4
bingoFactor 5.4
fumesFactor 27.1
largePark 0
minTakeoffRunwayLengthClean -1 #Added Falcas
minTakeoffRunwayLengthMTOW -1 #Added Falcas
optTakeoffPitch 12.0 #Falcas 08/13/2014
gearRetractAlt 30 #Added Falcas
maxClimbPitch 15.0 #Falcas 08/13/2014
optClimbSpeed 350 #Falcas 08/13/2014
optClimbMach 0.82 #Falcas 08/13/2014
minClimbRate 4800 #Falcas 08/13/2014
descentPath -1.0 #Added Falcas
landingAOA 12.0 #Falcas 07/04/2013
aiLandingOffset -500 #Added Falcas
MinTGTMAR 4
MaxMARIdedStart 20
AddMARIded5k 0
AddMARIded18k 2
AddMARIded28k 4
AddMARIdedSpike 1
MaxWEZtaStart 5
IsShortBurnThreat 0
IsLongBurnThreat 1
#-----------------------------------------------------
# Missions
#-----------------------------------------------------
misTypeCapability 41 100 100 100 100 100 100 100 100 100 100 100 100 100 100 100 100 100 100 100 100 100 100 100 100 100 100 100 100 100 100 100 100 100 100 100 100 100 100 100 100 100
#-----------------------------------------------------
# TFR
#-----------------------------------------------------
Has_TFR 0
Has_OnboardTFR 0
PID_K 0.5
PID_KI 0.0
PID_KD 0.4
TFR_LimitMX 0.0
TFR_Corner 420
TFR_Gain 0.010
EVA_Gain 15.0 #10-12-2014
TFR_MaxRoll 60
TFR_SoftG 2.0
TFR_MedG 2.0
TFR_HardG 2.0
TFR_Clearance 20
SlowPercent 0
TFR_lookAhead 7000 #10-12-2014
EVA1_SoftFactor 0.6
EVA2_SoftFactor 0.5
EVA1_MedFactor 0.6
EVA2_MedFactor 0.5
EVA1_HardFactor 0.6
EVA2_HardFactor 0.5
TFR_GammaCorrMult 1.5 #10-12-2014
#-----------------------------------------------------
# TGP
#-----------------------------------------------------
Has_TGP 0 #Falcas, Needs to be removed from file later on.
Has_OnboardTGP 0 #Falcas, Needs to be removed from file later on.
#Switch: 0 - No TGP, 1 - Internal TGP, 2 - External on AC, 3 - External on HP
TGP_Type 0 #Added Falcas 14/06/2014
TGP_PodWeight 0.0
TGP_PodDrag 0.0
#Switch: 0 - none, 1 - left, 2 - right
TGP_PodPowerSwitch 0
TGP_PodPosX 0.00
TGP_PodPosY 0.00
TGP_PodPosZ 0.00
#-----------------------------------------------------
# HTS
#-----------------------------------------------------
Has_HTS 0
Has_OnboardHTS 0
HTS_PodWeight 0.0
HTS_PodDrag 0.0
#Switch: 0 - none, 1 - left, 2 - right
HTS_PodPowerSwitch 0
HTS_PodPosX 0.00
HTS_PodPosY 0.00
HTS_PodPosZ 0.00
#-----------------------------------------------------
# Lantirn
#-----------------------------------------------------
Has_LANTIRN 0
Has_OnboardLANTIRN 0
LANTIRN_PodWeight 0.0
LANTIRN_PodDrag 0.0
#Switch: 0 - none, 1 - left, 2 - right
LANTIRN_PodPowerSwitch 1
LANTIRN_PodPosX 0.00
LANTIRN_PodPosY 0.00
LANTIRN_PodPosZ 0.00
LantirnCameraX 10.00
LantirnCameraY 2.00
LantirnCameraZ 5.00
#-----------------------------------------------------
# Gun
#-----------------------------------------------------
gunLocation 11.40 5.40 -0.50
gunTrailID 11
GunEffect 5900
gunPitch 0.00
gunYaw 0.00
canDoGunStrafe 0
#-----------------------------------------------------
# Weapons
#-----------------------------------------------------
A2GHarmAlt 20000
A2GAGMAlt 8000
A2GGBUAlt 20000
A2GDumbHDAlt 1500
A2GClusterAlt 14000
A2GDumbLDAlt 16000
A2GGunRocketAlt 3500
A2GCameraAlt 12000
A2GBombMissileAlt 20000
A2GIAMBombAlt 20000
maxRippleCount 99
maxLoadoutDrag 41 -1 -1 -1 -1 -1 -1 -1 -1 -1 -1 -1 -1 -1 -1 -1 -1 -1 -1 -1 -1 -1 -1 -1 -1 -1 -1 -1 -1 -1 -1 -1 -1 -1 -1 -1 -1 -1 -1 -1 -1 -1
maxLoadoutWeight 41 100 100 100 100 100 100 100 100 100 100 100 100 100 100 100 100 100 100 100 100 100 100 100 100 100 100 100 100 100 100 100 100 100 100 100 100 100 100 100 100 100
minNumFuelTanks 41 0 0 0 0 0 0 0 0 0 0 0 0 0 0 0 0 0 0 0 0 0 0 0 0 0 0 0 0 0 0 0 0 0 0 0 0 0 0 0 0 0
extTanksLoadOrder 1
loadRadarGuidedFirst 0 #Added Falcas
#-----------------------------------------------------
# Rockets
#-----------------------------------------------------
rktAltIsAgl 0
rktHighAlt 3000
rktPreferedAlt 2000
rktLowAlt 1000
rktEmergencyAlt 700
rktFireRange 10000
rktPopupRange -1
rktPopupAlt 0
#-----------------------------------------------------
# ARMs
#-----------------------------------------------------
maxNumARMs 0
#-----------------------------------------------------
# Camera View TopGun
#-----------------------------------------------------
TopGunCamera1 7  -11.00  -26.00   -4.10   +0.00  +28.00   +0.00  60.0 #Left wing looking towards cockpit.
TopGunCamera2 7  +37.00  -26.00   -4.10   +0.00 +120.00   +0.00  60.0 #Right of cockpit looking toward pilots.
TopGunCamera3 7  +27.30   +0.00   +5.10   -2.00 -180.00   +0.00  60.0 #Before air intake looking backwards to gear.
TopGunCamera4 7  +60.00   +0.00  -12.40  -13.00 +180.00   +0.00  47.0 #Placed near the gun (created by Revient0R), looking backward.
#-----------------------------------------------------
# Lights
#-----------------------------------------------------
Light1Position -7.50 -21.20 -1.42 # WingTip Left (Falcas 06/13/2013)
Light1Color 0.40 0.00 0.00
Light1Type 2
Light1Radius 75
Light1Attenuation 0.700

Light2Position 5.50 -7.31 -1.60 # WingRoot Left (Falcas 06/13/2013)
Light2Color 0.40 0.00 0.00
Light2Type 1
Light2Radius 25
Light2Attenuation 0.700

Light3Position -23.60 -5.70 -10.50 # Tail Left (Falcas 06/13/2013)
Light3Color 0.50 0.50 0.50
Light3Type 2
Light3Radius 75
Light3Attenuation 0.100

Light4Position -7.50 21.20 -1.42 # WingTip Right (Falcas 06/13/2013)
Light4Color 0.00 0.40 0.00
Light4Type 2
Light4Radius 75
Light4Attenuation 0.700

Light5Position 5.50 7.31 -1.60 # WingRoot Right (Falcas 06/13/2013)
Light5Color 0.40 0.00 0.00
Light5Type 1
Light5Radius 25
Light5Attenuation 0.700

Light6Position -23.60 5.70 -10.50 # Tail Right (Falcas 06/13/2013)
Light6Color 0.40 0.00 0.00
Light6Type 1
Light6Radius 75
Light6Attenuation 0.100

Light7Position -24.00 -2.40 0.10 # Burner1 Left (Falcas 06/13/2013)
Light7Color 0.50 0.50 0.50
Light7Type 10
Light7Radius 95
Light7Attenuation 0.060

Light8Position -26.00 -2.40 0.10 # Burner2 Left (Falcas 06/13/2013)
Light8Color 0.50 0.50 0.50
Light8Type 10
Light8Radius 95
Light8Attenuation 0.100

Light9Position -29.00 -2.40 0.10 # Burner3 Left (Falcas 06/13/2013)
Light9Color 0.50 0.50 0.50
Light9Type 10
Light9Radius 95
Light9Attenuation 0.200

Light10Position -24.00 2.40 0.10 # Burner1 Right (Falcas 06/13/2013)
Light10Color 0.50 0.50 0.50
Light10Type 10
Light10Radius 95
Light10Attenuation 0.060

Light11Position -26.00 2.40 0.10 # Burner2 Right (Falcas 06/13/2013)
Light11Color 0.50 0.50 0.50
Light11Type 10
Light11Radius 95
Light11Attenuation 0.100

Light12Position -29.00 2.40 0.10 # Burner3 Right (Falcas 06/13/2013)
Light12Color 0.50 0.50 0.50
Light12Type 10
Light12Radius 95
Light12Attenuation 0.200
animStrobeOnTime 0.800 # (Falcas 06/13/2013)
animStrobeOffTime 0.100 # (Falcas 06/13/2013)
animWingFlashOnTime 0.030
animWingFlashOffTime 1.500
numFormationLightLevels 0
#-----------------------------------------------------
# Spot Lights
#-----------------------------------------------------
SpotLight1Color 0.25 0.25 0.24 # color of the light
SpotLight1Position 14.82 0.00 4.03 # the light's position
SpotLight1LookAt 15.62 0.00 4.53 # position in model space at which the light should point
SpotLight1Attenuation 0.00010 # attenuation of the light
SpotLight1InnerConeDeg 30.000 # inner cone angle in degrees
SpotLight1OuterConeDeg 45.000 # outer cone angle in degrees
#-----------------------------------------------------
# Additionals that are not included in FMM.
#-----------------------------------------------------

#
# End of Additional
#
END OF DATA