# Title: F16BK15 PW200
# Author: Raptor & Mav-jp 10/18/2004
# Revision: Flight Model Manager ver:1.7.1.15 Date: 5/30/2015 11:39:35
#-----------------------------------------------------
# Comments
#-----------------------------------------------------
#ITO FM automated script has checked this file on 2014-11-29. Changes to avionics and CMDS are done by Echo and Uri_ba. Changes are marked by a comment.
#MODIF Falcas TGP and HTS data 30/9/2011
#MODIF DeeJay Minimum fuel tanks configuration 13/11/2013
#MODIF Echo and Uri_ba IAF Configuration 25/2/2014
#MODIF CMDS changed by uri_ba 28/02/2015
#
#-----------------------------------------------------
# SIMULATION INPUT PANEL
#-----------------------------------------------------
#
#-----------------------------------------------------
# INPUT MASS AND GEOMETRIC PROPERTIES
#-----------------------------------------------------
         +16800.000000  # Empty Weight (lbs)
           +300.000000  # Reference Area
          +7162.000000  # Internal Fuel
#-----------------------------------------------------
# ANGLE OF ATTACK AND SIDESLIP LIMITS
#-----------------------------------------------------
            +40.000000  # AOA Max
             -8.000000  # AOA Min
            +30.000000  # Beta Max
            -30.000000  # Beta Min
             +9.000000  # Max G
           +190.000000  # Max Roll
           +250.000000  # Min Vcas
           +800.000000  # Max Vcas
           +420.000000  # Corner Vcas
            +13.000000  # Theta Max
             +3.000000  # Num Gear
#
#Gear    xPos [ft]          yPos [ft]         zPos [ft]         Extent [deg]
         +16.50         +0.00         +5.80         +90.00
         +30.00         -3.88         +5.80         +75.00
         +30.00         +3.88         +5.80         +75.00
#-----------------------------------------------------
# Physical data
#-----------------------------------------------------
            +27.000000  # CG Loc
            +47.000000  # Length
            +32.000000  # Span
             +2.500000  # Fus Radius
             +4.500000  # Tail Ht
#
# End of Airframe data
#
#
#     BASIC AERODYNAMIC COEFFICIENTS
#
# AERODATA OPTIONS MUST BE LISTED HERE
aeropt AdvancedTEF
aeropt LefIncludedinCL
#
#-----------------------------------------------------
#     MACH BREAKPOINTS
#-----------------------------------------------------
+21.000000  # Num MACH
#
  +0.000000  +0.200000  +0.300000  +0.400000  +0.500000  +0.600000  +0.700000  +0.800000  +0.900000  +0.950000
  +1.000000  +1.050000  +1.100000  +1.200000  +1.300000  +1.400000  +1.500000  +1.600000  +1.700000  +1.800000
  +1.900000
#-----------------------------------------------------
#     ALPHA BREAKPOINTS
#-----------------------------------------------------
+44.000000  # Num Alpha
#
  -8.000000  -4.000000  +0.000000  +1.000000  +2.000000  +3.000000  +4.000000  +5.000000  +6.000000  +7.000000
  +8.000000  +9.000000 +10.000000 +11.000000 +12.000000 +13.000000 +14.000000 +14.500000 +15.000000 +15.500000
 +16.000000 +17.000000 +18.000000 +19.000000 +20.000000 +21.000000 +22.000000 +23.000000 +24.000000 +25.000000
 +26.000000 +27.000000 +28.000000 +29.000000 +30.000000 +31.000000 +32.000000 +33.000000 +34.000000 +35.000000
 +40.000000 +55.000000 +70.000000 +90.000000
#-----------------------------------------------------
#     LIFT COEFFICIENT  CL
#-----------------------------------------------------
+1.000000   # Table Multiplier
#
# Mach: 0
  -0.510000  -0.230000  +0.025000  +0.088000  +0.155000  +0.217000  +0.284000  +0.354000  +0.423000  +0.497000
  +0.571000  +0.645000  +0.718000  +0.789000  +0.861000  +0.930000  +0.999000  +1.031000  +1.062000  +1.093000
  +1.125000  +1.178000  +1.232000  +1.283000  +1.335000  +1.374000  +1.413000  +1.449000  +1.485000  +1.527000
  +1.568000  +1.620000  +1.671000  +1.720000  +1.769000  +1.801000  +1.833000  +1.848000  +1.863000  +1.879000
  +1.882000  +1.421000  +0.863000  +0.042000
#
# Mach: 0.2
  -0.510000  -0.230000  +0.025000  +0.088000  +0.155000  +0.217000  +0.284000  +0.354000  +0.423000  +0.497000
  +0.571000  +0.645000  +0.718000  +0.789000  +0.861000  +0.930000  +0.999000  +1.031000  +1.062000  +1.093000
  +1.125000  +1.178000  +1.232000  +1.283000  +1.335000  +1.374000  +1.413000  +1.449000  +1.485000  +1.527000
  +1.568000  +1.620000  +1.671000  +1.720000  +1.769000  +1.801000  +1.833000  +1.848000  +1.863000  +1.879000
  +1.882000  +1.421000  +0.863000  +0.042000
#
# Mach: 0.3
  -0.530000  -0.250000  +0.075000  +0.123000  +0.241000  +0.294000  +0.342000  +0.390000  +0.438000  +0.497000
  +0.556000  +0.627000  +0.699000  +0.768000  +0.837000  +0.898000  +0.959000  +0.988000  +1.018000  +1.048000
  +1.077000  +1.131000  +1.185000  +1.263000  +1.341000  +1.425000  +1.509000  +1.586000  +1.663000  +1.715000
  +1.768000  +1.812000  +1.856000  +1.897000  +1.939000  +1.959000  +1.980000  +1.987000  +1.995000  +2.002000
  +1.959000  +1.426000  +0.863000  +0.042000
#
# Mach: 0.4
  -0.550000  -0.270000  +0.075000  +0.123000  +0.171000  +0.219000  +0.273000  +0.338000  +0.404000  +0.476000
  +0.549000  +0.620000  +0.691000  +0.764000  +0.837000  +0.898000  +0.958000  +0.996000  +1.033000  +1.071000
  +1.108000  +1.177000  +1.246000  +1.298000  +1.351000  +1.421000  +1.492000  +1.551000  +1.611000  +1.657000
  +1.704000  +1.746000  +1.788000  +1.819000  +1.849000  +1.883000  +1.916000  +1.937000  +1.958000  +1.979000
  +1.922000  +1.423000  +0.863000  +0.042000
#
# Mach: 0.5
  -0.570000  -0.285000  +0.038000  +0.098000  +0.157000  +0.219000  +0.278000  +0.351000  +0.423000  +0.500000
  +0.578000  +0.646000  +0.715000  +0.781000  +0.847000  +0.913000  +0.978000  +1.020000  +1.062000  +1.104000
  +1.146000  +1.225000  +1.303000  +1.352000  +1.400000  +1.452000  +1.503000  +1.549000  +1.595000  +1.637000
  +1.678000  +1.712000  +1.746000  +1.771000  +1.795000  +1.814000  +1.832000  +1.849000  +1.866000  +1.883000
  +1.855000  +1.419000  +0.863000  +0.042000
#
# Mach: 0.6
  -0.585000  -0.295000  +0.000000  +0.108000  +0.164000  +0.225000  +0.295000  +0.365000  +0.436000  +0.506000
  +0.577000  +0.643000  +0.710000  +0.778000  +0.845000  +0.908000  +0.970000  +1.022000  +1.075000  +1.128000
  +1.180000  +1.246000  +1.312000  +1.360000  +1.407000  +1.455000  +1.503000  +1.540000  +1.577000  +1.618000
  +1.659000  +1.686000  +1.713000  +1.735000  +1.758000  +1.778000  +1.799000  +1.812000  +1.825000  +1.837000
  +1.823000  +1.417000  +0.863000  +0.042000
#
# Mach: 0.7
  -0.618000  -0.308000  +0.000000  +0.096000  +0.156000  +0.222000  +0.306000  +0.380000  +0.453000  +0.525000
  +0.597000  +0.668000  +0.740000  +0.805000  +0.871000  +0.942000  +1.012000  +1.057000  +1.101000  +1.145000
  +1.189000  +1.243000  +1.297000  +1.338000  +1.378000  +1.435000  +1.493000  +1.540000  +1.588000  +1.618000
  +1.649000  +1.673000  +1.696000  +1.713000  +1.729000  +1.744000  +1.760000  +1.775000  +1.790000  +1.805000
  +1.792000  +1.415000  +0.863000  +0.042000
#
# Mach: 0.8
  -0.650000  -0.320000  -0.020000  +0.062000  +0.153000  +0.242000  +0.328000  +0.413000  +0.498000  +0.575000
  +0.652000  +0.719000  +0.787000  +0.841000  +0.895000  +0.964000  +1.033000  +1.068000  +1.103000  +1.138000
  +1.173000  +1.227000  +1.280000  +1.330000  +1.381000  +1.431000  +1.482000  +1.522000  +1.562000  +1.588000
  +1.614000  +1.636000  +1.658000  +1.675000  +1.693000  +1.708000  +1.724000  +1.738000  +1.752000  +1.766000
  +1.786000  +1.415000  +0.863000  +0.042000
#
# Mach: 0.9
  -0.701000  -0.400000  -0.007000  +0.077000  +0.162000  +0.260000  +0.353000  +0.447000  +0.542000  +0.622000
  +0.702000  +0.757000  +0.811000  +0.868000  +0.925000  +0.978000  +1.030000  +1.066000  +1.102000  +1.137000
  +1.173000  +1.221000  +1.270000  +1.314000  +1.358000  +1.407000  +1.456000  +1.490000  +1.524000  +1.546000
  +1.568000  +1.585000  +1.603000  +1.618000  +1.634000  +1.646000  +1.658000  +1.671000  +1.684000  +1.697000
  +1.716000  +1.410000  +0.863000  +0.051000
#
# Mach: 0.95
  -0.682000  -0.383000  +0.016000  +0.097000  +0.183000  +0.279000  +0.365000  +0.454000  +0.544000  +0.617000
  +0.691000  +0.749000  +0.806000  +0.865000  +0.924000  +0.980000  +1.037000  +1.070000  +1.103000  +1.136000
  +1.169000  +1.221000  +1.272000  +1.316000  +1.360000  +1.401000  +1.442000  +1.487000  +1.532000  +1.560000
  +1.589000  +1.605000  +1.622000  +1.640000  +1.657000  +1.671000  +1.684000  +1.699000  +1.713000  +1.728000
  +1.750000  +1.413000  +0.863000  +0.046000
#
# Mach: 1
  -0.662000  -0.365000  +0.039000  +0.117000  +0.205000  +0.299000  +0.377000  +0.461000  +0.546000  +0.613000
  +0.680000  +0.741000  +0.802000  +0.862000  +0.923000  +0.983000  +1.043000  +1.074000  +1.105000  +1.135000
  +1.166000  +1.220000  +1.274000  +1.318000  +1.361000  +1.394000  +1.427000  +1.484000  +1.540000  +1.575000
  +1.610000  +1.626000  +1.642000  +1.661000  +1.681000  +1.695000  +1.710000  +1.726000  +1.743000  +1.759000
  +1.785000  +1.415000  +0.863000  +0.042000
#
# Mach: 1.05
  -0.643000  -0.348000  +0.020000  +0.093000  +0.177000  +0.263000  +0.346000  +0.428000  +0.509000  +0.576000
  +0.642000  +0.706000  +0.770000  +0.833000  +0.897000  +0.961000  +1.025000  +1.055000  +1.086000  +1.116000
  +1.147000  +1.199000  +1.252000  +1.295000  +1.338000  +1.374000  +1.409000  +1.456000  +1.502000  +1.535000
  +1.568000  +1.585000  +1.602000  +1.620000  +1.637000  +1.651000  +1.664000  +1.675000  +1.686000  +1.697000
  +1.699000  +1.409000  +0.862000  +0.042000
#
# Mach: 1.1
  -0.624000  -0.330000  +0.001000  +0.070000  +0.149000  +0.227000  +0.315000  +0.394000  +0.473000  +0.538000
  +0.603000  +0.670000  +0.737000  +0.804000  +0.872000  +0.939000  +1.006000  +1.037000  +1.067000  +1.097000
  +1.127000  +1.178000  +1.229000  +1.272000  +1.314000  +1.353000  +1.391000  +1.427000  +1.463000  +1.495000
  +1.527000  +1.545000  +1.562000  +1.578000  +1.594000  +1.606000  +1.618000  +1.624000  +1.629000  +1.635000
  +1.614000  +1.404000  +0.862000  +0.042000
#
# Mach: 1.2
  -0.585000  -0.295000  +0.001000  +0.029000  +0.102000  +0.181000  +0.265000  +0.340000  +0.415000  +0.480000
  +0.545000  +0.610000  +0.675000  +0.740000  +0.805000  +0.870000  +0.935000  +0.968000  +1.000000  +1.033000
  +1.065000  +1.116000  +1.168000  +1.209000  +1.250000  +1.278000  +1.306000  +1.338000  +1.369000  +1.404000
  +1.439000  +1.459000  +1.480000  +1.500000  +1.520000  +1.537000  +1.553000  +1.560000  +1.567000  +1.573000
  +1.537000  +1.399000  +0.862000  +0.042000
#
# Mach: 1.3
  -0.539000  -0.275000  +0.001000  +0.038000  +0.075000  +0.144000  +0.220000  +0.281000  +0.343000  +0.403000
  +0.463000  +0.522000  +0.582000  +0.642000  +0.702000  +0.762000  +0.822000  +0.852000  +0.882000  +0.912000
  +0.942000  +0.963000  +0.985000  +1.001000  +1.018000  +1.023000  +1.028000  +1.030000  +1.032000  +1.033000
  +1.033000  +1.034000  +1.034000  +1.034000  +1.034000  +1.034000  +1.034000  +1.034000  +1.034000  +1.034000
  +1.034000  +1.034000  +1.034000  +1.034000
#
# Mach: 1.4
  -0.493000  -0.255000  +0.001000  +0.038000  +0.075000  +0.139000  +0.204000  +0.255000  +0.305000  +0.355000
  +0.404000  +0.451000  +0.498000  +0.545000  +0.591000  +0.638000  +0.684000  +0.707000  +0.731000  +0.754000
  +0.777000  +0.797000  +0.816000  +0.823000  +0.829000  +0.831000  +0.834000  +0.835000  +0.835000  +0.836000
  +0.836000  +0.836000  +0.836000  +0.836000  +0.836000  +0.836000  +0.836000  +0.836000  +0.836000  +0.836000
  +0.836000  +0.836000  +0.836000  +0.836000
#
# Mach: 1.5
  -0.446000  -0.235000  +0.001000  +0.037000  +0.073000  +0.136000  +0.200000  +0.242000  +0.285000  +0.326000
  +0.367000  +0.411000  +0.455000  +0.499000  +0.543000  +0.588000  +0.632000  +0.653000  +0.674000  +0.696000
  +0.717000  +0.725000  +0.733000  +0.733000  +0.733000  +0.737000  +0.742000  +0.744000  +0.746000  +0.747000
  +0.748000  +0.748000  +0.748000  +0.748000  +0.748000  +0.748000  +0.748000  +0.748000  +0.748000  +0.748000
  +0.748000  +0.748000  +0.748000  +0.748000
#
# Mach: 1.6
  -0.400000  -0.215000  +0.001000  +0.036000  +0.071000  +0.132000  +0.195000  +0.235000  +0.275000  +0.314000
  +0.353000  +0.395000  +0.438000  +0.481000  +0.524000  +0.567000  +0.610000  +0.622000  +0.635000  +0.648000
  +0.661000  +0.666000  +0.671000  +0.672000  +0.673000  +0.675000  +0.678000  +0.682000  +0.686000  +0.687000
  +0.689000  +0.689000  +0.690000  +0.690000  +0.690000  +0.690000  +0.690000  +0.690000  +0.690000  +0.690000
  +0.690000  +0.690000  +0.690000  +0.690000
#
# Mach: 1.7
  -0.367000  -0.193000  +0.001000  +0.034000  +0.068000  +0.128000  +0.190000  +0.230000  +0.269000  +0.308000
  +0.346000  +0.381000  +0.416000  +0.452000  +0.488000  +0.518000  +0.548000  +0.558000  +0.569000  +0.579000
  +0.589000  +0.600000  +0.612000  +0.618000  +0.624000  +0.626000  +0.627000  +0.629000  +0.632000  +0.633000
  +0.633000  +0.634000  +0.634000  +0.634000  +0.634000  +0.634000  +0.634000  +0.634000  +0.634000  +0.634000
  +0.634000  +0.634000  +0.634000  +0.634000
#
# Mach: 1.8
  -0.334000  -0.172000  +0.001000  +0.033000  +0.066000  +0.126000  +0.188000  +0.226000  +0.265000  +0.302000
  +0.338000  +0.368000  +0.398000  +0.427000  +0.456000  +0.477000  +0.498000  +0.510000  +0.522000  +0.533000
  +0.545000  +0.556000  +0.567000  +0.573000  +0.578000  +0.583000  +0.589000  +0.590000  +0.592000  +0.593000
  +0.593000  +0.593000  +0.593000  +0.593000  +0.594000  +0.594000  +0.594000  +0.594000  +0.594000  +0.594000
  +0.594000  +0.594000  +0.594000  +0.594000
#
# Mach: 1.9
  -0.300000  -0.150000  +0.001000  +0.032000  +0.064000  +0.122000  +0.181000  +0.218000  +0.256000  +0.292000
  +0.328000  +0.358000  +0.388000  +0.417000  +0.446000  +0.461000  +0.476000  +0.485000  +0.493000  +0.501000
  +0.509000  +0.524000  +0.539000  +0.546000  +0.552000  +0.558000  +0.564000  +0.565000  +0.567000  +0.568000
  +0.568000  +0.568000  +0.568000  +0.568000  +0.569000  +0.569000  +0.569000  +0.569000  +0.569000  +0.569000
  +0.569000  +0.569000  +0.569000  +0.569000
#
#-----------------------------------------------------
#     DRAG COEFFICIENT  CD
#-----------------------------------------------------
+0.666660   # Table Multiplier
#
# Mach: 0
  +0.045000  +0.027000  +0.024000  +0.026000  +0.028000  +0.029000  +0.031000  +0.034000  +0.038000  +0.044000
  +0.050000  +0.063000  +0.075000  +0.095000  +0.114000  +0.131000  +0.148000  +0.162000  +0.176000  +0.189000
  +0.203000  +0.228000  +0.253000  +0.297000  +0.340000  +0.420000  +0.500000  +0.570000  +0.640000  +0.725000
  +0.810000  +0.890000  +0.970000  +1.029000  +1.088000  +1.144000  +1.200000  +1.267000  +1.333000  +1.400000
  +1.600000  +1.750000  +1.750000  +1.750000
#
# Mach: 0.2
  +0.045000  +0.027000  +0.024000  +0.026000  +0.028000  +0.029000  +0.031000  +0.034000  +0.038000  +0.044000
  +0.050000  +0.063000  +0.075000  +0.095000  +0.114000  +0.131000  +0.148000  +0.162000  +0.176000  +0.189000
  +0.203000  +0.228000  +0.253000  +0.297000  +0.340000  +0.420000  +0.500000  +0.570000  +0.640000  +0.725000
  +0.810000  +0.890000  +0.970000  +1.029000  +1.088000  +1.144000  +1.200000  +1.267000  +1.333000  +1.400000
  +1.600000  +1.750000  +1.750000  +1.750000
#
# Mach: 0.3
  +0.048000  +0.028000  +0.025000  +0.027000  +0.029000  +0.030000  +0.032000  +0.036000  +0.040000  +0.047000
  +0.053000  +0.066000  +0.078000  +0.097000  +0.117000  +0.133000  +0.150000  +0.164000  +0.178000  +0.191000
  +0.205000  +0.232000  +0.258000  +0.304000  +0.350000  +0.430000  +0.510000  +0.578000  +0.645000  +0.728000
  +0.810000  +0.890000  +0.970000  +1.029000  +1.088000  +1.144000  +1.200000  +1.267000  +1.333000  +1.400000
  +1.600000  +1.750000  +1.750000  +1.750000
#
# Mach: 0.4
  +0.050000  +0.029000  +0.023000  +0.025000  +0.028000  +0.030000  +0.032000  +0.037000  +0.042000  +0.049000
  +0.056000  +0.069000  +0.081000  +0.100000  +0.118000  +0.136000  +0.153000  +0.167000  +0.181000  +0.194000
  +0.208000  +0.236000  +0.263000  +0.314000  +0.366000  +0.446000  +0.525000  +0.588000  +0.650000  +0.732000
  +0.814000  +0.893000  +0.973000  +1.031000  +1.088000  +1.144000  +1.200000  +1.267000  +1.333000  +1.400000
  +1.600000  +1.750000  +1.750000  +1.750000
#
# Mach: 0.5
  +0.054000  +0.029000  +0.022000  +0.024000  +0.026000  +0.029000  +0.032000  +0.037000  +0.042000  +0.051000
  +0.060000  +0.073000  +0.085000  +0.101000  +0.117000  +0.138000  +0.160000  +0.173000  +0.185000  +0.198000
  +0.210000  +0.283000  +0.357000  +0.392000  +0.428000  +0.490000  +0.552000  +0.601000  +0.650000  +0.732000
  +0.814000  +0.893000  +0.973000  +1.031000  +1.088000  +1.144000  +1.200000  +1.267000  +1.333000  +1.400000
  +1.600000  +1.750000  +1.750000  +1.750000
#
# Mach: 0.6
  +0.053000  +0.028000  +0.022000  +0.024000  +0.025000  +0.028000  +0.031000  +0.037000  +0.042000  +0.051000
  +0.059000  +0.070000  +0.081000  +0.102000  +0.122000  +0.144000  +0.165000  +0.180000  +0.194000  +0.209000
  +0.223000  +0.250000  +0.276000  +0.359000  +0.441000  +0.491000  +0.540000  +0.597000  +0.654000  +0.734000
  +0.814000  +0.893000  +0.973000  +1.031000  +1.088000  +1.144000  +1.200000  +1.267000  +1.333000  +1.400000
  +1.600000  +1.750000  +1.750000  +1.750000
#
# Mach: 0.7
  +0.059000  +0.031000  +0.023000  +0.025000  +0.027000  +0.030000  +0.034000  +0.041000  +0.047000  +0.056000
  +0.065000  +0.077000  +0.089000  +0.110000  +0.131000  +0.163000  +0.195000  +0.214000  +0.233000  +0.251000
  +0.270000  +0.303000  +0.335000  +0.379000  +0.423000  +0.495000  +0.568000  +0.637000  +0.706000  +0.760000
  +0.814000  +0.893000  +0.973000  +1.031000  +1.088000  +1.144000  +1.200000  +1.267000  +1.333000  +1.400000
  +1.600000  +1.750000  +1.750000  +1.750000
#
# Mach: 0.8
  +0.068000  +0.032000  +0.022000  +0.023000  +0.027000  +0.030000  +0.035000  +0.044000  +0.053000  +0.064000
  +0.076000  +0.094000  +0.112000  +0.130000  +0.149000  +0.184000  +0.219000  +0.240000  +0.262000  +0.283000
  +0.304000  +0.334000  +0.364000  +0.406000  +0.447000  +0.511000  +0.574000  +0.640000  +0.706000  +0.760000
  +0.814000  +0.893000  +0.973000  +1.031000  +1.088000  +1.144000  +1.200000  +1.267000  +1.333000  +1.400000
  +1.600000  +1.750000  +1.750000  +1.750000
#
# Mach: 0.9
  +0.086000  +0.034000  +0.023000  +0.025000  +0.027000  +0.032000  +0.038000  +0.050000  +0.062000  +0.079000
  +0.096000  +0.110000  +0.124000  +0.149000  +0.175000  +0.203000  +0.230000  +0.253000  +0.275000  +0.298000
  +0.320000  +0.351000  +0.381000  +0.419000  +0.456000  +0.523000  +0.590000  +0.620000  +0.650000  +0.732000
  +0.814000  +0.893000  +0.973000  +1.031000  +1.088000  +1.144000  +1.200000  +1.267000  +1.333000  +1.400000
  +1.600000  +1.750000  +1.750000  +1.750000
#
# Mach: 0.95
  +0.101000  +0.046000  +0.033000  +0.035000  +0.037000  +0.044000  +0.052000  +0.065000  +0.079000  +0.095000
  +0.112000  +0.129000  +0.146000  +0.170000  +0.194000  +0.220000  +0.246000  +0.268000  +0.290000  +0.311000
  +0.333000  +0.373000  +0.413000  +0.451000  +0.489000  +0.538000  +0.588000  +0.628000  +0.668000  +0.750000
  +0.832000  +0.904000  +0.977000  +1.035000  +1.094000  +1.147000  +1.200000  +1.267000  +1.333000  +1.400000
  +1.600000  +1.750000  +1.750000  +1.750000
#
# Mach: 1
  +0.115000  +0.059000  +0.043000  +0.046000  +0.047000  +0.057000  +0.065000  +0.080000  +0.095000  +0.112000
  +0.128000  +0.149000  +0.169000  +0.191000  +0.213000  +0.238000  +0.263000  +0.283000  +0.304000  +0.325000
  +0.346000  +0.396000  +0.445000  +0.484000  +0.522000  +0.554000  +0.585000  +0.636000  +0.686000  +0.768000
  +0.850000  +0.915000  +0.980000  +1.040000  +1.100000  +1.150000  +1.200000  +1.267000  +1.333000  +1.400000
  +1.600000  +1.750000  +1.750000  +1.750000
#
# Mach: 1.05
  +0.113000  +0.058000  +0.043000  +0.046000  +0.048000  +0.056000  +0.065000  +0.079000  +0.093000  +0.109000
  +0.125000  +0.146000  +0.167000  +0.190000  +0.213000  +0.242000  +0.272000  +0.292000  +0.312000  +0.332000
  +0.352000  +0.396000  +0.440000  +0.480000  +0.521000  +0.559000  +0.598000  +0.642000  +0.686000  +0.768000
  +0.850000  +0.915000  +0.980000  +1.040000  +1.100000  +1.150000  +1.200000  +1.267000  +1.333000  +1.400000
  +1.600000  +1.750000  +1.750000  +1.750000
#
# Mach: 1.1
  +0.110000  +0.058000  +0.044000  +0.046000  +0.050000  +0.055000  +0.064000  +0.077000  +0.090000  +0.106000
  +0.122000  +0.143000  +0.164000  +0.188000  +0.212000  +0.247000  +0.282000  +0.301000  +0.320000  +0.339000
  +0.358000  +0.396000  +0.434000  +0.477000  +0.520000  +0.565000  +0.610000  +0.648000  +0.686000  +0.768000
  +0.850000  +0.915000  +0.980000  +1.040000  +1.100000  +1.150000  +1.200000  +1.267000  +1.333000  +1.400000
  +1.600000  +1.750000  +1.750000  +1.750000
#
# Mach: 1.2
  +0.101000  +0.052000  +0.043000  +0.044000  +0.046000  +0.051000  +0.058000  +0.069000  +0.080000  +0.096000
  +0.112000  +0.131000  +0.149000  +0.175000  +0.200000  +0.230000  +0.260000  +0.278000  +0.295000  +0.313000
  +0.330000  +0.363000  +0.395000  +0.428000  +0.460000  +0.535000  +0.610000  +0.648000  +0.686000  +0.768000
  +0.850000  +0.915000  +0.980000  +1.040000  +1.100000  +1.150000  +1.200000  +1.267000  +1.333000  +1.400000
  +1.600000  +1.750000  +1.750000  +1.750000
#
# Mach: 1.3
  +0.084000  +0.049000  +0.043000  +0.044000  +0.045000  +0.048000  +0.054000  +0.061000  +0.068000  +0.081000
  +0.093000  +0.112000  +0.131000  +0.153000  +0.175000  +0.200000  +0.227000  +0.240000  +0.253000  +0.267000
  +0.280000  +0.307000  +0.335000  +0.365000  +0.390000  +0.420000  +0.480000  +0.550000  +0.650000  +0.732000
  +0.814000  +0.893000  +0.973000  +1.031000  +1.088000  +1.144000  +1.200000  +1.267000  +1.333000  +1.400000
  +1.600000  +1.750000  +1.750000  +1.750000
#
# Mach: 1.4
  +0.077000  +0.048000  +0.043000  +0.045000  +0.046000  +0.049000  +0.053000  +0.059000  +0.065000  +0.075000
  +0.085000  +0.098000  +0.110000  +0.124000  +0.138000  +0.157000  +0.176000  +0.192000  +0.207000  +0.223000
  +0.235000  +0.255000  +0.285000  +0.325000  +0.355000  +0.400000  +0.450000  +0.523000  +0.650000  +0.732000
  +0.814000  +0.893000  +0.973000  +1.031000  +1.088000  +1.144000  +1.200000  +1.267000  +1.333000  +1.400000
  +1.600000  +1.750000  +1.750000  +1.750000
#
# Mach: 1.5
  +0.074000  +0.049000  +0.044000  +0.045000  +0.046000  +0.049000  +0.054000  +0.060000  +0.066000  +0.074000
  +0.083000  +0.094000  +0.105000  +0.120000  +0.134000  +0.154000  +0.173000  +0.185000  +0.197000  +0.209000
  +0.221000  +0.261000  +0.300000  +0.355000  +0.410000  +0.479000  +0.547000  +0.599000  +0.650000  +0.732000
  +0.814000  +0.893000  +0.973000  +1.031000  +1.088000  +1.144000  +1.200000  +1.267000  +1.333000  +1.400000
  +1.600000  +1.750000  +1.750000  +1.750000
#
# Mach: 1.6
  +0.075000  +0.051000  +0.044000  +0.045000  +0.047000  +0.051000  +0.057000  +0.063000  +0.069000  +0.076000
  +0.084000  +0.096000  +0.108000  +0.122000  +0.135000  +0.154000  +0.172000  +0.182000  +0.191000  +0.201000
  +0.210000  +0.255000  +0.300000  +0.355000  +0.410000  +0.479000  +0.547000  +0.599000  +0.650000  +0.732000
  +0.814000  +0.893000  +0.973000  +1.031000  +1.088000  +1.144000  +1.200000  +1.267000  +1.333000  +1.400000
  +1.600000  +1.750000  +1.750000  +1.750000
#
# Mach: 1.7
  +0.077000  +0.050000  +0.043000  +0.044000  +0.045000  +0.049000  +0.056000  +0.062000  +0.068000  +0.077000
  +0.085000  +0.095000  +0.106000  +0.118000  +0.131000  +0.143000  +0.156000  +0.164000  +0.170000  +0.172000
  +0.177000  +0.200000  +0.230000  +0.280000  +0.335000  +0.410000  +0.520000  +0.599000  +0.650000  +0.732000
  +0.814000  +0.893000  +0.973000  +1.031000  +1.088000  +1.144000  +1.200000  +1.267000  +1.333000  +1.400000
  +1.600000  +1.750000  +1.750000  +1.750000
#
# Mach: 1.8
  +0.078000  +0.050000  +0.042000  +0.043000  +0.044000  +0.048000  +0.056000  +0.062000  +0.068000  +0.078000
  +0.087000  +0.097000  +0.107000  +0.115000  +0.130000  +0.138000  +0.148000  +0.160000  +0.165000  +0.180000
  +0.190000  +0.220000  +0.250000  +0.280000  +0.320000  +0.400000  +0.500000  +0.580000  +0.650000  +0.732000
  +0.814000  +0.893000  +0.973000  +1.031000  +1.088000  +1.144000  +1.200000  +1.267000  +1.333000  +1.400000
  +1.600000  +1.750000  +1.750000  +1.750000
#
# Mach: 1.9
  +0.078000  +0.050000  +0.042000  +0.043000  +0.044000  +0.048000  +0.056000  +0.062000  +0.068000  +0.078000
  +0.087000  +0.099000  +0.110000  +0.120000  +0.135000  +0.140000  +0.148000  +0.150000  +0.157000  +0.165000
  +0.175000  +0.200000  +0.230000  +0.250000  +0.280000  +0.350000  +0.420000  +0.550000  +0.650000  +0.732000
  +0.814000  +0.893000  +0.973000  +1.031000  +1.088000  +1.144000  +1.200000  +1.267000  +1.333000  +1.400000
  +1.600000  +1.750000  +1.750000  +1.750000
#
#-----------------------------------------------------
#     SIDE FORCE DERIVATIVE CY-BETA
#-----------------------------------------------------
+1.000000   # Table Multiplier
#
# Mach: 0
  -0.020000  -0.020000  -0.019600  -0.019500  -0.019500  -0.019400  -0.019300  -0.019400  -0.019400  -0.019600
  -0.019800  -0.019900  -0.020100  -0.020000  -0.020000  -0.019900  -0.019900  -0.019900  -0.019900  -0.019800
  -0.019800  -0.019800  -0.019700  -0.019700  -0.019600  -0.019700  -0.019800  -0.019800  -0.019900  -0.019900
  -0.020000  -0.020100  -0.020200  -0.021000  -0.021900  -0.022700  -0.023600  -0.024400  -0.025300  -0.026100
  -0.030300  -0.023600  -0.019600  +0.000000
#
# Mach: 0.2
  -0.020000  -0.020000  -0.019600  -0.019500  -0.019500  -0.019400  -0.019300  -0.019400  -0.019400  -0.019600
  -0.019800  -0.019900  -0.020100  -0.020000  -0.020000  -0.019900  -0.019900  -0.019900  -0.019900  -0.019800
  -0.019800  -0.019800  -0.019700  -0.019700  -0.019600  -0.019700  -0.019800  -0.019800  -0.019900  -0.019900
  -0.020000  -0.020100  -0.020200  -0.021000  -0.021900  -0.022700  -0.023600  -0.024400  -0.025300  -0.026100
  -0.030300  -0.023600  -0.019600  +0.000000
#
# Mach: 0.3
  -0.020000  -0.020000  -0.019600  -0.019500  -0.019500  -0.019400  -0.019300  -0.019400  -0.019400  -0.019600
  -0.019800  -0.019900  -0.020100  -0.020000  -0.020000  -0.019900  -0.019900  -0.019900  -0.019900  -0.019800
  -0.019800  -0.019800  -0.019700  -0.019700  -0.019600  -0.019700  -0.019800  -0.019800  -0.019900  -0.019900
  -0.020000  -0.020100  -0.020200  -0.021000  -0.021900  -0.022700  -0.023600  -0.024400  -0.025300  -0.026100
  -0.030300  -0.023600  -0.019600  +0.000000
#
# Mach: 0.4
  -0.021800  -0.021800  -0.021400  -0.021300  -0.021200  -0.021200  -0.021100  -0.021200  -0.021200  -0.021400
  -0.021500  -0.021700  -0.021900  -0.021800  -0.021800  -0.021700  -0.021700  -0.021700  -0.021700  -0.021600
  -0.021600  -0.021600  -0.021500  -0.021500  -0.021400  -0.021500  -0.021600  -0.021600  -0.021700  -0.021800
  -0.021800  -0.021900  -0.022000  -0.023000  -0.023900  -0.024800  -0.025700  -0.026600  -0.027600  -0.028500
  -0.033100  -0.025700  -0.021400  +0.000000
#
# Mach: 0.5
  -0.023100  -0.023100  -0.022600  -0.022500  -0.022500  -0.022400  -0.022300  -0.022400  -0.022400  -0.022600
  -0.022800  -0.023000  -0.023200  -0.023100  -0.023100  -0.023000  -0.023000  -0.022900  -0.022900  -0.022900
  -0.022900  -0.022800  -0.022800  -0.022700  -0.022700  -0.022700  -0.022800  -0.022900  -0.023000  -0.023000
  -0.023100  -0.023200  -0.023300  -0.024300  -0.025300  -0.026200  -0.027200  -0.028200  -0.029200  -0.030100
  -0.035000  -0.027200  -0.022700  +0.000000
#
# Mach: 0.6
  -0.025000  -0.025000  -0.024500  -0.024400  -0.024300  -0.024300  -0.024200  -0.024200  -0.024300  -0.024500
  -0.024700  -0.024900  -0.025100  -0.025000  -0.025000  -0.024900  -0.024900  -0.024800  -0.024800  -0.024800
  -0.024800  -0.024700  -0.024700  -0.024600  -0.024600  -0.024600  -0.024700  -0.024800  -0.024900  -0.024900
  -0.025000  -0.025100  -0.025300  -0.026300  -0.027400  -0.028400  -0.029500  -0.030500  -0.031600  -0.032600
  -0.037900  -0.029500  -0.024600  +0.000000
#
# Mach: 0.7
  -0.028000  -0.028000  -0.027400  -0.027300  -0.027300  -0.027200  -0.027100  -0.027200  -0.027200  -0.027400
  -0.027700  -0.027900  -0.028100  -0.028000  -0.028000  -0.027900  -0.027900  -0.027800  -0.027800  -0.027800
  -0.027700  -0.027700  -0.027600  -0.027600  -0.027500  -0.027600  -0.027700  -0.027800  -0.027800  -0.027900
  -0.028000  -0.028100  -0.028300  -0.029500  -0.030600  -0.031800  -0.033000  -0.034200  -0.035400  -0.036500
  -0.042400  -0.033000  -0.027500  +0.000000
#
# Mach: 0.8
  -0.036400  -0.036400  -0.035600  -0.035500  -0.035400  -0.035300  -0.035200  -0.035300  -0.035400  -0.035600
  -0.035900  -0.036200  -0.036500  -0.036400  -0.036300  -0.036200  -0.036200  -0.036100  -0.036100  -0.036100
  -0.036000  -0.035900  -0.035900  -0.035800  -0.035700  -0.035800  -0.035900  -0.036000  -0.036200  -0.036300
  -0.036400  -0.036600  -0.036700  -0.038300  -0.039800  -0.041300  -0.042900  -0.044400  -0.045900  -0.047400
  -0.055100  -0.042900  -0.035700  +0.000000
#
# Mach: 0.9
  -0.038500  -0.038500  -0.037700  -0.037600  -0.037500  -0.037300  -0.037200  -0.037300  -0.037400  -0.037700
  -0.038000  -0.038300  -0.038600  -0.038500  -0.038400  -0.038400  -0.038300  -0.038200  -0.038200  -0.038200
  -0.038100  -0.038000  -0.038000  -0.037900  -0.037800  -0.037900  -0.038000  -0.038100  -0.038300  -0.038400
  -0.038500  -0.038700  -0.038900  -0.040500  -0.042100  -0.043700  -0.045400  -0.047000  -0.048600  -0.050200
  -0.058300  -0.045400  -0.037800  +0.000000
#
# Mach: 0.95
  -0.034600  -0.034600  -0.033900  -0.033800  -0.033700  -0.033600  -0.033500  -0.033600  -0.033700  -0.033900
  -0.034200  -0.034500  -0.034700  -0.034700  -0.034600  -0.034500  -0.034500  -0.034400  -0.034400  -0.034300
  -0.034300  -0.034200  -0.034200  -0.034100  -0.034000  -0.034100  -0.034200  -0.034300  -0.034400  -0.034500
  -0.034600  -0.034800  -0.035000  -0.036400  -0.037900  -0.039400  -0.040800  -0.042300  -0.043700  -0.045200
  -0.052500  -0.040800  -0.034000  +0.000000
#
# Mach: 1
  -0.030800  -0.030800  -0.030100  -0.030100  -0.030000  -0.029900  -0.029800  -0.029900  -0.029900  -0.030200
  -0.030400  -0.030600  -0.030900  -0.030800  -0.030800  -0.030700  -0.030600  -0.030600  -0.030600  -0.030500
  -0.030500  -0.030400  -0.030400  -0.030300  -0.030200  -0.030300  -0.030400  -0.030500  -0.030600  -0.030700
  -0.030800  -0.030900  -0.031100  -0.032400  -0.033700  -0.035000  -0.036300  -0.037600  -0.038900  -0.040200
  -0.046600  -0.036300  -0.030200  +0.000000
#
# Mach: 1.05
  -0.027700  -0.027700  -0.027100  -0.027000  -0.027000  -0.026900  -0.026800  -0.026900  -0.026900  -0.027200
  -0.027400  -0.027600  -0.027800  -0.027700  -0.027700  -0.027600  -0.027600  -0.027500  -0.027500  -0.027500
  -0.027400  -0.027400  -0.027300  -0.027300  -0.027200  -0.027300  -0.027400  -0.027500  -0.027500  -0.027600
  -0.027700  -0.027900  -0.028000  -0.029200  -0.030300  -0.031500  -0.032700  -0.033800  -0.035000  -0.036200
  -0.042000  -0.032700  -0.027200  +0.000000
#
# Mach: 1.1
  -0.024600  -0.024600  -0.024100  -0.024000  -0.024000  -0.023900  -0.023800  -0.023900  -0.023900  -0.024100
  -0.024300  -0.024500  -0.024700  -0.024700  -0.024600  -0.024600  -0.024500  -0.024500  -0.024400  -0.024400
  -0.024400  -0.024300  -0.024300  -0.024200  -0.024200  -0.024300  -0.024300  -0.024400  -0.024500  -0.024600
  -0.024600  -0.024800  -0.024900  -0.025900  -0.027000  -0.028000  -0.029000  -0.030100  -0.031100  -0.032100
  -0.037300  -0.029000  -0.024200  +0.000000
#
# Mach: 1.2
  -0.020900  -0.020900  -0.020500  -0.020400  -0.020400  -0.020300  -0.020300  -0.020300  -0.020400  -0.020500
  -0.020700  -0.020800  -0.021000  -0.021000  -0.020900  -0.020900  -0.020800  -0.020800  -0.020800  -0.020800
  -0.020700  -0.020700  -0.020600  -0.020600  -0.020600  -0.020600  -0.020700  -0.020800  -0.020800  -0.020900
  -0.020900  -0.021000  -0.021100  -0.022000  -0.022900  -0.023800  -0.024700  -0.025600  -0.026400  -0.027300
  -0.031700  -0.024700  -0.020600  +0.000000
#
# Mach: 1.3
  -0.018800  -0.018800  -0.018400  -0.018400  -0.018300  -0.018300  -0.018200  -0.018300  -0.018300  -0.018500
  -0.018600  -0.018800  -0.018900  -0.018900  -0.018800  -0.018800  -0.018700  -0.018700  -0.018700  -0.018700
  -0.018700  -0.018600  -0.018600  -0.018500  -0.018500  -0.018600  -0.018600  -0.018700  -0.018700  -0.018800
  -0.018800  -0.018900  -0.019000  -0.019800  -0.020600  -0.021400  -0.022200  -0.023000  -0.023800  -0.024600
  -0.028500  -0.022200  -0.018500  +0.000000
#
# Mach: 1.4
  -0.017900  -0.017900  -0.017500  -0.017500  -0.017400  -0.017400  -0.017300  -0.017400  -0.017400  -0.017500
  -0.017700  -0.017800  -0.018000  -0.017900  -0.017900  -0.017800  -0.017800  -0.017800  -0.017800  -0.017700
  -0.017700  -0.017700  -0.017700  -0.017600  -0.017600  -0.017600  -0.017700  -0.017700  -0.017800  -0.017800
  -0.017900  -0.018000  -0.018100  -0.018800  -0.019600  -0.020300  -0.021100  -0.021800  -0.022600  -0.023400
  -0.027100  -0.021100  -0.017600  +0.000000
#
# Mach: 1.5
  -0.017000  -0.017000  -0.016700  -0.016600  -0.016500  -0.016500  -0.016400  -0.016500  -0.016500  -0.016700
  -0.016800  -0.016900  -0.017100  -0.017000  -0.017000  -0.017000  -0.016900  -0.016900  -0.016900  -0.016900
  -0.016800  -0.016800  -0.016800  -0.016700  -0.016700  -0.016800  -0.016800  -0.016900  -0.016900  -0.017000
  -0.017000  -0.017100  -0.017200  -0.017900  -0.018600  -0.019300  -0.020000  -0.020800  -0.021500  -0.022200
  -0.025800  -0.020000  -0.016700  +0.000000
#
# Mach: 1.6
  -0.016200  -0.016200  -0.015800  -0.015800  -0.015700  -0.015700  -0.015600  -0.015700  -0.015700  -0.015800
  -0.016000  -0.016100  -0.016200  -0.016200  -0.016100  -0.016100  -0.016100  -0.016100  -0.016000  -0.016000
  -0.016000  -0.016000  -0.015900  -0.015900  -0.015900  -0.015900  -0.016000  -0.016000  -0.016100  -0.016100
  -0.016200  -0.016200  -0.016300  -0.017000  -0.017700  -0.018400  -0.019000  -0.019700  -0.020400  -0.021100
  -0.024500  -0.019000  -0.015900  +0.000000
#
# Mach: 1.7
  -0.015300  -0.015300  -0.015000  -0.015000  -0.014900  -0.014900  -0.014800  -0.014900  -0.014900  -0.015000
  -0.015200  -0.015300  -0.015400  -0.015400  -0.015300  -0.015300  -0.015300  -0.015300  -0.015200  -0.015200
  -0.015200  -0.015200  -0.015100  -0.015100  -0.015100  -0.015100  -0.015200  -0.015200  -0.015300  -0.015300
  -0.015300  -0.015400  -0.015500  -0.016100  -0.016800  -0.017400  -0.018100  -0.018700  -0.019400  -0.020000
  -0.023300  -0.018100  -0.015100  +0.000000
#
# Mach: 1.8
  -0.014600  -0.014600  -0.014300  -0.014200  -0.014200  -0.014100  -0.014100  -0.014100  -0.014200  -0.014300
  -0.014400  -0.014500  -0.014600  -0.014600  -0.014600  -0.014500  -0.014500  -0.014500  -0.014500  -0.014500
  -0.014400  -0.014400  -0.014400  -0.014300  -0.014300  -0.014400  -0.014400  -0.014500  -0.014500  -0.014500
  -0.014600  -0.014700  -0.014700  -0.015300  -0.016000  -0.016600  -0.017200  -0.017800  -0.018400  -0.019000
  -0.022100  -0.017200  -0.014300  +0.000000
#
# Mach: 1.9
  -0.014200  -0.014200  -0.013900  -0.013900  -0.013800  -0.013800  -0.013800  -0.013800  -0.013800  -0.013900
  -0.014000  -0.014100  -0.014300  -0.014200  -0.014200  -0.014200  -0.014100  -0.014100  -0.014100  -0.014100
  -0.014100  -0.014100  -0.014000  -0.014000  -0.014000  -0.014000  -0.014000  -0.014100  -0.014100  -0.014200
  -0.014200  -0.014300  -0.014400  -0.015000  -0.015600  -0.016200  -0.016800  -0.017400  -0.017900  -0.018500
  -0.021500  -0.016800  -0.014000  +0.000000
#
#
# TEF PARAMETERS HERE
#
#-----------------------------------------------------
#     TEF MACH BREAKPOINTS
#-----------------------------------------------------
+8.000000  # Num MACH
#
  +0.000000  +0.200000  +0.300000  +0.600000  +0.900000  +1.000000  +1.500000  +2.100000
#-----------------------------------------------------
#     TEF ALPHA BREAKPOINTS
#-----------------------------------------------------
+44.000000  # Num Alpha
#
  -8.000000  -4.000000  +0.000000  +1.000000  +2.000000  +3.000000  +4.000000  +5.000000  +6.000000  +7.000000
  +8.000000  +9.000000 +10.000000 +11.000000 +12.000000 +13.000000 +14.000000 +14.500000 +15.000000 +15.500000
 +16.000000 +17.000000 +18.000000 +19.000000 +20.000000 +21.000000 +22.000000 +23.000000 +24.000000 +25.000000
 +26.000000 +27.000000 +28.000000 +29.000000 +30.000000 +31.000000 +32.000000 +33.000000 +34.000000 +35.000000
 +40.000000 +55.000000 +70.000000 +90.000000
#-----------------------------------------------------
#     LIFT TEF COEFFICIENT  CL TEF
#-----------------------------------------------------
#
# Mach: 0
  +0.160000  +0.080000  +0.130000  +0.129000  +0.129000  +0.137000  +0.139000  +0.143000  +0.148000  +0.148000
  +0.147000  +0.144000  +0.143000  +0.141000  +0.138000  +0.132000  +0.126000  +0.120500  +0.116000  +0.112000
  +0.107000  +0.105000  +0.103000  +0.091000  +0.078000  +0.075000  +0.072000  +0.078000  +0.083000  +0.093000
  +0.103000  +0.100000  +0.098000  +0.081000  +0.064000  +0.047000  +0.030000  +0.031000  +0.019000  -0.458000
  -1.019000  -1.379000  -0.821000  +0.000000
#
# Mach: 0.2
  +0.160000  +0.080000  +0.130000  +0.129000  +0.129000  +0.137000  +0.139000  +0.143000  +0.148000  +0.148000
  +0.147000  +0.144000  +0.143000  +0.141000  +0.138000  +0.132000  +0.126000  +0.120500  +0.116000  +0.112000
  +0.107000  +0.105000  +0.103000  +0.091000  +0.078000  +0.075000  +0.072000  +0.078000  +0.083000  +0.093000
  +0.103000  +0.100000  +0.098000  +0.081000  +0.064000  +0.047000  +0.030000  +0.031000  +0.019000  -0.458000
  -1.019000  -1.379000  -0.821000  +0.000000
#
# Mach: 0.3
  +0.180000  +0.150000  +0.166000  +0.171000  +0.101000  +0.096000  +0.096000  +0.107000  +0.118000  +0.130000
  +0.143000  +0.141000  +0.138000  +0.130000  +0.122000  +0.120000  +0.118000  +0.116000  +0.113000  +0.110000
  +0.108000  +0.132000  +0.156000  +0.162000  +0.168000  +0.161000  +0.154000  +0.129000  +0.105000  +0.097000
  +0.088000  +0.085000  +0.083000  +0.062000  +0.041000  +0.028000  +0.015000  +0.015000  -0.036000  -0.576000
  -1.096000  -1.384000  -0.821000  +0.000000
#
# Mach: 0.6
  +0.235000  +0.195000  +0.164000  +0.117000  +0.131000  +0.140000  +0.141000  +0.141000  +0.141000  +0.137000
  +0.133000  +0.135000  +0.135000  +0.130000  +0.125000  +0.167000  +0.210000  +0.191000  +0.171000  +0.151000
  +0.132000  +0.114000  +0.095000  +0.095000  +0.096000  +0.085000  +0.074000  +0.078000  +0.082000  +0.068000
  +0.054000  +0.049000  +0.045000  +0.043000  +0.041000  +0.034000  +0.026000  +0.025000  -0.002000  -0.420000
  -0.960000  -1.375000  -0.821000  +0.000000
#
# Mach: 0.9
  +0.151000  +0.200000  +0.169000  +0.183000  +0.191000  +0.187000  +0.189000  +0.175000  +0.160000  +0.135000
  +0.109000  +0.111000  +0.114000  +0.110000  +0.105000  +0.124000  +0.143000  +0.131000  +0.119000  +0.108500
  +0.097000  +0.093000  +0.088000  +0.093000  +0.098000  +0.083000  +0.068000  +0.056000  +0.044000  +0.039000
  +0.035000  +0.033000  +0.031000  +0.028000  +0.024000  +0.025000  +0.026000  +0.026000  +0.032000  -0.287000
  -0.853000  -1.359000  -0.821000  -0.009000
#
# Mach: 1
  +0.112000  +0.165000  +0.166000  +0.182000  +0.172000  +0.162000  +0.169000  +0.152000  +0.134000  +0.128000
  +0.122000  +0.121000  +0.121000  +0.121000  +0.120000  +0.122000  +0.123000  +0.119500  +0.116000  +0.113500
  +0.110000  +0.101000  +0.091000  +0.060000  +0.030000  +0.019000  +0.009000  +0.006000  +0.003000  +0.002000
  +0.001000  +0.001000  +0.000000  +0.000000  +0.000000  +0.000000  +0.000000  +0.000000  +0.000000  +0.000000
  +0.000000  +0.000000  +0.000000  +0.000000
#
# Mach: 1.5
  +0.096000  +0.085000  +0.072000  +0.099000  +0.127000  +0.106000  +0.085000  +0.084000  +0.082000  +0.085000
  +0.088000  +0.088000  +0.088000  +0.089000  +0.089000  +0.086000  +0.085000  +0.068000  +0.051000  +0.033000
  +0.016000  +0.010000  +0.005000  +0.004000  +0.001000  +0.001000  +0.001000  +0.000000  +0.000000  +0.000000
  +0.000000  +0.000000  +0.000000  +0.000000  +0.000000  +0.000000  +0.000000  +0.000000  +0.000000  +0.000000
  +0.000000  +0.000000  +0.000000  +0.000000
#
# Mach: 2.1
  +0.100000  +0.050000  +0.063000  +0.090000  +0.117000  +0.096000  +0.075000  +0.074000  +0.072000  +0.066000
  +0.060000  +0.059000  +0.058000  +0.035000  +0.011000  +0.006000  +0.002000  +0.001500  +0.002000  +0.001000
  +0.001000  +0.000000  +0.000000  +0.000000  +0.000000  +0.000000  +0.000000  +0.000000  +0.000000  +0.000000
  +0.000000  +0.000000  +0.000000  +0.000000  +0.000000  +0.000000  +0.000000  +0.000000  +0.000000  +0.000000
  +0.000000  +0.000000  +0.000000  +0.000000
#
#-----------------------------------------------------
#     DRAG TEF COEFFICIENT  CD TEF
#-----------------------------------------------------
#
# Mach: 0
  -0.018000  -0.003000  +0.008500  +0.010000  +0.013000  +0.018000  +0.025500  +0.035000  +0.047000  +0.060500
  +0.072500  +0.076500  +0.087000  +0.094000  +0.101500  +0.109500  +0.127000  +0.135000  +0.142500  +0.151000
  +0.177000  +0.232000  +0.282000  +0.308000  +0.342500  +0.347500  +0.350000  +0.360000  +0.359500  +0.333500
  +0.306000  +0.282000  +0.263500  +0.271000  +0.278500  +0.356000  +0.475000  +0.483000  +0.417000  +0.350000
  +0.150000  +0.000000  +0.000000  +0.000000
#
# Mach: 0.2
  -0.018000  -0.003000  +0.008500  +0.010000  +0.013000  +0.018000  +0.025500  +0.035000  +0.047000  +0.060500
  +0.072500  +0.076500  +0.087000  +0.094000  +0.101500  +0.109500  +0.127000  +0.135000  +0.142500  +0.151000
  +0.177000  +0.232000  +0.282000  +0.308000  +0.342500  +0.347500  +0.350000  +0.360000  +0.359500  +0.333500
  +0.306000  +0.282000  +0.263500  +0.271000  +0.278500  +0.356000  +0.475000  +0.483000  +0.417000  +0.350000
  +0.150000  +0.000000  +0.000000  +0.000000
#
# Mach: 0.3
  -0.020000  -0.003000  +0.009000  +0.011000  +0.014500  +0.020000  +0.027500  +0.036000  +0.047500  +0.060000
  +0.072000  +0.075500  +0.086000  +0.094000  +0.101500  +0.112000  +0.131000  +0.140000  +0.149000  +0.159000
  +0.185000  +0.238000  +0.286000  +0.307500  +0.336500  +0.339000  +0.340000  +0.352000  +0.354500  +0.330500
  +0.306000  +0.282000  +0.263500  +0.271000  +0.278500  +0.356000  +0.475000  +0.483000  +0.417000  +0.350000
  +0.150000  +0.000000  +0.000000  +0.000000
#
# Mach: 0.6
  -0.025000  -0.006000  +0.012000  +0.015500  +0.021500  +0.027000  +0.033500  +0.038500  +0.049500  +0.061000
  +0.074000  +0.084500  +0.099000  +0.107000  +0.114500  +0.119000  +0.152500  +0.179000  +0.206000  +0.232000
  +0.243000  +0.265500  +0.292500  +0.266500  +0.253000  +0.283000  +0.313500  +0.336000  +0.348000  +0.325500
  +0.302000  +0.279000  +0.260500  +0.269000  +0.278500  +0.356000  +0.475000  +0.483000  +0.417000  +0.350000
  +0.150000  +0.000000  +0.000000  +0.000000
#
# Mach: 0.9
  -0.052000  -0.011000  +0.021000  +0.031000  +0.043500  +0.055500  +0.065000  +0.067000  +0.074500  +0.083000
  +0.093000  +0.106500  +0.129000  +0.149000  +0.160500  +0.163000  +0.170000  +0.166000  +0.162500  +0.158000
  +0.169500  +0.205500  +0.224000  +0.216000  +0.235000  +0.250000  +0.263500  +0.313000  +0.352000  +0.327500
  +0.302000  +0.279000  +0.260500  +0.269000  +0.278500  +0.356000  +0.475000  +0.483000  +0.417000  +0.350000
  +0.150000  +0.000000  +0.000000  +0.000000
#
# Mach: 1
  -0.056000  -0.016000  +0.029500  +0.041500  +0.054500  +0.063000  +0.073500  +0.079000  +0.085000  +0.090000
  +0.097500  +0.101500  +0.114000  +0.134000  +0.160000  +0.182000  +0.197000  +0.197000  +0.196000  +0.195000
  +0.191000  +0.169500  +0.170500  +0.181000  +0.207000  +0.255000  +0.297500  +0.311500  +0.324000  +0.302000
  +0.275000  +0.260000  +0.253500  +0.260000  +0.266500  +0.350000  +0.475000  +0.483000  +0.417000  +0.350000
  +0.150000  +0.000000  +0.000000  +0.000000
#
# Mach: 1.5
  -0.025000  -0.005000  +0.013000  +0.018000  +0.024000  +0.029500  +0.034500  +0.039500  +0.046500  +0.053000
  +0.061000  +0.069500  +0.080000  +0.089000  +0.107000  +0.126500  +0.154500  +0.170000  +0.185500  +0.201000
  +0.223500  +0.252000  +0.273000  +0.269500  +0.281000  +0.294000  +0.306500  +0.334000  +0.352000  +0.327500
  +0.302000  +0.279000  +0.260500  +0.269000  +0.278500  +0.356000  +0.475000  +0.483000  +0.417000  +0.350000
  +0.150000  +0.000000  +0.000000  +0.000000
#
# Mach: 2.1
  -0.028000  -0.008000  +0.017000  +0.022500  +0.032000  +0.039500  +0.044000  +0.050500  +0.055500  +0.068000
  +0.083000  +0.082500  +0.096000  +0.110000  +0.103000  +0.143000  +0.200000  +0.215000  +0.270000  +0.320000
  +0.350000  +0.411000  +0.423000  +0.433500  +0.383000  +0.352000  +0.327500  +0.302000  +0.279000  +0.260500
  +0.269000  +0.278500  +0.356000  +0.475000  +0.483000  +0.417000  +0.350000  +0.150000  +0.000000  +0.000000
  +0.000000  +0.000000  +0.000000  +0.000000
#
# End of Aero Data
#
#-----------------------------------------------------
# PROPULSION DATA
#-----------------------------------------------------
# ENGINE OPTIONS MUST BE LISTED HERE
engopt fuelflow
engopt AdvancedDynamics
engopt AdvancedThrust
#
      +1.000000   # Thrust multiplier
      +1.000000   # Fuel Flow Multiplier
#-----------------------------------------------------
# MACH BREAKPOINTS
#-----------------------------------------------------
+19.000000  # Number of Mach Breaks
#
  +0.000000  +0.200000  +0.300000  +0.400000  +0.500000  +0.600000  +0.700000  +0.800000  +0.900000  +1.000000
  +1.100000  +1.200000  +1.300000  +1.400000  +1.500000  +1.600000  +1.700000  +1.800000  +1.900000
#-----------------------------------------------------
#     ALTITUDE BREAKPOINTS
#-----------------------------------------------------
+8.000000  # Number of Alt Break Points
#
  +0.000000 +10000.000000 +20000.000000 +30000.000000 +40000.000000 +50000.000000 +60000.000000 +70000.000000
#
#-----------------------------------------------------
#     Alpha BREAKPOINTS
#-----------------------------------------------------
+14.000000  # Number of Alpha Break Points
 -30.000000 -20.000000 -10.000000  +0.000000 +10.000000 +15.000000 +20.000000 +25.000000 +30.000000 +35.000000
 +40.000000 +50.000000 +80.000000 +90.000000
#-----------------------------------------------------
#   THRUST ALPHA FACTOR
#-----------------------------------------------------
# Alt: 0
  +0.100000  +1.000000  +1.000000  +1.000000  +1.000000  +1.000000  +1.000000  +1.000000  +1.000000  +0.700000
  +0.600000  +0.300000  +0.200000  +0.100000
#
# Alt: 10000
  +0.100000  +1.000000  +1.000000  +1.000000  +1.000000  +1.000000  +1.000000  +1.000000  +1.000000  +0.700000
  +0.600000  +0.300000  +0.200000  +0.100000
#
# Alt: 20000
  +0.100000  +1.000000  +1.000000  +1.000000  +1.000000  +1.000000  +1.000000  +1.000000  +1.000000  +0.700000
  +0.600000  +0.300000  +0.200000  +0.100000
#
# Alt: 30000
  +0.100000  +1.000000  +1.000000  +1.000000  +1.000000  +1.000000  +1.000000  +1.000000  +1.000000  +0.700000
  +0.600000  +0.300000  +0.200000  +0.100000
#
# Alt: 40000
  +0.100000  +1.000000  +1.000000  +1.000000  +1.000000  +1.000000  +1.000000  +1.000000  +1.000000  +0.700000
  +0.600000  +0.300000  +0.200000  +0.100000
#
# Alt: 50000
  +0.100000  +1.000000  +1.000000  +1.000000  +1.000000  +1.000000  +1.000000  +1.000000  +1.000000  +0.700000
  +0.600000  +0.300000  +0.200000  +0.100000
#
# Alt: 60000
  +0.100000  +1.000000  +1.000000  +1.000000  +1.000000  +1.000000  +1.000000  +1.000000  +1.000000  +0.700000
  +0.600000  +0.300000  +0.200000  +0.100000
#
# Alt: 70000
  +0.100000  +1.000000  +1.000000  +1.000000  +1.000000  +1.000000  +1.000000  +1.000000  +1.000000  +0.700000
  +0.600000  +0.300000  +0.200000  +0.100000
#-----------------------------------------------------
#    THRST1 - THRUST AT IDLE (THROTL = 0.00)
#-----------------------------------------------------
# Alt: 0
   +700.000000   +635.000000   +400.000000    +60.000000   -500.000000  -1020.000000  -2000.000000  -2700.000000  -3400.000000  -3600.000000
  +1500.000000  +5000.000000  +8000.000000  +9800.000000 +10200.000000  +9600.000000  +9000.000000  +8400.000000  +7800.000000
#
# Alt: 10000
   +500.000000   +425.000000   +250.000000    +25.000000   -150.000000   -710.000000  -1250.000000  -1900.000000  -2000.000000  -1400.000000
  +1500.000000  +5000.000000  +8000.000000  +9600.000000  +9800.000000  +9800.000000  +9800.000000  +9800.000000  +9800.000000
#
# Alt: 20000
   +700.000000   +690.000000   +520.000000   +345.000000     +0.000000   -300.000000   -800.000000  -1300.000000     +0.000000  +1000.000000
  +1600.000000  +5000.000000  +7140.000000  +9560.000000 +10500.000000 +10600.000000 +10000.000000  +9400.000000  +8800.000000
#
# Alt: 30000
  +1020.000000  +1010.000000   +900.000000   +755.000000   +500.000000   +350.000000   +300.000000   +200.000000     +0.000000   -300.000000
  +2377.000000  +4600.000000  +5800.000000  +6800.000000  +7900.000000  +8000.000000  +7400.000000  +6800.000000  +6200.000000
#
# Alt: 40000
  +1350.000000  +1330.000000  +1200.000000  +1130.000000  +1000.000000   +910.000000   +600.000000   +600.000000   +860.000000   +600.000000
   +360.000000  +2841.000000  +4155.000000  +4900.000000  +5500.000000  +5800.000000  +5870.000000  +5957.000000  +5974.000000
#
# Alt: 50000
  +1400.000000  +1400.000000  +1400.000000  +1400.000000  +1360.000000  +1200.000000  +1100.000000   +900.000000   +750.000000   +750.000000
   +500.000000   +400.000000  +2400.000000  +3500.000000  +4100.000000  +4400.000000  +4470.000000  +4557.000000  +4574.000000
#
# Alt: 60000
   +325.000000   +325.000000   +325.000000   +325.000000   +325.000000   +325.000000   +325.000000   +325.000000   +325.000000   +325.000000
   +400.000000   +207.000000  +1200.000000  +2300.000000  +2900.000000  +3200.000000  +3270.000000  +3357.000000  +3374.000000
#
# Alt: 70000
     +0.000000     +0.000000     +0.000000     +0.000000     +0.000000     +0.000000     +0.000000     +0.000000     +0.000000     +0.000000
     +0.000000     +0.000000     +0.000000     +0.000000     +0.000000     +0.000000     +0.000000     +0.000000     +0.000000
#-----------------------------------------------------
#    THRST2 - THRUST AT MIL POWER (THROTL = 1.00)
#-----------------------------------------------------
# Alt: 0
 +12660.000000 +12680.000000 +12700.000000 +12800.000000 +12900.000000 +12900.000000 +12900.000000 +12900.000000 +12900.000000 +12600.000000
 +12400.000000 +12000.000000 +11500.000000 +10800.000000 +10200.000000  +9600.000000  +9000.000000  +8400.000000  +7800.000000
#
# Alt: 10000
  +9150.000000  +9150.000000  +9500.000000  +9600.000000  +9900.000000 +10200.000000 +10500.000000 +10600.000000 +10400.000000 +10200.000000
 +10000.000000  +9800.000000  +9600.000000  +9600.000000  +9800.000000  +9800.000000  +9800.000000  +9800.000000  +9800.000000
#
# Alt: 20000
  +6200.000000  +6313.000000  +6440.000000  +6900.000000  +7200.000000  +7300.000000  +7500.000000  +7900.000000  +8200.000000  +8050.000000
  +8000.000000  +8200.000000  +8900.000000  +9560.000000 +10500.000000 +10600.000000 +10000.000000  +9400.000000  +8800.000000
#
# Alt: 30000
  +3950.000000  +4040.000000  +4150.000000  +4290.000000  +4800.000000  +5200.000000  +5400.000000  +5600.000000  +5900.000000  +5700.000000
  +5600.000000  +5900.000000  +6300.000000  +6800.000000  +7900.000000  +8000.000000  +7400.000000  +6800.000000  +6200.000000
#
# Alt: 40000
  +2450.000000  +2470.000000  +2535.000000  +2600.000000  +2700.000000  +2840.000000  +3000.000000  +3250.000000  +3500.000000  +3800.000000
  +3700.000000  +4000.000000  +4500.000000  +4900.000000  +5500.000000  +5800.000000  +5870.000000  +5957.000000  +5974.000000
#
# Alt: 50000
  +1400.000000  +1400.000000  +1500.000000  +1560.000000  +1610.000000  +1660.000000  +1770.000000  +1930.000000  +2100.000000  +2310.000000
  +2200.000000  +2400.000000  +2800.000000  +3500.000000  +4100.000000  +4400.000000  +4470.000000  +4557.000000  +4575.000000
#
# Alt: 60000
   +680.000000   +720.000000   +760.000000   +800.000000   +709.000000   +666.000000   +913.000000  +1227.000000  +1162.000000   +793.000000
   +893.000000  +1193.000000  +1793.000000  +2300.000000  +2900.000000  +3200.000000  +3270.000000  +3357.000000  +3374.000000
#
# Alt: 70000
     +0.000000     +0.000000     +0.000000     +0.000000     +0.000000     +0.000000     +0.000000     +0.000000     +0.000000     +0.000000
     +0.000000     +0.000000     +0.000000     +0.000000     +0.000000     +0.000000     +0.000000     +0.000000     +0.000000
#-----------------------------------------------------
#    THRST3 - THRUST AT FULL AB (THROTL = 1.05)
#-----------------------------------------------------
# Alt: 0
 +19600.000000 +21020.000000 +21600.000000 +22300.000000 +23000.000000 +23600.000000 +24000.000000 +26000.000000 +26600.000000 +27000.000000
 +27900.000000 +28850.000000 +26329.000000 +23807.000000 +21286.000000 +18764.000000 +16243.000000 +13721.000000 +11200.000000
#
# Alt: 10000
 +15300.000000 +16100.000000 +16700.000000 +17500.000000 +18500.000000 +19500.000000 +20000.000000 +21200.000000 +22000.000000 +22600.000000
 +23300.000000 +23800.000000 +25400.000000 +23800.000000 +21285.000000 +18764.000000 +16242.000000 +13721.000000 +11200.000000
#
# Alt: 20000
 +11100.000000 +11600.000000 +12100.000000 +12800.000000 +13400.000000 +13500.000000 +14800.000000 +16500.000000 +17600.000000 +18300.000000
 +19200.000000 +19600.000000 +21500.000000 +22400.000000 +22500.000000 +22900.000000 +22500.000000 +22000.000000 +21500.000000
#
# Alt: 30000
  +7200.000000  +7600.000000  +7900.000000  +8500.000000  +9200.000000  +9800.000000 +10100.000000 +10800.000000 +11800.000000 +13400.000000
 +15000.000000 +16200.000000 +16800.000000 +17200.000000 +17600.000000 +17700.000000 +17700.000000 +18400.000000 +18000.000000
#
# Alt: 40000
  +4000.000000  +4435.000000  +4700.000000  +5000.000000  +5300.000000  +6200.000000  +6400.000000  +6600.000000  +7150.000000  +8600.000000
 +10000.000000 +11500.000000 +11800.000000 +12000.000000 +12300.000000 +12800.000000 +13000.000000 +13300.000000 +12300.000000
#
# Alt: 50000
  +2800.000000  +2950.000000  +3200.000000  +3500.000000  +3600.000000  +4000.000000  +4200.000000  +4300.000000  +4400.000000  +4700.000000
  +5300.000000  +6300.000000  +6500.000000  +6600.000000  +6900.000000  +7200.000000  +7500.000000  +7700.000000  +7800.000000
#
# Alt: 60000
  +1700.000000  +1800.000000  +1900.000000  +2000.000000  +2100.000000  +2150.000000  +2200.000000  +2300.000000  +2320.000000  +2700.000000
  +2800.000000  +3300.000000  +3500.000000  +3666.000000  +3900.000000  +4200.000000  +4500.000000  +4700.000000  +4800.000000
#
# Alt: 70000
     +0.000000     +0.000000     +0.000000     +0.000000     +0.000000     +0.000000     +0.000000     +0.000000     +0.000000     +0.000000
     +0.000000     +0.000000     +0.000000     +0.000000     +0.000000     +0.000000     +0.000000     +0.000000     +0.000000
#-----------------------------------------------------
#    FUELFLOW1 - FUELFLOW AT IDLE (THROTL = 0.00)
#-----------------------------------------------------
# Alt: 0
  +1105.000000  +1105.000000  +1314.000000   +730.000000   +396.000000   +335.000000  -1450.000000  -2933.000000  +1326.000000  +3147.000000
  +4200.000000  +5556.000000  +8989.000000 +11951.000000 +13247.000000 +12973.000000 +13235.000000 +12923.000000 +12581.000000
#
# Alt: 10000
   +689.000000   +689.000000   +689.000000   +628.000000   +113.000000   +878.000000   -597.000000  -1760.000000  -4050.000000  -3000.000000
  +1553.000000  +5400.000000  +8735.000000 +11349.000000 +12313.000000 +12796.000000 +13883.000000 +14499.000000 +15173.000000
#
# Alt: 20000
   +183.000000   +183.000000   +183.000000   +500.000000   +469.000000   +883.000000  -1099.000000   -700.000000  +1120.000000  -4000.000000
  +1690.000000  +5516.000000  +7964.000000 +11566.000000 +13522.000000 +14199.000000 +14566.000000 +14318.000000 +14046.000000
#
# Alt: 30000
   +384.000000   +384.000000   +384.000000   +384.000000   +384.000000   +823.000000   +772.000000   +300.000000   +393.000000  -2000.000000
  +2604.000000  +5270.000000  +6721.000000  +8576.000000 +10634.000000 +11221.000000 +11334.000000 +10916.000000 +10457.000000
#
# Alt: 40000
   +384.000000   +384.000000   +384.000000   +384.000000   +384.000000  -1000.000000  -1650.000000   -502.000000   +134.000000  -1500.000000
  +1500.000000  +3227.000000  +4773.000000  +6119.000000  +7326.000000  +8047.000000  +8884.000000  +9445.000000  +9945.000000
#
# Alt: 50000
   +384.000000   +384.000000   +384.000000   +384.000000   +384.000000  -1000.000000  -1650.000000   -502.000000   +134.000000  -1500.000000
  +1500.000000  +2800.000000  +3500.000000  +3989.000000  +4955.000000  +5518.000000  +6062.000000  +6442.000000  +6753.000000
#
# Alt: 60000
   +384.000000   +384.000000   +384.000000   +384.000000   +384.000000  -1000.000000  -1650.000000   -502.000000   +134.000000  -1500.000000
     +0.000000   +500.000000  +1267.000000  +2621.000000  +3505.000000  +4013.000000  +4434.000000  +4746.000000  +4981.000000
#
# Alt: 70000
   +816.000000   +816.000000   +816.000000   +816.000000   +816.000000   +816.000000   +816.000000   +816.000000   +816.000000   +816.000000
   +816.000000   +816.000000   +816.000000   +816.000000   +816.000000   +816.000000   +816.000000   +816.000000   +816.000000
#-----------------------------------------------------
#    FUELFLOW2 - FUELFLOW AT MIL POWER (THROTL = 1.00)
#-----------------------------------------------------
# Alt: 0
  +9600.000000 +10000.000000 +10600.000000 +11000.000000 +11250.000000 +11500.000000 +11750.000000 +12000.000000 +12250.000000 +13000.000000
 +13191.000000 +13333.000000 +12921.000000 +13171.000000 +13247.000000 +12973.000000 +13235.000000 +13280.000000 +13300.000000
#
# Alt: 10000
  +7600.000000  +7750.000000  +8000.000000  +8250.000000  +8900.000000  +9050.000000  +9200.000000  +9600.000000 +10000.000000 +10250.000000
 +10353.000000 +10584.000000 +10482.000000 +11349.000000 +12313.000000 +12796.000000 +13883.000000 +14499.000000 +15173.000000
#
# Alt: 20000
  +4650.000000  +5000.000000  +5500.000000  +5750.000000  +6100.000000  +6250.000000  +7000.000000  +7400.000000  +7800.000000  +8250.000000
  +8452.000000  +9046.000000  +9927.000000 +11566.000000 +13522.000000 +14199.000000 +14566.000000 +14700.000000 +14800.000000
#
# Alt: 30000
  +2800.000000  +3000.000000  +3200.000000  +3500.000000  +4000.000000  +4300.000000  +4700.000000  +5100.000000  +5500.000000  +6050.000000
  +6134.000000  +6759.000000  +7301.000000  +8576.000000 +10634.000000 +11221.000000 +11334.000000 +11380.000000 +11450.000000
#
# Alt: 40000
  +1700.000000  +1800.000000  +2000.000000  +2050.000000  +2300.000000  +2500.000000  +2750.000000  +3050.000000  +3500.000000  +4000.000000
  +4018.000000  +4541.000000  +5168.000000  +6119.000000  +7326.000000  +8047.000000  +8884.000000  +9445.000000  +9945.000000
#
# Alt: 50000
  +1240.000000  +1260.000000  +1350.000000  +1400.000000  +1480.000000  +1500.000000  +1650.000000  +1950.000000  +2050.000000  +2250.000000
  +2206.000000  +2507.000000  +2955.000000  +3989.000000  +4955.000000  +5518.000000  +6062.000000  +6442.000000  +6753.000000
#
# Alt: 60000
   +602.000000   +648.000000   +684.000000   +718.000000   +652.000000   +602.000000   +851.000000  +1240.000000  +1134.000000   +772.000000
   +895.000000  +1246.000000  +1892.000000  +2621.000000  +3505.000000  +4013.000000  +4434.000000  +4746.000000  +4981.000000
#
# Alt: 70000
   +816.000000   +816.000000   +816.000000   +816.000000   +816.000000   +816.000000   +816.000000   +816.000000   +816.000000   +816.000000
   +816.000000   +816.000000   +816.000000   +816.000000   +816.000000   +816.000000   +816.000000   +816.000000   +816.000000
#-----------------------------------------------------
#    FUELFLOW3 - FUELFLOW AT FULL AB (THROTL = 1.05)
#-----------------------------------------------------
# Alt: 0
 +40833.000000 +45696.000000 +49091.000000 +51800.000000 +55000.000000 +57800.000000 +59500.000000 +61000.000000 +64000.000000 +68000.000000
 +76000.000000 +82000.000000 +77437.000000 +72143.000000 +66518.000000 +60530.000000 +54143.000000 +47315.000000 +40000.000000
#
# Alt: 10000
 +30297.000000 +33542.000000 +35914.000000 +38000.000000 +40000.000000 +42000.000000 +44000.000000 +45800.000000 +48000.000000 +51500.000000
 +56000.000000 +60500.000000 +66000.000000 +70000.000000 +73800.000000 +74200.000000 +74200.000000 +74200.000000 +74200.000000
#
# Alt: 20000
 +21765.000000 +23673.000000 +25208.000000 +27000.000000 +29000.000000 +31000.000000 +33800.000000 +36000.000000 +38000.000000 +40000.000000
 +42000.000000 +45000.000000 +48000.000000 +51000.000000 +54000.000000 +57000.000000 +60000.000000 +62000.000000 +62000.000000
#
# Alt: 30000
 +17143.000000 +18095.000000 +18810.000000 +20000.000000 +21000.000000 +22000.000000 +24000.000000 +25000.000000 +26500.000000 +28700.000000
 +30500.000000 +33200.000000 +35500.000000 +38000.000000 +40000.000000 +42500.000000 +44200.000000 +46800.000000 +49000.000000
#
# Alt: 40000
  +8889.000000  +9641.000000  +9792.000000 +10000.000000 +10000.000000 +10500.000000 +11500.000000 +12000.000000 +13200.000000 +18200.000000
 +20000.000000 +22000.000000 +24000.000000 +26000.000000 +27500.000000 +29000.000000 +30000.000000 +32000.000000 +33000.000000
#
# Alt: 50000
  +5833.000000  +6020.000000  +6400.000000  +7000.000000  +7000.000000  +7800.000000  +8000.000000  +8100.000000  +8110.000000  +9000.000000
 +10300.000000 +13800.000000 +14100.000000 +15000.000000 +16000.000000 +17000.000000 +18000.000000 +19000.000000 +20000.000000
#
# Alt: 60000
  +3400.000000  +3529.000000  +3654.000000  +3800.000000  +3900.000000  +4000.000000  +4000.000000  +4000.000000  +4000.000000  +4800.000000
  +6000.000000  +7800.000000  +8000.000000  +8200.000000  +9000.000000 +10000.000000 +10200.000000 +11700.000000 +11700.000000
#
# Alt: 70000
   +816.000000   +816.000000   +816.000000   +816.000000   +816.000000   +816.000000   +816.000000   +816.000000   +816.000000   +816.000000
   +816.000000   +816.000000   +816.000000   +816.000000   +816.000000   +816.000000   +816.000000   +816.000000   +816.000000
#
#
#-----------------------------------------------------
# IdleThrottle Chart
#-----------------------------------------------------
#
4 # mach breakpoints
#
   0.5   0.6   0.84   1.4
2 # alt breakpoints
   0   100000
# Alt: 0
 0.7 0.8 0.8 0.96
#
# Alt: 100000
 0.7 0.8 0.8 0.96
#
#
#-----------------------------------------------------
# MilRPM Chart
#-----------------------------------------------------
#
2 # mach breakpoints
#
   0   2.5
2 # alt breakpoints
   0   100000
# Alt: 0
 0.96 0.96
#
# Alt: 100000
 0.96 0.96
#
#
#-----------------------------------------------------
# MaxABRPM Chart
#-----------------------------------------------------
#
2 # mach breakpoints
#
   0   2.5
2 # alt breakpoints
   0   100000
# Alt: 0
 0.96 0.96
#
# Alt: 100000
 0.96 0.96
#
#
#-----------------------------------------------------
# Nozzle Max Chart
#-----------------------------------------------------
#
2 # mach breakpoints
#
   0   2.5
2 # alt breakpoints
   0   100000
# Alt: 0
 0.94 0.94
#
# Alt: 100000
 0.94 0.94
#
#
#-----------------------------------------------------
# a Rate
#-----------------------------------------------------
#
3 # alt breakpoints
#
   0   30000   100000
#
   0   1   2
#
#-----------------------------------------------------
# "Function66" P2 - P3
#-----------------------------------------------------
#
2 # alt breakpoints
#
   0.25   0.5
#
   1   0.1
#-----------------------------------------------------
#    ROLL DATA
#-----------------------------------------------------
#    ALPHA BREAKPOINTS
7 # Num ALPHA
   -10   0   10   20   25   30   90
#
7 # DYNAMIC PRESSURE BREAKPOINTS
   0   100   200   300   400   500   2000
#-----------------------------------------------------
#     RCMDMX - PEAK ROLL RATE
#-----------------------------------------------------
1   # Table Multiplier

# ALPHA -10
 0.00 171.82 243.41 257.73 257.73 257.73 229.09
#
# ALPHA 0
 0.00 214.77 286.36 300.68 315.00 315.00 286.36
#
# ALPHA 10
 0.00 171.82 243.41 257.73 257.73 257.73 229.09
#
# ALPHA 20
 0.00 71.59 143.18 157.50 157.50 157.50 128.86
#
# ALPHA 25
 0.00 60.00 93.07 107.39 107.39 107.39 107.39
#
# ALPHA 30
 0.00 30.00 42.95 57.27 57.27 57.27 28.64
#
# ALPHA 90
 0.00 0.00 0.00 0.00 0.00 0.00 0.00
#
# End Of Roll Data
#
#-----------------------------------------------------
# LIMITERS
#-----------------------------------------------------
17   # Number of limiters
# Type Key Values
#
# Neg G Limiter
0 0     250.0     -3.0     100.0     0.0
# Pos G Limiter (Cat I)
3 1     15.0     9.3     20.4     7.3     25.2     1.0
# Roll Rate Limiter
0 2     15.0     1.0     25.0     1.0
# Yaw Alpha Limiter
0 3     14.0     1.0     26.0     0.0
# Yaw Roll Rate Limiter
0 4     20.0     1.0     360.0     0.0
# Cat III Command Type
0 5     350.0     18.0     420.0     15.0
# Cat III AOA Limiter
1 6     16.0
# Cat III Roll Rate Limiter
2 7     0.6
# Cat III Yaw Alpha Limiter
0 8     3.0     1.0     15.0     0.0
# Cat III Yaw Roll Rate Limiter
0 9     20.0     1.0     180.0     0.0
# Pitch and Yaw Control Damper
3 10     0.00     0.30     15.00     0.85     50.00     1.00
# Roll Control Damper
3 11     0.00     0.60     15.00     0.85     50.00     1.00
# Command Type
1 12     15
# Low Speed Omega
3 13     0.01     0.10     40.00     0.80     60.00     1.00
# Stores Drag
0 14     0.9     0.000100     1.0     0.000283
# Cat III Max Gs
1 16     6.5
# AOA Limiter
1 17     25.2
#-----------------------------------------------------
# Vapor data
#-----------------------------------------------------
31   #Total Number of vapor chains - MUST MATCH THE REAL NUMBER OF CHAINS DEFINED LATER OR YOU'LL GET CTDs!
#
#		              POSITION				  SIZE					   TIME/ALPHA				   OTHER	
#	startX  startY  startZ  endX	endY	endZ	Init	Growth	RandPos t1	a1	t2	a2	t3	a3	t4	a4	LEVEL	PSID
# level 0
	+19.80	+1.80	-0.50	+8.36	+3.34	-1.00	+0.112	+0.0225	+0.175	+0.00	+0.25	+1.00	+0.15	+0.00	+0.00	+0.00	+0.00	+0	+1
	+10.19	+3.04	-0.75	-4.56	+4.95	-2.35	+0.400	+0.0550	+0.175	+0.00	+0.03	+0.65	+0.35	+0.85	+0.30	+1.00	+0.25	+0	+1
	-4.56	+4.95	-2.35	-10.04	+5.66	-2.55	+1.850	-0.0660	+0.175	+0.00	+0.25	+1.00	+0.20	+0.00	+0.00	+0.00	+0.00	+0	+1
	-10.04	+5.66	-2.55	-18.41	+6.04	-2.75	+1.750	-0.0550	+0.175	+0.00	+0.20	+0.65	+0.15	+1.00	+0.00	+0.00	+0.00	+0	+1
# level 1
	+5.15	+4.10	-0.85	-6.72	+6.00	-1.40	+1.250	+0.0450	+0.150	+0.00	+0.18	+1.00	+0.38	+0.00	+0.00	+0.00	+0.00	+1	+3
	+4.93	+4.35	-0.85	-6.72	+6.36	-1.40	+1.250	+0.0450	+0.150	+0.00	+0.18	+1.00	+0.38	+0.00	+0.00	+0.00	+0.00	+1	+3
	+4.71	+4.60	-0.85	-6.72	+6.72	-1.40	+1.250	+0.0450	+0.150	+0.00	+0.18	+1.00	+0.38	+0.00	+0.00	+0.00	+0.00	+1	+3
	+4.49	+4.85	-0.85	-6.72	+7.08	-1.40	+0.950	+0.0450	+0.150	+0.00	+0.18	+1.00	+0.38	+0.00	+0.00	+0.00	+0.00	+1	+3
	+4.27	+5.10	-0.85	-6.72	+7.44	-1.40	+0.950	+0.0450	+0.150	+0.00	+0.18	+1.00	+0.38	+0.00	+0.00	+0.00	+0.00	+1	+3
	+4.05	+5.35	-0.85	-6.72	+7.80	-1.40	+0.950	+0.0450	+0.150	+0.00	+0.18	+1.00	+0.38	+0.00	+0.00	+0.00	+0.00	+1	+3
	+3.93	+5.60	-0.85	-6.72	+8.16	-1.40	+0.950	+0.0450	+0.150	+0.00	+0.18	+1.00	+0.40	+0.00	+0.00	+0.00	+0.00	+1	+3
	+3.71	+5.85	-0.85	-6.72	+8.52	-1.40	+0.950	+0.0450	+0.150	+0.00	+0.18	+1.00	+0.40	+0.00	+0.00	+0.00	+0.00	+1	+3
	+3.49	+6.10	-0.85	-6.72	+8.88	-1.38	+0.950	+0.0450	+0.150	+0.00	+0.18	+1.00	+0.40	+0.00	+0.00	+0.00	+0.00	+1	+3
	+3.27	+6.35	-0.85	-6.72	+9.24	-1.36	+0.950	+0.0450	+0.150	+0.00	+0.18	+1.00	+0.40	+0.00	+0.00	+0.00	+0.00	+1	+3
	+3.05	+6.60	-0.85	-6.72	+9.60	-1.34	+0.950	+0.0450	+0.150	+0.00	+0.18	+1.00	+0.40	+0.00	+0.00	+0.00	+0.00	+1	+3
	+2.83	+6.75	-0.85	-6.72	+9.96	-1.32	+0.950	+0.0450	+0.150	+0.00	+0.18	+1.00	+0.40	+0.00	+0.00	+0.00	+0.00	+1	+3
# level 2
	+2.51	+7.00	-0.85	-6.72	+10.32	-1.30	+0.950	+0.0450	+0.150	+0.00	+0.18	+1.00	+0.40	+0.00	+0.00	+0.00	+0.00	+2	+3
	+2.39	+7.25	-0.85	-6.72	+10.68	-1.28	+0.950	+0.0450	+0.150	+0.00	+0.18	+1.00	+0.40	+0.00	+0.00	+0.00	+0.00	+2	+3
	+2.17	+7.50	-0.85	-6.72	+11.04	-1.26	+0.950	+0.0450	+0.150	+0.00	+0.18	+1.00	+0.40	+0.00	+0.00	+0.00	+0.00	+2	+3
	+1.95	+7.75	-0.85	-6.72	+11.40	-1.24	+0.950	+0.0450	+0.150	+0.00	+0.18	+1.00	+0.40	+0.00	+0.00	+0.00	+0.00	+2	+3
	+1.73	+8.00	-0.85	-6.72	+11.76	-1.22	+0.950	+0.0450	+0.150	+0.00	+0.18	+1.00	+0.40	+0.00	+0.00	+0.00	+0.00	+2	+3
	+1.51	+8.25	-0.85	-6.72	+12.12	-1.20	+0.950	+0.0450	+0.150	+0.00	+0.18	+1.00	+0.40	+0.00	+0.00	+0.00	+0.00	+2	+3
	+1.29	+8.50	-0.85	-6.72	+12.48	-1.18	+0.950	+0.0450	+0.150	+0.00	+0.18	+1.00	+0.40	+0.00	+0.00	+0.00	+0.00	+2	+3
	+1.07	+8.75	-0.85	-6.72	+12.84	-1.16	+0.950	+0.0450	+0.150	+0.00	+0.18	+1.00	+0.40	+0.00	+0.00	+0.00	+0.00	+2	+3
	+0.85	+9.00	-0.85	-6.72	+13.20	-1.14	+0.950	+0.0450	+0.150	+0.00	+0.18	+1.00	+0.40	+0.00	+0.00	+0.00	+0.00	+2	+3
	+0.63	+9.25	-0.85	-6.72	+13.56	-1.12	+0.950	+0.0450	+0.150	+0.00	+0.18	+1.00	+0.40	+0.00	+0.00	+0.00	+0.00	+2	+3
	+0.41	+9.50	-0.85	-6.72	+13.92	-1.10	+0.950	+0.0450	+0.150	+0.00	+0.18	+1.00	+0.40	+0.00	+0.00	+0.00	+0.00	+2	+3
	+0.19	+9.75	-0.85	-6.72	+14.28	-1.98	+0.950	+0.0450	+0.150	+0.00	+0.18	+1.00	+0.40	+0.00	+0.00	+0.00	+0.00	+2	+3
	-0.03	+10.00	-0.85	-6.72	+14.64	-1.06	+0.950	+0.0450	+0.150	+0.00	+0.18	+1.00	+0.40	+0.00	+0.00	+0.00	+0.00	+2	+3
	-0.25	+10.25	-0.85	-6.72	+15.00	-1.04	+0.950	+0.0450	+0.150	+0.00	+0.18	+1.00	+0.40	+0.00	+0.00	+0.00	+0.00	+2	+3
	-0.47	+10.50	-0.85	-6.72	+15.36	-1.02	+0.950	+0.0450	+0.150	+0.00	+0.18	+1.00	+0.40	+0.00	+0.00	+0.00	+0.00	+2	+3
#
#-----------------------------------------------------
# ADDITIONAL DATA
#-----------------------------------------------------
#
#-----------------------------------------------------
# Aircraft
#-----------------------------------------------------
typeAC 1
isComplex 1
#-----------------------------------------------------
# Engine
#-----------------------------------------------------
typeEngine 0
nEngines 1
engine1Location -18.35 0.00 -0.10
engine2Location 0.00 0.00 0.00
engine3Location 0.00 0.00 0.00
engine4Location 0.00 0.00 0.00
engineSmokes 0
normSpoolRate 4.0
abSpoolRate 10.5
nozzleMil 0.05
LGIdle 1
jfsStartUpTime 15
jfsSpoolUpRate 15.0
jfsSpoolUpLimit 0.25
lightupSpoolRate 20.0
flameoutSpoolRate 35.0
jfsRechargeTime 60
jfsMinRechargeRpm 0.12
jfsSpinTime 240
FTITStart 6.100
FTITIdle 5.100
FTITMax 7.600
FTITAB 7.623
mainGenRpm 0.63
stbyGenRpm 0.55
epuBurnTime 600
DeepStallEngineStall 1
engineDamageStopThreshold 15
engineDamageNoRestartThreshold 3
engineDamageHitThreshold 40
complexnozzle 1
animExhNozIdle 5.0
animExhNozMil 21.0
animExhNozMax 5.0
animExhNozAB 15.0
animExhNozABMax 15.0
animExhNozRate 50.0
PropEngineSwitchStates 0
animEngineRPMMult 1000
HeatBlurShift -7
hasReverseThrust 0 #Added Falcas
ReverseThrustFactor 0.0 #Added Falcas
minReverseThrustSpeed 0 #Added Falcas
animReverseAngle 0 #Added Falcas
animReverseRate 0.0 #Added Falcas
#-----------------------------------------------------
# JetBlast data
#-----------------------------------------------------
WakeFactor 1.0
WakeAngle 4.28
WakeRange 668
#-----------------------------------------------------
# Flight Dynamics
#-----------------------------------------------------
area2Span 0.1066
pitchMomentum 1.30
rollMomentum 1.00
yawMomentum 1.00
pitchElasticity 1.00
gearPitchFactor 0.00
pitchGearGain 0.80
rollGearGain 0.60
yawGearGain 0.60
AFMcriticalAOA 29.0
#-----------------------------------------------------
# Controls
#-----------------------------------------------------
elevonMaxAngle 25.0
aileronMaxAngle 21.5
rudderMaxAngle 30.0
rollCouple -0.05
elevatorRoll 1
elevRate 60
animAileronRate 45
rudderRate 120
animSpoiler1Max 0
animSpoiler1Rate 45.0
animSpoiler1OffAtWingSweep 70.0
animSpoiler1AirBrake 0
animSpoiler2Max 0
animSpoiler2Rate 45.0
animSpoiler2OffAtWingSweep 70.0
animSpoiler2AirBrake 0
#-----------------------------------------------------
# Trim
#-----------------------------------------------------
pitchElevatorTrimRate 0.15
pitchAileronTrimRate 0.04
pitchRudderTrimRate 0.25
trimDeadZonePercentage 0.05
#-----------------------------------------------------
# Flaps
#-----------------------------------------------------
hasFlapperons 1
flapGearRelative 1
maxFlapVcas 370
flapVcasRange 130
flap2Nozzle 0
#-----------------------------------------------------
# Lef (Slats)
#-----------------------------------------------------
haslef 2
lefGround -2.0
lefMaxAngle 25.0
lefMaxMach 0.99
lefNStages 1
CDlefFactor 0.00
lefRate 25
#-----------------------------------------------------
# Tef (Flaps)
#-----------------------------------------------------
hasTef 3
tefMaxAngle 21.5
CLtefFactor 0.13
CDtefFactor 0.80
AFMCLtefFactor 0.13
AFMCDtefFactor 0.80
AFMCmtefFactor 0.80
AFMRollAssymFactor 0.75
tefNStages 2
tefTakeoff 21.5
tefRate 80
NoTefSound 0
#-----------------------------------------------------
# Air-Brakes
#-----------------------------------------------------
CDSPDBFactor 0.031
airbrakeMaxAngle 60
airbrakeOutRateFactor 0.500000
airbrakeInRateFactor 0.166667
airbrakeApproachAngle 43 #Added Falcas
minAirbrakeSpeed -1
#-----------------------------------------------------
# Drag Chute
#-----------------------------------------------------
dragChuteCd 0.000
dragChuteMaxSpeed 170
dragChuteDropSpeed 90 #Added Falcas
dragChuteMinRunwayLength 0 #Added Falcas
dragChuteDelay 2.0 #Added Falcas
#-----------------------------------------------------
# Gear and NWS
#-----------------------------------------------------
CDLDGFactor 0.060
sinkRate 15
MLGWOWPercentage 0.90
NLGWOWPercentage 0.50
NWSRateUp 1.5
NWSRateDown 5.0
animWheelRadius1 0.75
animWheelRadius2 1.10
animWheelRadius3 1.10
animWheelRadius4 0.00
animWheelRadius5 0.00
animWheelRadius6 0.00
animWheelRadius7 0.00
animWheelRadius8 0.00
animGearMaxComp1 0.25
animGearMaxComp2 0.00
animGearMaxComp3 0.00
animGearMaxComp4 0.00
animGearMaxComp5 0.00
animGearMaxComp6 0.00
animGearMaxComp7 0.00
animGearMaxComp8 0.00
animGearMaxExt1 0.60
animGearMaxExt2 0.15
animGearMaxExt3 0.15
animGearMaxExt4 0.00
animGearMaxExt5 0.00
animGearMaxExt6 0.00
animGearMaxExt7 0.00
animGearMaxExt8 0.00
animGearInverted 0
GearDofRate1 0.60 #Added Falcas 01/21/2014
GearDofRate2 0.60
GearDofRate3 0.60
GearDofRate4 0.60
GearDofRate5 0.60
GearDofRate6 0.60
GearDofRate7 0.60
GearDofRate8 0.60
GearDelayDown1 1.50 #Added Falcas 01/21/2014
GearDelayDown2 1.50
GearDelayDown3 1.50
GearDelayDown4 1.50
GearDelayDown5 1.50
GearDelayDown6 1.50
GearDelayDown7 1.50
GearDelayDown8 1.50
GearDelayUp1 0.00 #Added Falcas 01/21/2014
GearDelayUp2 0.00
GearDelayUp3 0.00
GearDelayUp4 0.00
GearDelayUp5 0.00
GearDelayUp6 0.00
GearDelayUp7 0.00
GearDelayUp8 0.00
DoorDofRate1 0.60 #Added Falcas 01/21/2014
DoorDofRate2 0.60
DoorDofRate3 0.60
DoorDofRate4 0.60
DoorDofRate5 0.60
DoorDofRate6 0.60
DoorDofRate7 0.60
DoorDofRate8 0.60
DoorDelayDown1 0.00 #Added Falcas 01/21/2014
DoorDelayDown2 0.00
DoorDelayDown3 0.00
DoorDelayDown4 0.00
DoorDelayDown5 0.00
DoorDelayDown6 0.00
DoorDelayDown7 0.00
DoorDelayDown8 0.00
DoorDelayUp1 1.50 #Added Falcas 01/21/2014
DoorDelayUp2 1.50
DoorDelayUp3 1.50
DoorDelayUp4 1.50
DoorDelayUp5 1.50
DoorDelayUp6 1.50
DoorDelayUp7 1.50
DoorDelayUp8 1.50
#-----------------------------------------------------
# Hook
#-----------------------------------------------------
hookTipLocation -10.88 0.00 5.43
animHookAngle 43.0
animHookRate 29.0
#-----------------------------------------------------
# Wing fold
#-----------------------------------------------------
animWingFoldAngle 0
animWingFoldRate 0.0
#-----------------------------------------------------
# Canopy
#-----------------------------------------------------
canopyMaxAngle 30
canopyOpenRate 4.5
canopyCloseRate 8.0
canopyMaxSpeed 70
#-----------------------------------------------------
# Fuel
#-----------------------------------------------------
fuelGaugeMultiplier 10.0
fuelFlowFactorNormal 0.950
fuelFlowFactorAb 2.300
minFuelFlow 868
fuelFwdRes 462
fuelAftRes 462
fuelFwd1 2016
fuelFwd2 716
fuelAft1 2310
fuelWingAl 598
fuelWingFr 598
fuelFwdResRate 22.200
fuelAftResRate 22.200
fuelFwd1Rate 22.200
fuelFwd2Rate 22.200
fuelAft1Rate 22.200
fuelWingAlRate 6.660
fuelWingFrRate 6.660
fuelClineRate 18.000
fuelWingExtRate 30.000
fuelMinFwd 400
fuelMinAft 250
#-----------------------------------------------------
# Air-Air Refuel
#-----------------------------------------------------
receiverRefuelServiceType 1 #Added Falcas 01/21/2014
refuelLocation 0.00 0.00 -2.35
refuelSpeed 300
refuelAltitude 22000
refuelRate 33
AIBoomDistance 10
decelDistance 2500
desiredClosureFactor 0.45
longLeg 45
shortLeg 20
IL78Factor 17.4
animRefuelAngle 205.0
animRefuelRate 50.0
#-----------------------------------------------------
# Avionics
#-----------------------------------------------------
avionicsCanUseSpice 0
avionicsJDAMAvionicsType 0
avionicsDiffICPStyle 0
avionicsMLUPFL 0
avionicsDatalink 0
avionicsHudLadderTapeType 2
avionicsHudVAHTapeType 2
avionicsHudDGFTDefaultMode 4
avionicsDGFTMasterModeLabelOnHud 1
avionicsDGFTAttitudeAwareness 0
avionicsMLUM2TAOnHUD 1
avionicsHudAATargetAspectAngle 1
avionicsHudOlderMasterModeWindow 0
avionicsNewAMRAAMdlz 0
avionicsBullseyeOnHud 1
avionicsDEDHudRepeaterBlanksOnDGFT 1
avionicsHudNavDeclutterEnabled 1
avionicsHudNavSpdAltTapesLag 0
avionicsZenithNadirOnHud 0
avionicsGhostHorizonAwareness 0
avionicsEPAFRadarCues 0
avionicsRadarJamChevrons 0
avionicsColorMfd 0
avionicsGrayScaleGM 1
avionicsActivateMFDBoot 2
avionicsMMCUpgrade 0
avionicsEGIUpgrade 0
avionicsDigitalFLCS 0
avionicsRWRType 0
avionicsGunEEGSMode 0
avionicsGunSSLCMode 1
avionicsGunLCOSMode 1
avionicsGunSNAPMode 1
avionicsEngineType 1
avionicsMfdCataSymbolAim120 0
avionicsHudOldBAIType 1
avionicsCursorEnableAsToggle 0
avionicsMaverickHandoffCapeable 0
#-----------------------------------------------------
# Autopilot
#-----------------------------------------------------
maxAutopilotMach 0.95
#-----------------------------------------------------
# Locations
#-----------------------------------------------------
PilotEyePos 15.00 0.00 -3.29
wingTipLocation -6.90 15.40 -0.40
#-----------------------------------------------------
# Counter measure
#-----------------------------------------------------
hasEWS 1
ecmStrength 0.000
nChaff 90
nFlare 45
FlareDispensers 3
FlareSeq 0
FlarePos1 -11.00 2.50 0.10
FlareVec1 0.00 0.00 100.00
FlareCount1 15
FlarePos2 -11.00 -2.50 0.10
FlareVec2 0.00 0.00 100.00
FlareCount2 15
FlarePos3 -8.10 0.90 2.90
FlareVec3 -100.00 5.00 0.00
FlareCount3 15
ChaffDispensers 3
ChaffSeq 0
ChaffPos1 -8.10 -0.90 2.90
ChaffVec1 -100.00 -5.00 0.00
ChaffCount1 30
ChaffPos2 -9.00 0.50 -3.20
ChaffVec2 -100.00 5.00 0.00
ChaffCount2 30
ChaffPos3 -9.00 -0.50 -3.20
ChaffVec3 -100.00 -5.00 0.00
ChaffCount3 30
#-----------------------------------------------------
# Hardpoint data
#-----------------------------------------------------
hardpoint1Grp 0
hardpoint2Grp f16-wingtip-16s210
hardpoint3Grp f16-2/8-16s210
hardpoint4Grp f16-3/4-16s210
hardpoint5Grp f16-3/4
hardpoint6Grp f16-centerline
hardpoint7Grp f16-6/7
hardpoint8Grp f16-6/7-16s210
hardpoint9Grp f16-2/8-16s210
hardpoint10Grp f16-wingtip-16s210
hardpoint11Grp 0
hardpoint12Grp 0
hardpoint13Grp 0
hardpoint14Grp 0
hardpoint15Grp 0
hardpoint16Grp 0
#-----------------------------------------------------
# Sounds
#-----------------------------------------------------
sndExternalVol -2000
sndSpdBrakeStart 141
sndSpdBrakeLoop 140
sndSpdBrakeEnd 139
sndSpdBrakeWind 142
sndOverSpeed1 191
sndOverSpeed2 192
sndGunStart 25
sndGunLoop 26
sndGunEnd 27
sndBBPullup 68
sndBBBingo 66
sndBBWarning 63
sndBBCaution 64
sndBBBeeps 301
sndBBChaffFlareLow 184
sndBBFlare 138
sndBBChaffFlare 183
sndBBChaffFlareOut 185
sndBBAltitude 65
sndBBLock 67
sndTouchDown 42
sndWheelBrakes 132
sndDragChute 218
sndLowSpeed 167
sndFlapStart 145
sndFlapLoop 144
sndFlapEnd 143
sndHookStart 195
sndHookLoop 194
sndHookEnd 193
sndGearCloseStart 147
sndGearCloseEnd 146
sndGearOpenStart 149
sndGearOpenEnd 150
sndGearLoop 148
sndCanopyOpenStart 271
sndCanopyOpenLoop 275
sndCanopyOpenEnd 272
sndCanopyCloseStart 273
sndCanopyCloseLoop 361
sndCanopyCloseEnd 274
sndEject 5
sndWind 33
sndBattery 304
sndRadioBuzz 305
sndJFSStart 288
sndJFSLoop 289
sndJFSEnd 290
sndJFSStartInt 306
sndJFSLoopInt 307
sndJFSendInt 308
#-----------------------------------------------------
# Sounds Engine Ext
#-----------------------------------------------------
sndAbExt 39 #by Jester
sndAbExtChart 4 0.00 0.00 0.70 0.75 0.96 0.97 0.98 1.00
sndAbExtPitchChart 3 0.70 2.00 0.97 1.50 1.00 1.00
#
sndExt 35 #by Jester
sndExtChart 3 0.00 0.80 1.00 1.00 1.03 1.00
sndExtPitchChart 6 0.00 0.00 0.70 1.00 0.75 1.30 0.80 1.50 0.85 1.70 0.90 1.70
#
sndExt2 276 #by Jester
sndExt2Chart 3 0.00 0.80 1.00 1.00 1.03 1.00
sndExt2PitchChart 6 0.00 0.00 0.70 1.00 0.75 1.30 0.83 1.60 0.85 1.80 0.90 1.80
#
sndExt3 0
#-----------------------------------------------------
# Sounds Engine Int
#-----------------------------------------------------
sndInt 34 #by Jester
sndIntChart 5 0.00 0.00 0.60 1.00 0.70 1.00 0.94 1.00 0.97 0.80
sndIntPitchChart 6 0.00 0.00 0.70 1.00 0.75 1.30 0.80 1.60 0.85 1.80 0.90 1.80
#
sndInt2 278 #by Jester
sndInt2Chart 4 0.00 0.00 0.40 0.60 0.70 0.80 0.77 1.00
sndInt2PitchChart 6 0.00 0.00 0.70 1.00 0.75 1.00 0.83 1.01 0.85 1.01 0.90 1.01
#
sndInt3 303 #by Jester
sndInt3Chart 5 0.00 0.00 0.30 1.00 0.70 1.00 0.80 1.00 0.94 1.00
sndInt3PitchChart 6 0.00 0.00 0.70 1.00 0.75 1.00 0.83 1.01 0.85 1.01 0.90 1.01
#
sndAbInt 40 #by Jester
sndAbIntChart 3 0.00 0.00 0.90 0.20 0.97 1.00
#
sndAbInt2 297 #by Jester
sndAbInt2Chart 2 0.00 0.00 0.93 1.00
#-----------------------------------------------------
# Sounds Aero
#-----------------------------------------------------
sndAero1 298 #by Jester
sndAero1AOAChart 1 0 1.00
sndAero1SpeedChart 2 0.0 0.00 1.0 1.00
#
sndAero2 299 #by Jester
sndAero2AOAChart 3 0 0.00 5 0.75 6 1.00
sndAero2SpeedChart 2 0.0 0.00 0.8 1.00
#
sndAero3 300
sndAero3SpeedChart 2 0.0 0.00 0.9 1.00
#
sndAero4 0
#-----------------------------------------------------
# AI behaviour
#-----------------------------------------------------
rollLimitForAiInWP 60
followRate 60
BingoReturnDistance 50
jokerFactor 3.3
bingoFactor 3.3
fumesFactor 16.3
largePark 0
minTakeoffRunwayLengthClean -1 #Added Falcas
minTakeoffRunwayLengthMTOW -1 #Added Falcas
optTakeoffPitch 12.0 #Falcas 07/07/2013
gearRetractAlt 20 #Falcas 07/07/2013
maxClimbPitch 15.0 #Added DeeJay
optClimbSpeed 320 #Added DeeJay
optClimbMach 0.80 #Added DeeJay
minClimbRate 3000 #Falcas 08/12/2014
descentPath -1.0 #Added Falcas
landingAOA 12.5
aiLandingOffset -600 #Added Falcas
MinTGTMAR 4
MaxMARIdedStart 20
AddMARIded5k 0
AddMARIded18k 2
AddMARIded28k 4
AddMARIdedSpike 1
MaxWEZtaStart 5
IsShortBurnThreat 0
IsLongBurnThreat 1
#-----------------------------------------------------
# Missions
#-----------------------------------------------------
misTypeCapability 41 100 100 100 100 100 100 100 100 100 100 100 100 100 100 100 100 100 100 100 100 100 100 100 100 100 100 100 100 100 100 100 100 100 100 100 100 100 100 100 100 100
#-----------------------------------------------------
# TFR
#-----------------------------------------------------
Has_TFR 0
Has_OnboardTFR 0
PID_K 0.5
PID_KI 0.0
PID_KD 0.4
TFR_LimitMX 0.0
TFR_Corner 420
TFR_Gain 0.010
EVA_Gain 15.0 #10-12-2014
TFR_MaxRoll 60
TFR_SoftG 2.0
TFR_MedG 2.0
TFR_HardG 2.0
TFR_Clearance 20
SlowPercent 0
TFR_lookAhead 7000 #10-12-2014
EVA1_SoftFactor 0.8
EVA2_SoftFactor 0.5
EVA1_MedFactor 0.8
EVA2_MedFactor 0.5
EVA1_HardFactor 0.8
EVA2_HardFactor 0.5
TFR_GammaCorrMult 1.5 #10-12-2014
#-----------------------------------------------------
# TGP
#-----------------------------------------------------
Has_TGP 0 #Falcas, Needs to be removed from file later on.
Has_OnboardTGP 0 #Falcas, Needs to be removed from file later on.
#Switch: 0 - No TGP, 1 - Internal TGP, 2 - External on AC, 3 - External on HP
TGP_Type 0 #Added Falcas 14/06/2014
TGP_PodWeight 440.0
TGP_PodDrag 6.0
#Switch: 0 - none, 1 - left, 2 - right
TGP_PodPowerSwitch 2
TGP_PodPosX 10.02
TGP_PodPosY 1.90
TGP_PodPosZ 2.70
#-----------------------------------------------------
# HTS
#-----------------------------------------------------
Has_HTS 0
Has_OnboardHTS 0
HTS_PodWeight 85.0
HTS_PodDrag 4.0
#Switch: 0 - none, 1 - left, 2 - right
HTS_PodPowerSwitch 1
HTS_PodPosX 11.28
HTS_PodPosY -1.84
HTS_PodPosZ 2.84
#-----------------------------------------------------
# Lantirn
#-----------------------------------------------------
Has_LANTIRN 0
Has_OnboardLANTIRN 0
LANTIRN_PodWeight 0.0
LANTIRN_PodDrag 0.0
#Switch: 0 - none, 1 - left, 2 - right
LANTIRN_PodPowerSwitch 1
LANTIRN_PodPosX 0.00
LANTIRN_PodPosY 0.00
LANTIRN_PodPosZ 0.00
LantirnCameraX 10.00
LantirnCameraY -2.00
LantirnCameraZ 5.00
#-----------------------------------------------------
# Gun
#-----------------------------------------------------
gunLocation 11.21 -2.50 -0.75
gunTrailID 11
GunEffect 5900
gunPitch 0.00
gunYaw 0.00
canDoGunStrafe 0
#-----------------------------------------------------
# Weapons
#-----------------------------------------------------
A2GHarmAlt 20000
A2GAGMAlt 8000
A2GGBUAlt 20000
A2GDumbHDAlt 1500
A2GClusterAlt 14000
A2GDumbLDAlt 16000
A2GGunRocketAlt 3500
A2GCameraAlt 12000
A2GBombMissileAlt 20000
A2GIAMBombAlt 20000
maxRippleCount 99
maxLoadoutDrag 41 -1 -1 -1 -1 -1 -1 -1 -1 -1 -1 -1 -1 -1 -1 -1 -1 -1 -1 -1 -1 -1 -1 -1 -1 -1 -1 -1 -1 -1 -1 -1 -1 -1 -1 -1 -1 -1 -1 -1 -1 -1
maxLoadoutWeight 41 100 100 100 100 100 100 100 100 100 100 100 100 100 100 100 100 100 100 100 100 100 100 100 100 100 100 100 100 100 100 100 100 100 100 100 100 100 100 100 100 100
minNumFuelTanks 41 0 2 2 2 2 2 2 2 2 2 2 2 2 2 2 2 2 2 2 2 2 2 2 2 2 2 2 2 2 2 2 2 2 2 2 2 2 2 2 0 0
extTanksLoadOrder 1
loadRadarGuidedFirst 1 #Added Falcas
#-----------------------------------------------------
# Rockets
#-----------------------------------------------------
rktAltIsAgl 0
rktHighAlt 3000
rktPreferedAlt 2000
rktLowAlt 1000
rktEmergencyAlt 700
rktFireRange 10000
rktPopupRange -1
rktPopupAlt 0
#-----------------------------------------------------
# ARMs
#-----------------------------------------------------
maxNumARMs 0
#-----------------------------------------------------
# Camera View TopGun
#-----------------------------------------------------
TopGunCamera1 7   -4.72  -15.63   -4.40   +0.00  +45.00   +0.00  60.0 #Left wing looking towards cockpit. (Revientor)
TopGunCamera2 7  +19.38   -8.16   -3.77   -5.00 +135.00   +0.00  60.0 #Right of cockpit looking toward pilots. (Revientor)
TopGunCamera3 7  +19.00   +0.00   +3.08   -2.00 -180.00   +0.00  60.0 #Before air intake looking backwards to gear. (Revientor)
TopGunCamera4 7  +43.00   +0.00   -9.00  -16.00 +180.00   +0.00  47.0 #Placed near the gun (created by Revient0R), looking backward.
#-----------------------------------------------------
# Lights
#-----------------------------------------------------
Light1Position -4.90 15.00 -2.00
Light1Color 0.00 0.40 0.30
Light1Type 3
Light1Radius 25
Light1Attenuation 0.700

Light2Position -4.90 15.00 1.00
Light2Color 0.00 0.40 0.30
Light2Type 3
Light2Radius 25
Light2Attenuation 0.700

Light3Position 12.40 2.70 1.30
Light3Color 0.00 0.40 0.30
Light3Type 3
Light3Radius 25
Light3Attenuation 0.700

Light4Position -4.90 -15.00 -2.00
Light4Color 0.40 0.00 0.00
Light4Type 3
Light4Radius 25
Light4Attenuation 0.700

Light5Position -4.90 -15.00 1.00
Light5Color 0.40 0.00 0.00
Light5Type 3
Light5Radius 25
Light5Attenuation 0.700

Light6Position 12.40 -2.70 1.30
Light6Color 0.40 0.00 0.00
Light6Type 3
Light6Radius 25
Light6Attenuation 0.700

Light7Position -18.00 -1.50 -11.24
Light7Color 0.20 0.20 0.50
Light7Type 1
Light7Radius 28
Light7Attenuation 0.100

Light8Position -18.00 1.50 -11.24
Light8Color 0.20 0.20 0.50
Light8Type 1
Light8Radius 28
Light8Attenuation 0.100

Light9Position -18.35 0.00 -0.45 # AfterBurner 1
Light9Color 0.80 0.65 0.40
Light9Type 10
Light9Radius 95
Light9Attenuation 0.060

Light10Position -21.35 0.00 -0.45 # AfterBurner 2
Light10Color 0.80 0.65 0.40
Light10Type 10
Light10Radius 95
Light10Attenuation 0.100

Light11Position -24.35 0.00 -0.45 # AfterBurner 3
Light11Color 0.80 0.65 0.40
Light11Type 10
Light11Radius 95
Light11Attenuation 0.200

animStrobeOnTime 0.120
animStrobeOffTime 1.000
animWingFlashOnTime 0.400
animWingFlashOffTime 0.250
numFormationLightLevels 0
#-----------------------------------------------------
# Spot Lights
#-----------------------------------------------------
SpotLight1Color 0.25 0.25 0.24 # color of the light
SpotLight1Position 11.54 0.58 3.73 # the light's position
SpotLight1LookAt 12.34 0.58 4.23 # position in model space at which the light should point
SpotLight1Attenuation 0.00010 # attenuation of the light
SpotLight1InnerConeDeg 30.000 # inner cone angle in degrees
SpotLight1OuterConeDeg 45.000 # outer cone angle in degrees
#-----------------------------------------------------
# Additionals that are not included in FMM.
#-----------------------------------------------------

#
# End of Additional
#
END OF DATA