# Title: F-4E Phantom
# Author: BMS
# Revision: Flight Model Manager ver:1.7.1.15 Date: 5/30/2015 11:40:43
#-----------------------------------------------------
# Comments
#-----------------------------------------------------
#MODIF MAV-JP / STORE LIMITER / TO BE USED WITH ASSOCIATED WCD
#MODIF Falcas ThetaMax / HasOldLandingLight / Wake
#MODIF Falcas 06/13/2013
#MODIF TOPOLO as F-4E Blk41 (without leading edge slats) with J-79-GE-17
#Flat limitor fix 2014-09-03
#
#-----------------------------------------------------
# SIMULATION INPUT PANEL
#-----------------------------------------------------
#
#-----------------------------------------------------
# INPUT MASS AND GEOMETRIC PROPERTIES
#-----------------------------------------------------
         +32300.000000  # Empty Weight (lbs)
           +530.000000  # Reference Area
         +12428.000000  # Internal Fuel
#-----------------------------------------------------
# ANGLE OF ATTACK AND SIDESLIP LIMITS
#-----------------------------------------------------
            +24.000000  # AOA Max
            -10.000000  # AOA Min
            +15.000000  # Beta Max
            -15.000000  # Beta Min
             +8.000000  # Max G
           +190.000000  # Max Roll
           +250.000000  # Min Vcas
           +900.000000  # Max Vcas
           +450.000000  # Corner Vcas
            +13.500000  # Theta Max
             +3.000000  # Num Gear
#
#Gear    xPos [ft]          yPos [ft]         zPos [ft]         Extent [deg]
         +12.50         +0.00         +7.90         +100.00
         +36.40         -8.05         +7.90         +100.00
         +36.40         +8.05         +7.90         +100.00
#-----------------------------------------------------
# Physical data
#-----------------------------------------------------
            +30.400000  # CG Loc
            +60.000000  # Length
            +38.500000  # Span
             +3.000000  # Fus Radius
             +9.500000  # Tail Ht
#
# End of Airframe data
#
#
#     BASIC AERODYNAMIC COEFFICIENTS
#
# AERODATA OPTIONS MUST BE LISTED HERE
aeropt AdvancedTEF
aeropt LefIncludedinCL
#
#-----------------------------------------------------
#     MACH BREAKPOINTS
#-----------------------------------------------------
+23.000000  # Num MACH
#
  +0.000000  +0.200000  +0.300000  +0.400000  +0.500000  +0.600000  +0.700000  +0.800000  +0.850000  +0.900000
  +1.000000  +1.050000  +1.100000  +1.200000  +1.300000  +1.400000  +1.500000  +1.600000  +1.700000  +1.800000
  +1.900000  +2.000000  +2.500000
#-----------------------------------------------------
#     ALPHA BREAKPOINTS
#-----------------------------------------------------
+44.000000  # Num Alpha
#
  -8.000000  -7.000000  -6.000000  -5.000000  -4.000000  -3.000000  -2.000000  -1.000000  +0.000000  +1.000000
  +2.000000  +3.000000  +4.000000  +5.000000  +6.000000  +7.000000  +8.000000  +9.000000 +10.000000 +11.000000
 +12.000000 +13.000000 +14.000000 +15.000000 +16.000000 +17.000000 +18.000000 +19.000000 +20.000000 +21.000000
 +22.000000 +23.000000 +24.000000 +25.000000 +26.000000 +27.000000 +28.000000 +29.000000 +30.000000 +32.000000
 +34.000000 +36.000000 +38.000000 +40.000000
#-----------------------------------------------------
#     LIFT COEFFICIENT  CL
#-----------------------------------------------------
+1.000000   # Table Multiplier
#
# Mach: 0
  -0.129700  -0.077800  -0.025900  +0.025900  +0.077800  +0.129700  +0.181600  +0.233500  +0.285400  +0.337300
  +0.389200  +0.441000  +0.492900  +0.544800  +0.584500  +0.622900  +0.661200  +0.699600  +0.738000  +0.776300
  +0.814700  +0.853000  +0.885500  +0.897900  +0.910300  +0.922800  +0.935200  +0.947600  +0.960000  +0.972400
  +0.984900  +0.997300  +1.000000  +1.000000  +1.000000  +1.000000  +1.000000  +1.000000  +1.000000  +1.000000
  +1.000000  +1.000000  +1.000000  +1.000000
#
# Mach: 0.2
  -0.129700  -0.077800  -0.025900  +0.025900  +0.077800  +0.129700  +0.181600  +0.233500  +0.285400  +0.337300
  +0.389200  +0.441000  +0.492900  +0.544800  +0.584500  +0.622900  +0.661200  +0.699600  +0.738000  +0.776300
  +0.814700  +0.853000  +0.885500  +0.897900  +0.910300  +0.922800  +0.935200  +0.947600  +0.960000  +0.972400
  +0.984900  +0.997300  +1.000000  +1.000000  +1.000000  +1.000000  +1.000000  +1.000000  +1.000000  +1.000000
  +1.000000  +1.000000  +1.000000  +1.000000
#
# Mach: 0.3
  -0.129700  -0.077800  -0.025900  +0.025900  +0.077800  +0.129700  +0.181600  +0.233500  +0.285400  +0.337300
  +0.389200  +0.441000  +0.492900  +0.544800  +0.584500  +0.622900  +0.661200  +0.699600  +0.738000  +0.776300
  +0.814700  +0.853000  +0.885500  +0.897900  +0.910300  +0.922800  +0.935200  +0.947600  +0.960000  +0.972400
  +0.984900  +0.997300  +1.000000  +1.000000  +1.000000  +1.000000  +1.000000  +1.000000  +1.000000  +1.000000
  +1.000000  +1.000000  +1.000000  +1.000000
#
# Mach: 0.4
  -0.129700  -0.077800  -0.025900  +0.025900  +0.077800  +0.129700  +0.181600  +0.233500  +0.285400  +0.337300
  +0.389200  +0.441000  +0.492900  +0.544800  +0.584500  +0.622900  +0.661200  +0.699600  +0.738000  +0.776300
  +0.814700  +0.853000  +0.885500  +0.897900  +0.910300  +0.922800  +0.935200  +0.947600  +0.960000  +0.972400
  +0.984900  +0.997300  +1.000000  +1.000000  +1.000000  +1.000000  +1.000000  +1.000000  +1.000000  +1.000000
  +1.000000  +1.000000  +1.000000  +1.000000
#
# Mach: 0.5
  -0.129700  -0.077800  -0.025900  +0.025900  +0.077800  +0.129700  +0.181600  +0.233500  +0.285400  +0.337300
  +0.389200  +0.441000  +0.492900  +0.544800  +0.584500  +0.622900  +0.661200  +0.699600  +0.738000  +0.776300
  +0.814700  +0.853000  +0.885500  +0.897900  +0.910300  +0.922800  +0.935200  +0.947600  +0.960000  +0.972400
  +0.984900  +0.997300  +1.000000  +1.000000  +1.000000  +1.000000  +1.000000  +1.000000  +1.000000  +1.000000
  +1.000000  +1.000000  +1.000000  +1.000000
#
# Mach: 0.6
  -0.129700  -0.077800  -0.025900  +0.025900  +0.077800  +0.129700  +0.181600  +0.233500  +0.285400  +0.337300
  +0.389200  +0.441000  +0.492900  +0.544800  +0.584500  +0.622900  +0.661200  +0.699600  +0.738000  +0.776300
  +0.814700  +0.853000  +0.885500  +0.897900  +0.910300  +0.922800  +0.935200  +0.947600  +0.960000  +0.972400
  +0.984900  +0.997300  +1.000000  +1.000000  +1.000000  +1.000000  +1.000000  +1.000000  +1.000000  +1.000000
  +1.000000  +1.000000  +1.000000  +1.000000
#
# Mach: 0.7
  -0.129700  -0.077800  -0.025900  +0.025900  +0.077800  +0.129700  +0.181600  +0.233500  +0.285400  +0.337300
  +0.389200  +0.441000  +0.492900  +0.544800  +0.584500  +0.622900  +0.661200  +0.699600  +0.738000  +0.776300
  +0.814700  +0.853000  +0.885500  +0.897900  +0.910300  +0.922800  +0.935200  +0.947600  +0.960000  +0.972400
  +0.984900  +0.997300  +1.000000  +1.000000  +1.000000  +1.000000  +1.000000  +1.000000  +1.000000  +1.000000
  +1.000000  +1.000000  +1.000000  +1.000000
#
# Mach: 0.8
  -0.129700  -0.077800  -0.025900  +0.025900  +0.077800  +0.129700  +0.181600  +0.233500  +0.285400  +0.337300
  +0.389200  +0.441000  +0.492900  +0.544800  +0.584500  +0.622900  +0.661200  +0.699600  +0.738000  +0.776300
  +0.814700  +0.853000  +0.885500  +0.897900  +0.910300  +0.922800  +0.935200  +0.947600  +0.960000  +0.972400
  +0.984900  +0.997300  +1.000000  +1.000000  +1.000000  +1.000000  +1.000000  +1.000000  +1.000000  +1.000000
  +1.000000  +1.000000  +1.000000  +1.000000
#
# Mach: 0.85
  -0.134700  -0.080800  -0.026900  +0.026900  +0.080800  +0.134700  +0.188600  +0.242500  +0.296300  +0.350200
  +0.404100  +0.458000  +0.511900  +0.565800  +0.610800  +0.648500  +0.686300  +0.724100  +0.761900  +0.799600
  +0.837400  +0.864300  +0.875100  +0.886000  +0.896800  +0.907600  +0.918500  +0.929300  +0.940100  +0.951000
  +0.961800  +0.972600  +0.975000  +0.975000  +0.975000  +0.975000  +0.975000  +0.975000  +0.975000  +0.975000
  +0.975000  +0.975000  +0.975000  +0.975000
#
# Mach: 0.9
  -0.139400  -0.083600  -0.027900  +0.027900  +0.083600  +0.139400  +0.195100  +0.250900  +0.306600  +0.362400
  +0.418100  +0.473900  +0.529600  +0.585400  +0.637400  +0.674500  +0.711500  +0.748600  +0.785700  +0.822700
  +0.846900  +0.856100  +0.865300  +0.874500  +0.883700  +0.892900  +0.902100  +0.911200  +0.920400  +0.929600
  +0.938800  +0.948000  +0.950000  +0.950000  +0.950000  +0.950000  +0.950000  +0.950000  +0.950000  +0.950000
  +0.950000  +0.950000  +0.950000  +0.950000
#
# Mach: 1
  -0.174400  -0.116300  -0.058100  +0.000000  +0.058100  +0.116300  +0.174400  +0.232500  +0.290600  +0.348800
  +0.406900  +0.465000  +0.523200  +0.581300  +0.623800  +0.663500  +0.703200  +0.742900  +0.782600  +0.822300
  +0.855500  +0.866100  +0.876800  +0.887400  +0.898100  +0.908700  +0.919400  +0.930000  +0.940700  +0.951400
  +0.962000  +0.972700  +0.975000  +0.975000  +0.975000  +0.975000  +0.975000  +0.975000  +0.975000  +0.975000
  +0.975000  +0.975000  +0.975000  +0.975000
#
# Mach: 1.05
  -0.213900  -0.152800  -0.091700  -0.030600  +0.030600  +0.091700  +0.152800  +0.213900  +0.275000  +0.336100
  +0.397200  +0.458300  +0.519400  +0.571300  +0.613900  +0.656400  +0.699000  +0.741600  +0.784200  +0.826700
  +0.865100  +0.877200  +0.889200  +0.901200  +0.913200  +0.925200  +0.937300  +0.949300  +0.961300  +0.973300
  +0.985300  +0.997400  +1.000000  +1.000000  +1.000000  +1.000000  +1.000000  +1.000000  +1.000000  +1.000000
  +1.000000  +1.000000  +1.000000  +1.000000
#
# Mach: 1.1
  -0.236600  -0.181600  -0.126600  -0.071500  -0.016500  +0.038500  +0.093600  +0.148600  +0.203600  +0.258600
  +0.313700  +0.368700  +0.423700  +0.478800  +0.533800  +0.588800  +0.643800  +0.698900  +0.753900  +0.808900
  +0.864000  +0.919000  +0.956000  +0.988500  +0.994000  +0.999000  +1.004000  +1.008900  +1.013900  +1.018900
  +1.023900  +1.028900  +1.030000  +1.030000  +1.030000  +1.030000  +1.030000  +1.030000  +1.030000  +1.030000
  +1.030000  +1.030000  +1.030000  +1.030000
#
# Mach: 1.2
  -0.236600  -0.181600  -0.126600  -0.071500  -0.016500  +0.038500  +0.093600  +0.148600  +0.203600  +0.258600
  +0.313700  +0.368700  +0.423700  +0.478800  +0.533800  +0.588800  +0.643800  +0.698900  +0.753900  +0.808900
  +0.864000  +0.919000  +0.956000  +0.988500  +0.994000  +0.999000  +1.004000  +1.008900  +1.013900  +1.018900
  +1.023900  +1.028900  +1.030000  +1.030000  +1.030000  +1.030000  +1.030000  +1.030000  +1.030000  +1.030000
  +1.030000  +1.030000  +1.030000  +1.030000
#
# Mach: 1.3
  -0.285200  -0.233300  -0.181500  -0.129600  -0.077800  -0.025900  +0.025900  +0.077800  +0.129600  +0.181500
  +0.233300  +0.285200  +0.337000  +0.388900  +0.440700  +0.492600  +0.544400  +0.596300  +0.648100  +0.700000
  +0.738200  +0.776400  +0.814600  +0.852800  +0.891000  +0.923600  +0.935900  +0.948200  +0.960500  +0.972700
  +0.985000  +0.997300  +1.000000  +1.000000  +1.000000  +1.000000  +1.000000  +1.000000  +1.000000  +1.000000
  +1.000000  +1.000000  +1.000000  +1.000000
#
# Mach: 1.4
  -0.186700  -0.140000  -0.093300  -0.046700  +0.000000  +0.046700  +0.093300  +0.140000  +0.186700  +0.233300
  +0.280000  +0.326700  +0.373300  +0.420000  +0.466700  +0.513300  +0.560000  +0.606700  +0.653300  +0.700000
  +0.735600  +0.771200  +0.806800  +0.842400  +0.878000  +0.913600  +0.935900  +0.948200  +0.960500  +0.972700
  +0.985000  +0.997300  +1.000000  +1.000000  +1.000000  +1.000000  +1.000000  +1.000000  +1.000000  +1.000000
  +1.000000  +1.000000  +1.000000  +1.000000
#
# Mach: 1.5
  -0.121900  -0.081300  -0.040600  +0.000000  +0.040600  +0.081300  +0.121900  +0.162500  +0.203100  +0.243800
  +0.284400  +0.325000  +0.365600  +0.406300  +0.446900  +0.487500  +0.528100  +0.568800  +0.609400  +0.650000
  +0.684600  +0.719300  +0.753900  +0.788500  +0.823200  +0.857800  +0.892400  +0.927100  +0.953900  +0.968200
  +0.982500  +0.996800  +1.000000  +1.000000  +1.000000  +1.000000  +1.000000  +1.000000  +1.000000  +1.000000
  +1.000000  +1.000000  +1.000000  +1.000000
#
# Mach: 1.6
  -0.131700  -0.091300  -0.050900  -0.010500  +0.029900  +0.070300  +0.110700  +0.151100  +0.191500  +0.231900
  +0.272300  +0.312700  +0.353200  +0.393600  +0.434000  +0.474400  +0.514800  +0.555200  +0.595600  +0.636000
  +0.671100  +0.706200  +0.741300  +0.776400  +0.811500  +0.846600  +0.881700  +0.916800  +0.951900  +0.966900
  +0.981800  +0.996700  +1.000000  +1.000000  +1.000000  +1.000000  +1.000000  +1.000000  +1.000000  +1.000000
  +1.000000  +1.000000  +1.000000  +1.000000
#
# Mach: 1.7
  -0.141400  -0.101300  -0.061100  -0.020900  +0.019300  +0.059500  +0.099600  +0.139800  +0.180000  +0.220200
  +0.260400  +0.300600  +0.340700  +0.380900  +0.421100  +0.461300  +0.501500  +0.541600  +0.581800  +0.622000
  +0.657600  +0.693100  +0.728700  +0.764200  +0.799800  +0.835300  +0.870900  +0.906500  +0.942000  +0.965700
  +0.981100  +0.996600  +1.000000  +1.000000  +1.000000  +1.000000  +1.000000  +1.000000  +1.000000  +1.000000
  +1.000000  +1.000000  +1.000000  +1.000000
#
# Mach: 1.8
  -0.151000  -0.111100  -0.071100  -0.031200  +0.008800  +0.048700  +0.088700  +0.128600  +0.168600  +0.208500
  +0.248500  +0.288400  +0.328400  +0.368300  +0.408300  +0.448200  +0.488200  +0.528100  +0.568100  +0.608000
  +0.644000  +0.680000  +0.716000  +0.752100  +0.788100  +0.824100  +0.860100  +0.896100  +0.932100  +0.964400
  +0.980400  +0.996500  +1.000000  +1.000000  +1.000000  +1.000000  +1.000000  +1.000000  +1.000000  +1.000000
  +1.000000  +1.000000  +1.000000  +1.000000
#
# Mach: 1.9
  -0.160400  -0.120700  -0.081000  -0.041300  -0.001600  +0.038100  +0.077800  +0.117500  +0.157200  +0.196900
  +0.236600  +0.276400  +0.316100  +0.355800  +0.395500  +0.435200  +0.474900  +0.514600  +0.554300  +0.594000
  +0.630500  +0.666900  +0.703400  +0.739900  +0.776300  +0.812800  +0.849300  +0.885700  +0.922200  +0.958700
  +0.979700  +0.996300  +1.000000  +1.000000  +1.000000  +1.000000  +1.000000  +1.000000  +1.000000  +1.000000
  +1.000000  +1.000000  +1.000000  +1.000000
#
# Mach: 2
  -0.169700  -0.130200  -0.090700  -0.051300  -0.011800  +0.027600  +0.067100  +0.106500  +0.146000  +0.185400
  +0.224900  +0.264400  +0.303800  +0.343300  +0.382700  +0.422200  +0.461600  +0.501100  +0.540500  +0.580000
  +0.616900  +0.653800  +0.690700  +0.727700  +0.764600  +0.801500  +0.838400  +0.875300  +0.912200  +0.949100
  +0.979000  +0.996200  +1.000000  +1.000000  +1.000000  +1.000000  +1.000000  +1.000000  +1.000000  +1.000000
  +1.000000  +1.000000  +1.000000  +1.000000
#
# Mach: 2.5
  -0.169700  -0.130200  -0.090700  -0.051300  -0.011800  +0.027600  +0.067100  +0.106500  +0.146000  +0.185400
  +0.224900  +0.264400  +0.303800  +0.343300  +0.382700  +0.422200  +0.461600  +0.501100  +0.540500  +0.580000
  +0.616900  +0.653800  +0.690700  +0.727700  +0.764600  +0.801500  +0.838400  +0.875300  +0.912200  +0.949100
  +0.979000  +0.996200  +1.000000  +1.000000  +1.000000  +1.000000  +1.000000  +1.000000  +1.000000  +1.000000
  +1.000000  +1.000000  +1.000000  +1.000000
#
#-----------------------------------------------------
#     DRAG COEFFICIENT  CD
#-----------------------------------------------------
+0.666660   # Table Multiplier
#
# Mach: 0
  +0.021300  +0.019300  +0.018200  +0.018200  +0.019300  +0.021300  +0.024400  +0.029600  +0.040900  +0.058600
  +0.082700  +0.113200  +0.150100  +0.193400  +0.230900  +0.270600  +0.313900  +0.360700  +0.411000  +0.466100
  +0.537000  +0.626100  +0.715800  +0.753500  +0.793200  +0.834700  +0.878200  +0.923600  +0.970900  +1.020100
  +1.071200  +1.124200  +1.136100  +1.136100  +1.136100  +1.136100  +1.136100  +1.136100  +1.136100  +1.136100
  +1.136100  +1.136100  +1.136100  +1.136100
#
# Mach: 0.2
  +0.021300  +0.019300  +0.018200  +0.018200  +0.019300  +0.021300  +0.024400  +0.029600  +0.040900  +0.058600
  +0.082700  +0.113200  +0.150100  +0.193400  +0.230900  +0.270600  +0.313900  +0.360700  +0.411000  +0.466100
  +0.537000  +0.626100  +0.715800  +0.753500  +0.793200  +0.834700  +0.878200  +0.923600  +0.970900  +1.020100
  +1.071200  +1.124200  +1.136100  +1.136100  +1.136100  +1.136100  +1.136100  +1.136100  +1.136100  +1.136100
  +1.136100  +1.136100  +1.136100  +1.136100
#
# Mach: 0.3
  +0.021300  +0.019300  +0.018200  +0.018200  +0.019300  +0.021300  +0.024400  +0.029600  +0.040900  +0.058600
  +0.082700  +0.113200  +0.150100  +0.193400  +0.230900  +0.270600  +0.313900  +0.360700  +0.411000  +0.466100
  +0.537000  +0.626100  +0.715800  +0.753500  +0.793200  +0.834700  +0.878200  +0.923600  +0.970900  +1.020100
  +1.071200  +1.124200  +1.136100  +1.136100  +1.136100  +1.136100  +1.136100  +1.136100  +1.136100  +1.136100
  +1.136100  +1.136100  +1.136100  +1.136100
#
# Mach: 0.4
  +0.021300  +0.019300  +0.018200  +0.018200  +0.019300  +0.021300  +0.024400  +0.028500  +0.033600  +0.039700
  +0.047400  +0.059500  +0.076100  +0.097400  +0.116800  +0.138100  +0.162000  +0.188400  +0.217300  +0.248700
  +0.282700  +0.319200  +0.352100  +0.365200  +0.378500  +0.392100  +0.405900  +0.420000  +0.434400  +0.449100
  +0.464000  +0.479200  +0.482500  +0.482500  +0.482500  +0.482500  +0.482500  +0.482500  +0.482500  +0.482500
  +0.482500  +0.482500  +0.482500  +0.482500
#
# Mach: 0.5
  +0.021300  +0.019300  +0.018200  +0.018200  +0.019300  +0.021300  +0.024400  +0.028500  +0.033600  +0.039700
  +0.046900  +0.055500  +0.067100  +0.081900  +0.095500  +0.110400  +0.127100  +0.145500  +0.165700  +0.189200
  +0.221000  +0.261300  +0.302000  +0.319200  +0.337300  +0.356300  +0.376200  +0.397000  +0.418700  +0.441300
  +0.464700  +0.489100  +0.494600  +0.494600  +0.494600  +0.494600  +0.494600  +0.494600  +0.494600  +0.494600
  +0.494600  +0.494600  +0.494600  +0.494600
#
# Mach: 0.6
  +0.021300  +0.019300  +0.018200  +0.018200  +0.019300  +0.021300  +0.024400  +0.028500  +0.033600  +0.039700
  +0.046900  +0.055500  +0.067100  +0.081900  +0.095500  +0.110400  +0.127100  +0.145500  +0.165700  +0.189200
  +0.221000  +0.261300  +0.302000  +0.319200  +0.337300  +0.356300  +0.376200  +0.397000  +0.418700  +0.441300
  +0.464700  +0.489100  +0.494600  +0.494600  +0.494600  +0.494600  +0.494600  +0.494600  +0.494600  +0.494600
  +0.494600  +0.494600  +0.494600  +0.494600
#
# Mach: 0.7
  +0.021300  +0.019300  +0.018200  +0.018200  +0.019300  +0.021300  +0.024400  +0.028500  +0.033600  +0.039700
  +0.046900  +0.055500  +0.067100  +0.081900  +0.095500  +0.110400  +0.127100  +0.145500  +0.165700  +0.189200
  +0.221000  +0.261300  +0.302000  +0.319200  +0.337300  +0.356300  +0.376200  +0.397000  +0.418700  +0.441300
  +0.464700  +0.489100  +0.494600  +0.494600  +0.494600  +0.494600  +0.494600  +0.494600  +0.494600  +0.494600
  +0.494600  +0.494600  +0.494600  +0.494600
#
# Mach: 0.8
  +0.021300  +0.019300  +0.018200  +0.018200  +0.019300  +0.021300  +0.024400  +0.028500  +0.033600  +0.039700
  +0.046900  +0.055500  +0.067700  +0.083600  +0.098200  +0.114500  +0.132700  +0.153000  +0.175400  +0.201300
  +0.235700  +0.278900  +0.322400  +0.340700  +0.359900  +0.380000  +0.401000  +0.423000  +0.445900  +0.469700
  +0.494500  +0.520100  +0.525900  +0.525900  +0.525900  +0.525900  +0.525900  +0.525900  +0.525900  +0.525900
  +0.525900  +0.525900  +0.525900  +0.525900
#
# Mach: 0.85
  +0.021500  +0.019300  +0.018200  +0.018200  +0.019300  +0.021500  +0.024900  +0.029300  +0.034800  +0.041400
  +0.049100  +0.059300  +0.073800  +0.092900  +0.112200  +0.130700  +0.151500  +0.174400  +0.199900  +0.232600
  +0.274000  +0.308700  +0.324000  +0.340000  +0.356700  +0.374100  +0.392300  +0.411200  +0.430700  +0.451100
  +0.472100  +0.493800  +0.498700  +0.498700  +0.498700  +0.498700  +0.498700  +0.498700  +0.498700  +0.498700
  +0.498700  +0.498700  +0.498700  +0.498700
#
# Mach: 0.9
  +0.029000  +0.026700  +0.025500  +0.025500  +0.026700  +0.029000  +0.032600  +0.037300  +0.043200  +0.050300
  +0.058600  +0.070700  +0.087900  +0.110400  +0.136200  +0.157200  +0.180600  +0.206300  +0.237300  +0.276800
  +0.307300  +0.319900  +0.332900  +0.346500  +0.360700  +0.375300  +0.390500  +0.406200  +0.422500  +0.439200
  +0.456500  +0.474400  +0.478400  +0.478400  +0.478400  +0.478400  +0.478400  +0.478400  +0.478400  +0.478400
  +0.478400  +0.478400  +0.478400  +0.478400
#
# Mach: 1
  +0.045700  +0.042500  +0.040500  +0.039900  +0.040500  +0.042500  +0.045700  +0.050200  +0.055900  +0.063000
  +0.071400  +0.083000  +0.100200  +0.123200  +0.143500  +0.165300  +0.189700  +0.216800  +0.249000  +0.290900
  +0.333500  +0.348700  +0.364600  +0.381100  +0.398400  +0.416400  +0.435200  +0.454600  +0.474700  +0.495600
  +0.517200  +0.539500  +0.544500  +0.544500  +0.544500  +0.544500  +0.544500  +0.544500  +0.544500  +0.544500
  +0.544500  +0.544500  +0.544500  +0.544500
#
# Mach: 1.05
  +0.052400  +0.048000  +0.045100  +0.043600  +0.043600  +0.045100  +0.048000  +0.052400  +0.058200  +0.065500
  +0.074200  +0.086300  +0.104600  +0.125100  +0.145300  +0.168600  +0.194900  +0.224300  +0.259500  +0.305900
  +0.357500  +0.375600  +0.394600  +0.414400  +0.435200  +0.456900  +0.479500  +0.503100  +0.527500  +0.552800
  +0.579100  +0.606200  +0.612300  +0.612300  +0.612300  +0.612300  +0.612300  +0.612300  +0.612300  +0.612300
  +0.612300  +0.612300  +0.612300  +0.612300
#
# Mach: 1.1
  +0.056800  +0.052200  +0.048800  +0.046600  +0.045700  +0.045900  +0.047400  +0.050000  +0.053900  +0.059000
  +0.065300  +0.072800  +0.081900  +0.095500  +0.114200  +0.138100  +0.167200  +0.201400  +0.240700  +0.293200
  +0.364700  +0.455300  +0.526900  +0.597000  +0.609400  +0.620900  +0.632600  +0.644400  +0.656400  +0.668600
  +0.680900  +0.693300  +0.696100  +0.696100  +0.696100  +0.696100  +0.696100  +0.696100  +0.696100  +0.696100
  +0.696100  +0.696100  +0.696100  +0.696100
#
# Mach: 1.2
  +0.058800  +0.053600  +0.049800  +0.047300  +0.046200  +0.046500  +0.048100  +0.051100  +0.055500  +0.061200
  +0.068300  +0.076700  +0.086900  +0.101800  +0.121900  +0.147300  +0.178100  +0.214100  +0.255500  +0.310100
  +0.383900  +0.476900  +0.550300  +0.622000  +0.634700  +0.646400  +0.658400  +0.670400  +0.682700  +0.695100
  +0.707600  +0.720300  +0.723200  +0.723200  +0.723200  +0.723200  +0.723200  +0.723200  +0.723200  +0.723200
  +0.723200  +0.723200  +0.723200  +0.723200
#
# Mach: 1.3
  +0.065100  +0.058700  +0.053500  +0.049600  +0.047100  +0.045800  +0.045800  +0.047100  +0.049600  +0.053500
  +0.058700  +0.065100  +0.072900  +0.081900  +0.093300  +0.109400  +0.130300  +0.156000  +0.186500  +0.221700
  +0.250700  +0.284000  +0.326200  +0.377700  +0.438600  +0.498000  +0.522000  +0.547100  +0.573100  +0.600100
  +0.628000  +0.656900  +0.663400  +0.663400  +0.663400  +0.663400  +0.663400  +0.663400  +0.663400  +0.663400
  +0.663400  +0.663400  +0.663400  +0.663400
#
# Mach: 1.4
  +0.053200  +0.049100  +0.046200  +0.044400  +0.043800  +0.044400  +0.046200  +0.049100  +0.053200  +0.058500
  +0.065000  +0.072600  +0.081400  +0.091700  +0.105500  +0.123300  +0.145100  +0.170900  +0.200800  +0.234600
  +0.263100  +0.295000  +0.334600  +0.382300  +0.438200  +0.502300  +0.546500  +0.572200  +0.599000  +0.626600
  +0.655300  +0.684900  +0.691600  +0.691600  +0.691600  +0.691600  +0.691600  +0.691600  +0.691600  +0.691600
  +0.691600  +0.691600  +0.691600  +0.691600
#
# Mach: 1.5
  +0.047300  +0.044800  +0.043400  +0.042900  +0.043400  +0.044800  +0.047300  +0.050700  +0.055100  +0.060400
  +0.066800  +0.074100  +0.082300  +0.091600  +0.103200  +0.118000  +0.135800  +0.156800  +0.180900  +0.208200
  +0.233800  +0.261800  +0.292000  +0.327900  +0.371500  +0.422900  +0.482100  +0.549100  +0.606300  +0.638800
  +0.672600  +0.707700  +0.715600  +0.715600  +0.715600  +0.715600  +0.715600  +0.715600  +0.715600  +0.715600
  +0.715600  +0.715600  +0.715600  +0.715600
#
# Mach: 1.6
  +0.048100  +0.045400  +0.043700  +0.042900  +0.043200  +0.044400  +0.046600  +0.049700  +0.053900  +0.059000
  +0.065100  +0.072200  +0.080300  +0.089400  +0.100100  +0.114000  +0.131000  +0.151000  +0.174200  +0.200400
  +0.225800  +0.253500  +0.283500  +0.317400  +0.359200  +0.409000  +0.466800  +0.532600  +0.606400  +0.640500
  +0.675700  +0.712400  +0.720600  +0.720600  +0.720600  +0.720600  +0.720600  +0.720600  +0.720600  +0.720600
  +0.720600  +0.720600  +0.720600  +0.720600
#
# Mach: 1.7
  +0.049300  +0.046200  +0.044100  +0.043000  +0.043000  +0.044000  +0.046100  +0.049100  +0.053200  +0.058300
  +0.064500  +0.071600  +0.079800  +0.089000  +0.099600  +0.113000  +0.129600  +0.149200  +0.172000  +0.198000
  +0.223500  +0.251500  +0.282000  +0.315300  +0.355900  +0.404700  +0.461800  +0.527200  +0.600800  +0.654400
  +0.691400  +0.730000  +0.738600  +0.738600  +0.738600  +0.738600  +0.738600  +0.738600  +0.738600  +0.738600
  +0.738600  +0.738600  +0.738600  +0.738600
#
# Mach: 1.8
  +0.050200  +0.046800  +0.044500  +0.043200  +0.042900  +0.043700  +0.045400  +0.048200  +0.052000  +0.056800
  +0.062700  +0.069500  +0.077400  +0.086300  +0.096300  +0.108700  +0.124200  +0.142800  +0.164500  +0.189300
  +0.214300  +0.241800  +0.271900  +0.304500  +0.342900  +0.389700  +0.445100  +0.508900  +0.581300  +0.653300
  +0.691600  +0.731600  +0.740600  +0.740600  +0.740600  +0.740600  +0.740600  +0.740600  +0.740600  +0.740600
  +0.740600  +0.740600  +0.740600  +0.740600
#
# Mach: 1.9
  +0.051100  +0.047600  +0.045000  +0.043400  +0.042900  +0.043400  +0.044800  +0.047300  +0.050800  +0.055300
  +0.060800  +0.067300  +0.074900  +0.083400  +0.092900  +0.104300  +0.118700  +0.136200  +0.156700  +0.180300
  +0.204600  +0.231500  +0.261100  +0.293100  +0.329400  +0.374100  +0.427500  +0.489700  +0.560500  +0.640000
  +0.689900  +0.731300  +0.740600  +0.740600  +0.740600  +0.740600  +0.740600  +0.740600  +0.740600  +0.740600
  +0.740600  +0.740600  +0.740600  +0.740600
#
# Mach: 2
  +0.052100  +0.048300  +0.045500  +0.043700  +0.042900  +0.043100  +0.044300  +0.046500  +0.049700  +0.053900
  +0.059100  +0.065300  +0.072400  +0.080600  +0.089800  +0.100300  +0.113600  +0.129900  +0.149200  +0.171600
  +0.195300  +0.221600  +0.250500  +0.282100  +0.316800  +0.359300  +0.410700  +0.471000  +0.540200  +0.618400
  +0.688200  +0.731000  +0.740600  +0.740600  +0.740600  +0.740600  +0.740600  +0.740600  +0.740600  +0.740600
  +0.740600  +0.740600  +0.740600  +0.740600
#
# Mach: 2.5
  +0.052100  +0.048300  +0.045500  +0.043700  +0.042900  +0.043100  +0.044300  +0.046500  +0.049700  +0.053900
  +0.059100  +0.065300  +0.072400  +0.080600  +0.089800  +0.100300  +0.113600  +0.129900  +0.149200  +0.171600
  +0.195300  +0.221600  +0.250500  +0.282100  +0.316800  +0.359300  +0.410700  +0.471000  +0.540200  +0.618400
  +0.688200  +0.731000  +0.740600  +0.740600  +0.740600  +0.740600  +0.740600  +0.740600  +0.740600  +0.740600
  +0.740600  +0.740600  +0.740600  +0.740600
#
#-----------------------------------------------------
#     SIDE FORCE DERIVATIVE CY-BETA
#-----------------------------------------------------
+1.000000   # Table Multiplier
#
# Mach: 0
  -0.019800  -0.019400  -0.019500  -0.019500  -0.019600  -0.019500  -0.019500  -0.019400  -0.019300  -0.019400
  -0.019400  -0.019600  -0.019800  -0.019900  -0.020100  -0.020000  -0.020000  -0.019900  -0.019900  -0.019900
  -0.019800  -0.019800  -0.019700  -0.019700  -0.019600  -0.019700  -0.019800  -0.019800  -0.019900  -0.019900
  -0.020000  -0.020100  -0.020200  -0.021000  -0.021900  -0.022700  -0.023600  -0.024400  -0.025300  -0.026100
  -0.030300  -0.023600  -0.019600  +0.000000
#
# Mach: 0.2
  -0.019800  -0.019400  -0.019500  -0.019500  -0.019600  -0.019500  -0.019500  -0.019400  -0.019300  -0.019400
  -0.019400  -0.019600  -0.019800  -0.019900  -0.020100  -0.020000  -0.020000  -0.019900  -0.019900  -0.019900
  -0.019800  -0.019800  -0.019700  -0.019700  -0.019600  -0.019700  -0.019800  -0.019800  -0.019900  -0.019900
  -0.020000  -0.020100  -0.020200  -0.021000  -0.021900  -0.022700  -0.023600  -0.024400  -0.025300  -0.026100
  -0.030300  -0.023600  -0.019600  +0.000000
#
# Mach: 0.3
  -0.019800  -0.019400  -0.019500  -0.019500  -0.019600  -0.019500  -0.019500  -0.019400  -0.019300  -0.019400
  -0.019400  -0.019600  -0.019800  -0.019900  -0.020100  -0.020000  -0.020000  -0.019900  -0.019900  -0.019900
  -0.019800  -0.019800  -0.019700  -0.019700  -0.019600  -0.019700  -0.019800  -0.019800  -0.019900  -0.019900
  -0.020000  -0.020100  -0.020200  -0.021000  -0.021900  -0.022700  -0.023600  -0.024400  -0.025300  -0.026100
  -0.030300  -0.023600  -0.019600  +0.000000
#
# Mach: 0.4
  -0.021500  -0.021200  -0.021200  -0.021300  -0.021400  -0.021300  -0.021200  -0.021200  -0.021100  -0.021200
  -0.021200  -0.021400  -0.021500  -0.021700  -0.021900  -0.021800  -0.021800  -0.021700  -0.021700  -0.021700
  -0.021600  -0.021600  -0.021500  -0.021500  -0.021400  -0.021500  -0.021600  -0.021600  -0.021700  -0.021800
  -0.021800  -0.021900  -0.022000  -0.023000  -0.023900  -0.024800  -0.025700  -0.026600  -0.027600  -0.028500
  -0.033100  -0.025700  -0.021400  +0.000000
#
# Mach: 0.5
  -0.022800  -0.022400  -0.022500  -0.022500  -0.022600  -0.022500  -0.022500  -0.022400  -0.022300  -0.022400
  -0.022400  -0.022600  -0.022800  -0.023000  -0.023200  -0.023100  -0.023100  -0.023000  -0.023000  -0.022900
  -0.022900  -0.022800  -0.022800  -0.022700  -0.022700  -0.022700  -0.022800  -0.022900  -0.023000  -0.023000
  -0.023100  -0.023200  -0.023300  -0.024300  -0.025300  -0.026200  -0.027200  -0.028200  -0.029200  -0.030100
  -0.035000  -0.027200  -0.022700  +0.000000
#
# Mach: 0.6
  -0.024700  -0.024300  -0.024300  -0.024400  -0.024500  -0.024400  -0.024300  -0.024300  -0.024200  -0.024200
  -0.024300  -0.024500  -0.024700  -0.024900  -0.025100  -0.025000  -0.025000  -0.024900  -0.024900  -0.024800
  -0.024800  -0.024700  -0.024700  -0.024600  -0.024600  -0.024600  -0.024700  -0.024800  -0.024900  -0.024900
  -0.025000  -0.025100  -0.025300  -0.026300  -0.027400  -0.028400  -0.029500  -0.030500  -0.031600  -0.032600
  -0.037900  -0.029500  -0.024600  +0.000000
#
# Mach: 0.7
  -0.027700  -0.027200  -0.027300  -0.027300  -0.027400  -0.027300  -0.027300  -0.027200  -0.027100  -0.027200
  -0.027200  -0.027400  -0.027700  -0.027900  -0.028100  -0.028000  -0.028000  -0.027900  -0.027900  -0.027800
  -0.027700  -0.027700  -0.027600  -0.027600  -0.027500  -0.027600  -0.027700  -0.027800  -0.027800  -0.027900
  -0.028000  -0.028100  -0.028300  -0.029500  -0.030600  -0.031800  -0.033000  -0.034200  -0.035400  -0.036500
  -0.042400  -0.033000  -0.027500  +0.000000
#
# Mach: 0.8
  -0.035900  -0.035300  -0.035400  -0.035500  -0.035600  -0.035500  -0.035400  -0.035300  -0.035200  -0.035300
  -0.035400  -0.035600  -0.035900  -0.036200  -0.036500  -0.036400  -0.036300  -0.036200  -0.036200  -0.036100
  -0.036000  -0.035900  -0.035900  -0.035800  -0.035700  -0.035800  -0.035900  -0.036000  -0.036200  -0.036300
  -0.036400  -0.036600  -0.036700  -0.038300  -0.039800  -0.041300  -0.042900  -0.044400  -0.045900  -0.047400
  -0.055100  -0.042900  -0.035700  +0.000000
#
# Mach: 0.85
  -0.038000  -0.037300  -0.037500  -0.037600  -0.037700  -0.037600  -0.037500  -0.037300  -0.037200  -0.037300
  -0.037400  -0.037700  -0.038000  -0.038300  -0.038600  -0.038500  -0.038400  -0.038400  -0.038300  -0.038200
  -0.038100  -0.038000  -0.038000  -0.037900  -0.037800  -0.037900  -0.038000  -0.038100  -0.038300  -0.038400
  -0.038500  -0.038700  -0.038900  -0.040500  -0.042100  -0.043700  -0.045400  -0.047000  -0.048600  -0.050200
  -0.058300  -0.045400  -0.037800  +0.000000
#
# Mach: 0.9
  -0.034200  -0.033600  -0.033700  -0.033800  -0.033900  -0.033800  -0.033700  -0.033600  -0.033500  -0.033600
  -0.033700  -0.033900  -0.034200  -0.034500  -0.034700  -0.034700  -0.034600  -0.034500  -0.034500  -0.034400
  -0.034300  -0.034200  -0.034200  -0.034100  -0.034000  -0.034100  -0.034200  -0.034300  -0.034400  -0.034500
  -0.034600  -0.034800  -0.035000  -0.036400  -0.037900  -0.039400  -0.040800  -0.042300  -0.043700  -0.045200
  -0.052500  -0.040800  -0.034000  +0.000000
#
# Mach: 1
  -0.030400  -0.029900  -0.030000  -0.030100  -0.030100  -0.030100  -0.030000  -0.029900  -0.029800  -0.029900
  -0.029900  -0.030200  -0.030400  -0.030600  -0.030900  -0.030800  -0.030800  -0.030700  -0.030600  -0.030600
  -0.030500  -0.030400  -0.030400  -0.030300  -0.030200  -0.030300  -0.030400  -0.030500  -0.030600  -0.030700
  -0.030800  -0.030900  -0.031100  -0.032400  -0.033700  -0.035000  -0.036300  -0.037600  -0.038900  -0.040200
  -0.046600  -0.036300  -0.030200  +0.000000
#
# Mach: 1.05
  -0.027400  -0.026900  -0.027000  -0.027000  -0.027100  -0.027000  -0.027000  -0.026900  -0.026800  -0.026900
  -0.026900  -0.027200  -0.027400  -0.027600  -0.027800  -0.027700  -0.027700  -0.027600  -0.027600  -0.027500
  -0.027400  -0.027400  -0.027300  -0.027300  -0.027200  -0.027300  -0.027400  -0.027500  -0.027500  -0.027600
  -0.027700  -0.027900  -0.028000  -0.029200  -0.030300  -0.031500  -0.032700  -0.033800  -0.035000  -0.036200
  -0.042000  -0.032700  -0.027200  +0.000000
#
# Mach: 1.1
  -0.024300  -0.023900  -0.024000  -0.024000  -0.024100  -0.024000  -0.024000  -0.023900  -0.023800  -0.023900
  -0.023900  -0.024100  -0.024300  -0.024500  -0.024700  -0.024700  -0.024600  -0.024600  -0.024500  -0.024400
  -0.024400  -0.024300  -0.024300  -0.024200  -0.024200  -0.024300  -0.024300  -0.024400  -0.024500  -0.024600
  -0.024600  -0.024800  -0.024900  -0.025900  -0.027000  -0.028000  -0.029000  -0.030100  -0.031100  -0.032100
  -0.037300  -0.029000  -0.024200  +0.000000
#
# Mach: 1.2
  -0.020700  -0.020300  -0.020400  -0.020400  -0.020500  -0.020400  -0.020400  -0.020300  -0.020300  -0.020300
  -0.020400  -0.020500  -0.020700  -0.020800  -0.021000  -0.021000  -0.020900  -0.020900  -0.020800  -0.020800
  -0.020700  -0.020700  -0.020600  -0.020600  -0.020600  -0.020600  -0.020700  -0.020800  -0.020800  -0.020900
  -0.020900  -0.021000  -0.021100  -0.022000  -0.022900  -0.023800  -0.024700  -0.025600  -0.026400  -0.027300
  -0.031700  -0.024700  -0.020600  +0.000000
#
# Mach: 1.3
  -0.018600  -0.018300  -0.018300  -0.018400  -0.018400  -0.018400  -0.018300  -0.018300  -0.018200  -0.018300
  -0.018300  -0.018500  -0.018600  -0.018800  -0.018900  -0.018900  -0.018800  -0.018800  -0.018700  -0.018700
  -0.018700  -0.018600  -0.018600  -0.018500  -0.018500  -0.018600  -0.018600  -0.018700  -0.018700  -0.018800
  -0.018800  -0.018900  -0.019000  -0.019800  -0.020600  -0.021400  -0.022200  -0.023000  -0.023800  -0.024600
  -0.028500  -0.022200  -0.018500  +0.000000
#
# Mach: 1.4
  -0.017700  -0.017400  -0.017400  -0.017500  -0.017500  -0.017500  -0.017400  -0.017400  -0.017300  -0.017400
  -0.017400  -0.017500  -0.017700  -0.017800  -0.018000  -0.017900  -0.017900  -0.017800  -0.017800  -0.017800
  -0.017700  -0.017700  -0.017700  -0.017600  -0.017600  -0.017600  -0.017700  -0.017700  -0.017800  -0.017800
  -0.017900  -0.018000  -0.018100  -0.018800  -0.019600  -0.020300  -0.021100  -0.021800  -0.022600  -0.023400
  -0.027100  -0.021100  -0.017600  +0.000000
#
# Mach: 1.5
  -0.016800  -0.016500  -0.016500  -0.016600  -0.016700  -0.016600  -0.016500  -0.016500  -0.016400  -0.016500
  -0.016500  -0.016700  -0.016800  -0.016900  -0.017100  -0.017000  -0.017000  -0.017000  -0.016900  -0.016900
  -0.016800  -0.016800  -0.016800  -0.016700  -0.016700  -0.016800  -0.016800  -0.016900  -0.016900  -0.017000
  -0.017000  -0.017100  -0.017200  -0.017900  -0.018600  -0.019300  -0.020000  -0.020800  -0.021500  -0.022200
  -0.025800  -0.020000  -0.016700  +0.000000
#
# Mach: 1.6
  -0.016000  -0.015700  -0.015700  -0.015800  -0.015800  -0.015800  -0.015700  -0.015700  -0.015600  -0.015700
  -0.015700  -0.015800  -0.016000  -0.016100  -0.016200  -0.016200  -0.016100  -0.016100  -0.016100  -0.016000
  -0.016000  -0.016000  -0.015900  -0.015900  -0.015900  -0.015900  -0.016000  -0.016000  -0.016100  -0.016100
  -0.016200  -0.016200  -0.016300  -0.017000  -0.017700  -0.018400  -0.019000  -0.019700  -0.020400  -0.021100
  -0.024500  -0.019000  -0.015900  +0.000000
#
# Mach: 1.7
  -0.015200  -0.014900  -0.014900  -0.015000  -0.015000  -0.015000  -0.014900  -0.014900  -0.014800  -0.014900
  -0.014900  -0.015000  -0.015200  -0.015300  -0.015400  -0.015400  -0.015300  -0.015300  -0.015300  -0.015200
  -0.015200  -0.015200  -0.015100  -0.015100  -0.015100  -0.015100  -0.015200  -0.015200  -0.015300  -0.015300
  -0.015300  -0.015400  -0.015500  -0.016100  -0.016800  -0.017400  -0.018100  -0.018700  -0.019400  -0.020000
  -0.023300  -0.018100  -0.015100  +0.000000
#
# Mach: 1.8
  -0.014400  -0.014100  -0.014200  -0.014200  -0.014300  -0.014200  -0.014200  -0.014100  -0.014100  -0.014100
  -0.014200  -0.014300  -0.014400  -0.014500  -0.014600  -0.014600  -0.014600  -0.014500  -0.014500  -0.014500
  -0.014400  -0.014400  -0.014400  -0.014300  -0.014300  -0.014400  -0.014400  -0.014500  -0.014500  -0.014500
  -0.014600  -0.014700  -0.014700  -0.015300  -0.016000  -0.016600  -0.017200  -0.017800  -0.018400  -0.019000
  -0.022100  -0.017200  -0.014300  +0.000000
#
# Mach: 1.9
  -0.014000  -0.013800  -0.013800  -0.013900  -0.013900  -0.013900  -0.013800  -0.013800  -0.013800  -0.013800
  -0.013800  -0.013900  -0.014000  -0.014100  -0.014300  -0.014200  -0.014200  -0.014200  -0.014100  -0.014100
  -0.014100  -0.014100  -0.014000  -0.014000  -0.014000  -0.014000  -0.014000  -0.014100  -0.014100  -0.014200
  -0.014200  -0.014300  -0.014400  -0.015000  -0.015600  -0.016200  -0.016800  -0.017400  -0.017900  -0.018500
  -0.021500  -0.016800  -0.014000  +0.000000
#
# Mach: 2
  -0.013700  -0.013400  -0.013500  -0.013500  -0.013600  -0.013500  -0.013500  -0.013400  -0.013400  -0.013400
  -0.013500  -0.013600  -0.013700  -0.013800  -0.013900  -0.013900  -0.013800  -0.013800  -0.013800  -0.013700
  -0.013700  -0.013700  -0.013700  -0.013600  -0.013600  -0.013600  -0.013700  -0.013700  -0.013800  -0.013800
  -0.013900  -0.013900  -0.014000  -0.014600  -0.015200  -0.015700  -0.016300  -0.016900  -0.017500  -0.018100
  -0.021000  -0.016300  -0.013600  +0.000000
#
# Mach: 2.5
  -0.013700  -0.013400  -0.013500  -0.013500  -0.013600  -0.013500  -0.013500  -0.013400  -0.013400  -0.013400
  -0.013500  -0.013600  -0.013700  -0.013800  -0.013900  -0.013900  -0.013800  -0.013800  -0.013800  -0.013700
  -0.013700  -0.013700  -0.013700  -0.013600  -0.013600  -0.013600  -0.013700  -0.013700  -0.013800  -0.013800
  -0.013900  -0.013900  -0.014000  -0.014600  -0.015200  -0.015700  -0.016300  -0.016900  -0.017500  -0.018100
  -0.021000  -0.016300  -0.013600  +0.000000
#
#
# TEF PARAMETERS HERE
#
#-----------------------------------------------------
#     TEF MACH BREAKPOINTS
#-----------------------------------------------------
+23.000000  # Num MACH
#
  +0.000000  +0.200000  +0.300000  +0.400000  +0.500000  +0.600000  +0.700000  +0.800000  +0.850000  +0.900000
  +1.000000  +1.050000  +1.100000  +1.200000  +1.300000  +1.400000  +1.500000  +1.600000  +1.700000  +1.800000
  +1.900000  +2.000000  +2.500000
#-----------------------------------------------------
#     TEF ALPHA BREAKPOINTS
#-----------------------------------------------------
+44.000000  # Num Alpha
#
  -8.000000  -7.000000  -6.000000  -5.000000  -4.000000  -3.000000  -2.000000  -1.000000  +0.000000  +1.000000
  +2.000000  +3.000000  +4.000000  +5.000000  +6.000000  +7.000000  +8.000000  +9.000000 +10.000000 +11.000000
 +12.000000 +13.000000 +14.000000 +15.000000 +16.000000 +17.000000 +18.000000 +19.000000 +20.000000 +21.000000
 +22.000000 +23.000000 +24.000000 +25.000000 +26.000000 +27.000000 +28.000000 +29.000000 +30.000000 +32.000000
 +34.000000 +36.000000 +38.000000 +40.000000
#-----------------------------------------------------
#     LIFT TEF COEFFICIENT  CL TEF
#-----------------------------------------------------
#
# Mach: 0
  +0.155700  +0.155700  +0.155700  +0.155700  +0.155700  +0.155700  +0.155700  +0.155700  +0.155700  +0.155700
  +0.155700  +0.143500  +0.130000  +0.116400  +0.115100  +0.115100  +0.115100  +0.115100  +0.115100  +0.109200
  +0.083200  +0.057300  +0.037300  +0.037300  +0.037300  +0.037300  +0.037300  +0.037300  +0.037300  +0.024800
  -0.007600  -0.045000  -0.082700  -0.127700  -0.182700  -0.247700  -0.322700  -0.407700  -0.502700  -0.722700
  -0.982700  -1.282700  -1.622700  -2.002700
#
# Mach: 0.2
  +0.155700  +0.155700  +0.155700  +0.155700  +0.155700  +0.155700  +0.155700  +0.155700  +0.155700  +0.155700
  +0.155700  +0.143500  +0.130000  +0.116400  +0.115100  +0.115100  +0.115100  +0.115100  +0.115100  +0.109200
  +0.083200  +0.057300  +0.037300  +0.037300  +0.037300  +0.037300  +0.037300  +0.037300  +0.037300  +0.024800
  -0.007600  -0.045000  -0.082700  -0.127700  -0.182700  -0.247700  -0.322700  -0.407700  -0.502700  -0.722700
  -0.982700  -1.282700  -1.622700  -2.002700
#
# Mach: 0.3
  +0.155700  +0.155700  +0.155700  +0.155700  +0.155700  +0.155700  +0.155700  +0.155700  +0.155700  +0.155700
  +0.155700  +0.143500  +0.130000  +0.116400  +0.115100  +0.115100  +0.115100  +0.115100  +0.115100  +0.109200
  +0.083200  +0.057300  +0.037300  +0.037300  +0.037300  +0.037300  +0.037300  +0.037300  +0.037300  +0.024800
  -0.007600  -0.045000  -0.082700  -0.127700  -0.182700  -0.247700  -0.322700  -0.407700  -0.502700  -0.722700
  -0.982700  -1.282700  -1.622700  -2.002700
#
# Mach: 0.4
  +0.000000  +0.000000  +0.000000  +0.000000  +0.000000  +0.000000  +0.000000  +0.000000  +0.000000  +0.000000
  +0.000000  +0.000000  +0.000000  +0.000000  +0.000000  +0.000000  +0.000000  +0.000000  +0.000000  +0.000000
  +0.000000  +0.000000  +0.000000  +0.000000  +0.000000  +0.000000  +0.000000  +0.000000  +0.000000  +0.000000
  +0.000000  +0.000000  +0.000000  +0.000000  +0.000000  +0.000000  +0.000000  +0.000000  +0.000000  +0.000000
  +0.000000  +0.000000  +0.000000  +0.000000
#
# Mach: 0.5
  +0.000000  +0.000000  +0.000000  +0.000000  +0.000000  +0.000000  +0.000000  +0.000000  +0.000000  +0.000000
  +0.000000  +0.000000  +0.000000  +0.000000  +0.000000  +0.000000  +0.000000  +0.000000  +0.000000  +0.000000
  +0.000000  +0.000000  +0.000000  +0.000000  +0.000000  +0.000000  +0.000000  +0.000000  +0.000000  +0.000000
  +0.000000  +0.000000  +0.000000  +0.000000  +0.000000  +0.000000  +0.000000  +0.000000  +0.000000  +0.000000
  +0.000000  +0.000000  +0.000000  +0.000000
#
# Mach: 0.6
  +0.000000  +0.000000  +0.000000  +0.000000  +0.000000  +0.000000  +0.000000  +0.000000  +0.000000  +0.000000
  +0.000000  +0.000000  +0.000000  +0.000000  +0.000000  +0.000000  +0.000000  +0.000000  +0.000000  +0.000000
  +0.000000  +0.000000  +0.000000  +0.000000  +0.000000  +0.000000  +0.000000  +0.000000  +0.000000  +0.000000
  +0.000000  +0.000000  +0.000000  +0.000000  +0.000000  +0.000000  +0.000000  +0.000000  +0.000000  +0.000000
  +0.000000  +0.000000  +0.000000  +0.000000
#
# Mach: 0.7
  +0.000000  +0.000000  +0.000000  +0.000000  +0.000000  +0.000000  +0.000000  +0.000000  +0.000000  +0.000000
  +0.000000  +0.000000  +0.000000  +0.000000  +0.000000  +0.000000  +0.000000  +0.000000  +0.000000  +0.000000
  +0.000000  +0.000000  +0.000000  +0.000000  +0.000000  +0.000000  +0.000000  +0.000000  +0.000000  +0.000000
  +0.000000  +0.000000  +0.000000  +0.000000  +0.000000  +0.000000  +0.000000  +0.000000  +0.000000  +0.000000
  +0.000000  +0.000000  +0.000000  +0.000000
#
# Mach: 0.8
  +0.000000  +0.000000  +0.000000  +0.000000  +0.000000  +0.000000  +0.000000  +0.000000  +0.000000  +0.000000
  +0.000000  +0.000000  +0.000000  +0.000000  +0.000000  +0.000000  +0.000000  +0.000000  +0.000000  +0.000000
  +0.000000  +0.000000  +0.000000  +0.000000  +0.000000  +0.000000  +0.000000  +0.000000  +0.000000  +0.000000
  +0.000000  +0.000000  +0.000000  +0.000000  +0.000000  +0.000000  +0.000000  +0.000000  +0.000000  +0.000000
  +0.000000  +0.000000  +0.000000  +0.000000
#
# Mach: 0.85
  +0.000000  +0.000000  +0.000000  +0.000000  +0.000000  +0.000000  +0.000000  +0.000000  +0.000000  +0.000000
  +0.000000  +0.000000  +0.000000  +0.000000  +0.000000  +0.000000  +0.000000  +0.000000  +0.000000  +0.000000
  +0.000000  +0.000000  +0.000000  +0.000000  +0.000000  +0.000000  +0.000000  +0.000000  +0.000000  +0.000000
  +0.000000  +0.000000  +0.000000  +0.000000  +0.000000  +0.000000  +0.000000  +0.000000  +0.000000  +0.000000
  +0.000000  +0.000000  +0.000000  +0.000000
#
# Mach: 0.9
  +0.000000  +0.000000  +0.000000  +0.000000  +0.000000  +0.000000  +0.000000  +0.000000  +0.000000  +0.000000
  +0.000000  +0.000000  +0.000000  +0.000000  +0.000000  +0.000000  +0.000000  +0.000000  +0.000000  +0.000000
  +0.000000  +0.000000  +0.000000  +0.000000  +0.000000  +0.000000  +0.000000  +0.000000  +0.000000  +0.000000
  +0.000000  +0.000000  +0.000000  +0.000000  +0.000000  +0.000000  +0.000000  +0.000000  +0.000000  +0.000000
  +0.000000  +0.000000  +0.000000  +0.000000
#
# Mach: 1
  +0.000000  +0.000000  +0.000000  +0.000000  +0.000000  +0.000000  +0.000000  +0.000000  +0.000000  +0.000000
  +0.000000  +0.000000  +0.000000  +0.000000  +0.000000  +0.000000  +0.000000  +0.000000  +0.000000  +0.000000
  +0.000000  +0.000000  +0.000000  +0.000000  +0.000000  +0.000000  +0.000000  +0.000000  +0.000000  +0.000000
  +0.000000  +0.000000  +0.000000  +0.000000  +0.000000  +0.000000  +0.000000  +0.000000  +0.000000  +0.000000
  +0.000000  +0.000000  +0.000000  +0.000000
#
# Mach: 1.05
  +0.000000  +0.000000  +0.000000  +0.000000  +0.000000  +0.000000  +0.000000  +0.000000  +0.000000  +0.000000
  +0.000000  +0.000000  +0.000000  +0.000000  +0.000000  +0.000000  +0.000000  +0.000000  +0.000000  +0.000000
  +0.000000  +0.000000  +0.000000  +0.000000  +0.000000  +0.000000  +0.000000  +0.000000  +0.000000  +0.000000
  +0.000000  +0.000000  +0.000000  +0.000000  +0.000000  +0.000000  +0.000000  +0.000000  +0.000000  +0.000000
  +0.000000  +0.000000  +0.000000  +0.000000
#
# Mach: 1.1
  +0.000000  +0.000000  +0.000000  +0.000000  +0.000000  +0.000000  +0.000000  +0.000000  +0.000000  +0.000000
  +0.000000  +0.000000  +0.000000  +0.000000  +0.000000  +0.000000  +0.000000  +0.000000  +0.000000  +0.000000
  +0.000000  +0.000000  +0.000000  +0.000000  +0.000000  +0.000000  +0.000000  +0.000000  +0.000000  +0.000000
  +0.000000  +0.000000  +0.000000  +0.000000  +0.000000  +0.000000  +0.000000  +0.000000  +0.000000  +0.000000
  +0.000000  +0.000000  +0.000000  +0.000000
#
# Mach: 1.2
  +0.000000  +0.000000  +0.000000  +0.000000  +0.000000  +0.000000  +0.000000  +0.000000  +0.000000  +0.000000
  +0.000000  +0.000000  +0.000000  +0.000000  +0.000000  +0.000000  +0.000000  +0.000000  +0.000000  +0.000000
  +0.000000  +0.000000  +0.000000  +0.000000  +0.000000  +0.000000  +0.000000  +0.000000  +0.000000  +0.000000
  +0.000000  +0.000000  +0.000000  +0.000000  +0.000000  +0.000000  +0.000000  +0.000000  +0.000000  +0.000000
  +0.000000  +0.000000  +0.000000  +0.000000
#
# Mach: 1.3
  +0.000000  +0.000000  +0.000000  +0.000000  +0.000000  +0.000000  +0.000000  +0.000000  +0.000000  +0.000000
  +0.000000  +0.000000  +0.000000  +0.000000  +0.000000  +0.000000  +0.000000  +0.000000  +0.000000  +0.000000
  +0.000000  +0.000000  +0.000000  +0.000000  +0.000000  +0.000000  +0.000000  +0.000000  +0.000000  +0.000000
  +0.000000  +0.000000  +0.000000  +0.000000  +0.000000  +0.000000  +0.000000  +0.000000  +0.000000  +0.000000
  +0.000000  +0.000000  +0.000000  +0.000000
#
# Mach: 1.4
  +0.000000  +0.000000  +0.000000  +0.000000  +0.000000  +0.000000  +0.000000  +0.000000  +0.000000  +0.000000
  +0.000000  +0.000000  +0.000000  +0.000000  +0.000000  +0.000000  +0.000000  +0.000000  +0.000000  +0.000000
  +0.000000  +0.000000  +0.000000  +0.000000  +0.000000  +0.000000  +0.000000  +0.000000  +0.000000  +0.000000
  +0.000000  +0.000000  +0.000000  +0.000000  +0.000000  +0.000000  +0.000000  +0.000000  +0.000000  +0.000000
  +0.000000  +0.000000  +0.000000  +0.000000
#
# Mach: 1.5
  +0.000000  +0.000000  +0.000000  +0.000000  +0.000000  +0.000000  +0.000000  +0.000000  +0.000000  +0.000000
  +0.000000  +0.000000  +0.000000  +0.000000  +0.000000  +0.000000  +0.000000  +0.000000  +0.000000  +0.000000
  +0.000000  +0.000000  +0.000000  +0.000000  +0.000000  +0.000000  +0.000000  +0.000000  +0.000000  +0.000000
  +0.000000  +0.000000  +0.000000  +0.000000  +0.000000  +0.000000  +0.000000  +0.000000  +0.000000  +0.000000
  +0.000000  +0.000000  +0.000000  +0.000000
#
# Mach: 1.6
  +0.000000  +0.000000  +0.000000  +0.000000  +0.000000  +0.000000  +0.000000  +0.000000  +0.000000  +0.000000
  +0.000000  +0.000000  +0.000000  +0.000000  +0.000000  +0.000000  +0.000000  +0.000000  +0.000000  +0.000000
  +0.000000  +0.000000  +0.000000  +0.000000  +0.000000  +0.000000  +0.000000  +0.000000  +0.000000  +0.000000
  +0.000000  +0.000000  +0.000000  +0.000000  +0.000000  +0.000000  +0.000000  +0.000000  +0.000000  +0.000000
  +0.000000  +0.000000  +0.000000  +0.000000
#
# Mach: 1.7
  +0.000000  +0.000000  +0.000000  +0.000000  +0.000000  +0.000000  +0.000000  +0.000000  +0.000000  +0.000000
  +0.000000  +0.000000  +0.000000  +0.000000  +0.000000  +0.000000  +0.000000  +0.000000  +0.000000  +0.000000
  +0.000000  +0.000000  +0.000000  +0.000000  +0.000000  +0.000000  +0.000000  +0.000000  +0.000000  +0.000000
  +0.000000  +0.000000  +0.000000  +0.000000  +0.000000  +0.000000  +0.000000  +0.000000  +0.000000  +0.000000
  +0.000000  +0.000000  +0.000000  +0.000000
#
# Mach: 1.8
  +0.000000  +0.000000  +0.000000  +0.000000  +0.000000  +0.000000  +0.000000  +0.000000  +0.000000  +0.000000
  +0.000000  +0.000000  +0.000000  +0.000000  +0.000000  +0.000000  +0.000000  +0.000000  +0.000000  +0.000000
  +0.000000  +0.000000  +0.000000  +0.000000  +0.000000  +0.000000  +0.000000  +0.000000  +0.000000  +0.000000
  +0.000000  +0.000000  +0.000000  +0.000000  +0.000000  +0.000000  +0.000000  +0.000000  +0.000000  +0.000000
  +0.000000  +0.000000  +0.000000  +0.000000
#
# Mach: 1.9
  +0.000000  +0.000000  +0.000000  +0.000000  +0.000000  +0.000000  +0.000000  +0.000000  +0.000000  +0.000000
  +0.000000  +0.000000  +0.000000  +0.000000  +0.000000  +0.000000  +0.000000  +0.000000  +0.000000  +0.000000
  +0.000000  +0.000000  +0.000000  +0.000000  +0.000000  +0.000000  +0.000000  +0.000000  +0.000000  +0.000000
  +0.000000  +0.000000  +0.000000  +0.000000  +0.000000  +0.000000  +0.000000  +0.000000  +0.000000  +0.000000
  +0.000000  +0.000000  +0.000000  +0.000000
#
# Mach: 2
  +0.000000  +0.000000  +0.000000  +0.000000  +0.000000  +0.000000  +0.000000  +0.000000  +0.000000  +0.000000
  +0.000000  +0.000000  +0.000000  +0.000000  +0.000000  +0.000000  +0.000000  +0.000000  +0.000000  +0.000000
  +0.000000  +0.000000  +0.000000  +0.000000  +0.000000  +0.000000  +0.000000  +0.000000  +0.000000  +0.000000
  +0.000000  +0.000000  +0.000000  +0.000000  +0.000000  +0.000000  +0.000000  +0.000000  +0.000000  +0.000000
  +0.000000  +0.000000  +0.000000  +0.000000
#
# Mach: 2.5
  +0.000000  +0.000000  +0.000000  +0.000000  +0.000000  +0.000000  +0.000000  +0.000000  +0.000000  +0.000000
  +0.000000  +0.000000  +0.000000  +0.000000  +0.000000  +0.000000  +0.000000  +0.000000  +0.000000  +0.000000
  +0.000000  +0.000000  +0.000000  +0.000000  +0.000000  +0.000000  +0.000000  +0.000000  +0.000000  +0.000000
  +0.000000  +0.000000  +0.000000  +0.000000  +0.000000  +0.000000  +0.000000  +0.000000  +0.000000  +0.000000
  +0.000000  +0.000000  +0.000000  +0.000000
#
#-----------------------------------------------------
#     DRAG TEF COEFFICIENT  CD TEF
#-----------------------------------------------------
#
# Mach: 0
  +0.016900  +0.020100  +0.023200  +0.026500  +0.029800  +0.033100  +0.036500  +0.038800  +0.036100  +0.028100
  +0.014800  -0.006700  -0.034400  -0.067800  -0.094900  -0.123600  -0.155300  -0.189900  -0.227300  -0.268600
  -0.333100  -0.415000  -0.496800  -0.526000  -0.556400  -0.588100  -0.621000  -0.655100  -0.690500  -0.739700
  -0.809700  -0.883800  -0.920700  -0.944800  -0.964400  -0.984800  -1.006300  -1.027800  -1.048500  -1.082600
  -1.097900  -1.082000  -1.020400  -0.850300
#
# Mach: 0.2
  +0.016900  +0.020100  +0.023200  +0.026500  +0.029800  +0.033100  +0.036500  +0.038800  +0.036100  +0.028100
  +0.014800  -0.006700  -0.034400  -0.067800  -0.094900  -0.123600  -0.155300  -0.189900  -0.227300  -0.268600
  -0.333100  -0.415000  -0.496800  -0.526000  -0.556400  -0.588100  -0.621000  -0.655100  -0.690500  -0.739700
  -0.809700  -0.883800  -0.920700  -0.944800  -0.964400  -0.984800  -1.006300  -1.027800  -1.048500  -1.082600
  -1.097900  -1.082000  -1.020400  -0.850300
#
# Mach: 0.3
  +0.016900  +0.020100  +0.023200  +0.026500  +0.029800  +0.033100  +0.036500  +0.038800  +0.036100  +0.028100
  +0.014800  -0.006700  -0.034400  -0.067800  -0.094900  -0.123600  -0.155300  -0.189900  -0.227300  -0.268600
  -0.333100  -0.415000  -0.496800  -0.526000  -0.556400  -0.588100  -0.621000  -0.655100  -0.690500  -0.739700
  -0.809700  -0.883800  -0.920700  -0.944800  -0.964400  -0.984800  -1.006300  -1.027800  -1.048500  -1.082600
  -1.097900  -1.082000  -1.020400  -0.850300
#
# Mach: 0.4
  +0.000000  +0.000000  +0.000000  +0.000000  +0.000000  +0.000000  +0.000000  +0.000000  +0.000000  +0.000000
  +0.000000  +0.000000  +0.000000  +0.000000  +0.000000  +0.000000  +0.000000  +0.000000  +0.000000  +0.000000
  +0.000000  +0.000000  +0.000000  +0.000000  +0.000000  +0.000000  +0.000000  +0.000000  +0.000000  +0.000000
  +0.000000  +0.000000  +0.000000  +0.000000  +0.000000  +0.000000  +0.000000  +0.000000  +0.000000  +0.000000
  +0.000000  +0.000000  +0.000000  +0.000000
#
# Mach: 0.5
  +0.000000  +0.000000  +0.000000  +0.000000  +0.000000  +0.000000  +0.000000  +0.000000  +0.000000  +0.000000
  +0.000000  +0.000000  +0.000000  +0.000000  +0.000000  +0.000000  +0.000000  +0.000000  +0.000000  +0.000000
  +0.000000  +0.000000  +0.000000  +0.000000  +0.000000  +0.000000  +0.000000  +0.000000  +0.000000  +0.000000
  +0.000000  +0.000000  +0.000000  +0.000000  +0.000000  +0.000000  +0.000000  +0.000000  +0.000000  +0.000000
  +0.000000  +0.000000  +0.000000  +0.000000
#
# Mach: 0.6
  +0.000000  +0.000000  +0.000000  +0.000000  +0.000000  +0.000000  +0.000000  +0.000000  +0.000000  +0.000000
  +0.000000  +0.000000  +0.000000  +0.000000  +0.000000  +0.000000  +0.000000  +0.000000  +0.000000  +0.000000
  +0.000000  +0.000000  +0.000000  +0.000000  +0.000000  +0.000000  +0.000000  +0.000000  +0.000000  +0.000000
  +0.000000  +0.000000  +0.000000  +0.000000  +0.000000  +0.000000  +0.000000  +0.000000  +0.000000  +0.000000
  +0.000000  +0.000000  +0.000000  +0.000000
#
# Mach: 0.7
  +0.000000  +0.000000  +0.000000  +0.000000  +0.000000  +0.000000  +0.000000  +0.000000  +0.000000  +0.000000
  +0.000000  +0.000000  +0.000000  +0.000000  +0.000000  +0.000000  +0.000000  +0.000000  +0.000000  +0.000000
  +0.000000  +0.000000  +0.000000  +0.000000  +0.000000  +0.000000  +0.000000  +0.000000  +0.000000  +0.000000
  +0.000000  +0.000000  +0.000000  +0.000000  +0.000000  +0.000000  +0.000000  +0.000000  +0.000000  +0.000000
  +0.000000  +0.000000  +0.000000  +0.000000
#
# Mach: 0.8
  +0.000000  +0.000000  +0.000000  +0.000000  +0.000000  +0.000000  +0.000000  +0.000000  +0.000000  +0.000000
  +0.000000  +0.000000  +0.000000  +0.000000  +0.000000  +0.000000  +0.000000  +0.000000  +0.000000  +0.000000
  +0.000000  +0.000000  +0.000000  +0.000000  +0.000000  +0.000000  +0.000000  +0.000000  +0.000000  +0.000000
  +0.000000  +0.000000  +0.000000  +0.000000  +0.000000  +0.000000  +0.000000  +0.000000  +0.000000  +0.000000
  +0.000000  +0.000000  +0.000000  +0.000000
#
# Mach: 0.85
  +0.000000  +0.000000  +0.000000  +0.000000  +0.000000  +0.000000  +0.000000  +0.000000  +0.000000  +0.000000
  +0.000000  +0.000000  +0.000000  +0.000000  +0.000000  +0.000000  +0.000000  +0.000000  +0.000000  +0.000000
  +0.000000  +0.000000  +0.000000  +0.000000  +0.000000  +0.000000  +0.000000  +0.000000  +0.000000  +0.000000
  +0.000000  +0.000000  +0.000000  +0.000000  +0.000000  +0.000000  +0.000000  +0.000000  +0.000000  +0.000000
  +0.000000  +0.000000  +0.000000  +0.000000
#
# Mach: 0.9
  +0.000000  +0.000000  +0.000000  +0.000000  +0.000000  +0.000000  +0.000000  +0.000000  +0.000000  +0.000000
  +0.000000  +0.000000  +0.000000  +0.000000  +0.000000  +0.000000  +0.000000  +0.000000  +0.000000  +0.000000
  +0.000000  +0.000000  +0.000000  +0.000000  +0.000000  +0.000000  +0.000000  +0.000000  +0.000000  +0.000000
  +0.000000  +0.000000  +0.000000  +0.000000  +0.000000  +0.000000  +0.000000  +0.000000  +0.000000  +0.000000
  +0.000000  +0.000000  +0.000000  +0.000000
#
# Mach: 1
  +0.000000  +0.000000  +0.000000  +0.000000  +0.000000  +0.000000  +0.000000  +0.000000  +0.000000  +0.000000
  +0.000000  +0.000000  +0.000000  +0.000000  +0.000000  +0.000000  +0.000000  +0.000000  +0.000000  +0.000000
  +0.000000  +0.000000  +0.000000  +0.000000  +0.000000  +0.000000  +0.000000  +0.000000  +0.000000  +0.000000
  +0.000000  +0.000000  +0.000000  +0.000000  +0.000000  +0.000000  +0.000000  +0.000000  +0.000000  +0.000000
  +0.000000  +0.000000  +0.000000  +0.000000
#
# Mach: 1.05
  +0.000000  +0.000000  +0.000000  +0.000000  +0.000000  +0.000000  +0.000000  +0.000000  +0.000000  +0.000000
  +0.000000  +0.000000  +0.000000  +0.000000  +0.000000  +0.000000  +0.000000  +0.000000  +0.000000  +0.000000
  +0.000000  +0.000000  +0.000000  +0.000000  +0.000000  +0.000000  +0.000000  +0.000000  +0.000000  +0.000000
  +0.000000  +0.000000  +0.000000  +0.000000  +0.000000  +0.000000  +0.000000  +0.000000  +0.000000  +0.000000
  +0.000000  +0.000000  +0.000000  +0.000000
#
# Mach: 1.1
  +0.000000  +0.000000  +0.000000  +0.000000  +0.000000  +0.000000  +0.000000  +0.000000  +0.000000  +0.000000
  +0.000000  +0.000000  +0.000000  +0.000000  +0.000000  +0.000000  +0.000000  +0.000000  +0.000000  +0.000000
  +0.000000  +0.000000  +0.000000  +0.000000  +0.000000  +0.000000  +0.000000  +0.000000  +0.000000  +0.000000
  +0.000000  +0.000000  +0.000000  +0.000000  +0.000000  +0.000000  +0.000000  +0.000000  +0.000000  +0.000000
  +0.000000  +0.000000  +0.000000  +0.000000
#
# Mach: 1.2
  +0.000000  +0.000000  +0.000000  +0.000000  +0.000000  +0.000000  +0.000000  +0.000000  +0.000000  +0.000000
  +0.000000  +0.000000  +0.000000  +0.000000  +0.000000  +0.000000  +0.000000  +0.000000  +0.000000  +0.000000
  +0.000000  +0.000000  +0.000000  +0.000000  +0.000000  +0.000000  +0.000000  +0.000000  +0.000000  +0.000000
  +0.000000  +0.000000  +0.000000  +0.000000  +0.000000  +0.000000  +0.000000  +0.000000  +0.000000  +0.000000
  +0.000000  +0.000000  +0.000000  +0.000000
#
# Mach: 1.3
  +0.000000  +0.000000  +0.000000  +0.000000  +0.000000  +0.000000  +0.000000  +0.000000  +0.000000  +0.000000
  +0.000000  +0.000000  +0.000000  +0.000000  +0.000000  +0.000000  +0.000000  +0.000000  +0.000000  +0.000000
  +0.000000  +0.000000  +0.000000  +0.000000  +0.000000  +0.000000  +0.000000  +0.000000  +0.000000  +0.000000
  +0.000000  +0.000000  +0.000000  +0.000000  +0.000000  +0.000000  +0.000000  +0.000000  +0.000000  +0.000000
  +0.000000  +0.000000  +0.000000  +0.000000
#
# Mach: 1.4
  +0.000000  +0.000000  +0.000000  +0.000000  +0.000000  +0.000000  +0.000000  +0.000000  +0.000000  +0.000000
  +0.000000  +0.000000  +0.000000  +0.000000  +0.000000  +0.000000  +0.000000  +0.000000  +0.000000  +0.000000
  +0.000000  +0.000000  +0.000000  +0.000000  +0.000000  +0.000000  +0.000000  +0.000000  +0.000000  +0.000000
  +0.000000  +0.000000  +0.000000  +0.000000  +0.000000  +0.000000  +0.000000  +0.000000  +0.000000  +0.000000
  +0.000000  +0.000000  +0.000000  +0.000000
#
# Mach: 1.5
  +0.000000  +0.000000  +0.000000  +0.000000  +0.000000  +0.000000  +0.000000  +0.000000  +0.000000  +0.000000
  +0.000000  +0.000000  +0.000000  +0.000000  +0.000000  +0.000000  +0.000000  +0.000000  +0.000000  +0.000000
  +0.000000  +0.000000  +0.000000  +0.000000  +0.000000  +0.000000  +0.000000  +0.000000  +0.000000  +0.000000
  +0.000000  +0.000000  +0.000000  +0.000000  +0.000000  +0.000000  +0.000000  +0.000000  +0.000000  +0.000000
  +0.000000  +0.000000  +0.000000  +0.000000
#
# Mach: 1.6
  +0.000000  +0.000000  +0.000000  +0.000000  +0.000000  +0.000000  +0.000000  +0.000000  +0.000000  +0.000000
  +0.000000  +0.000000  +0.000000  +0.000000  +0.000000  +0.000000  +0.000000  +0.000000  +0.000000  +0.000000
  +0.000000  +0.000000  +0.000000  +0.000000  +0.000000  +0.000000  +0.000000  +0.000000  +0.000000  +0.000000
  +0.000000  +0.000000  +0.000000  +0.000000  +0.000000  +0.000000  +0.000000  +0.000000  +0.000000  +0.000000
  +0.000000  +0.000000  +0.000000  +0.000000
#
# Mach: 1.7
  +0.000000  +0.000000  +0.000000  +0.000000  +0.000000  +0.000000  +0.000000  +0.000000  +0.000000  +0.000000
  +0.000000  +0.000000  +0.000000  +0.000000  +0.000000  +0.000000  +0.000000  +0.000000  +0.000000  +0.000000
  +0.000000  +0.000000  +0.000000  +0.000000  +0.000000  +0.000000  +0.000000  +0.000000  +0.000000  +0.000000
  +0.000000  +0.000000  +0.000000  +0.000000  +0.000000  +0.000000  +0.000000  +0.000000  +0.000000  +0.000000
  +0.000000  +0.000000  +0.000000  +0.000000
#
# Mach: 1.8
  +0.000000  +0.000000  +0.000000  +0.000000  +0.000000  +0.000000  +0.000000  +0.000000  +0.000000  +0.000000
  +0.000000  +0.000000  +0.000000  +0.000000  +0.000000  +0.000000  +0.000000  +0.000000  +0.000000  +0.000000
  +0.000000  +0.000000  +0.000000  +0.000000  +0.000000  +0.000000  +0.000000  +0.000000  +0.000000  +0.000000
  +0.000000  +0.000000  +0.000000  +0.000000  +0.000000  +0.000000  +0.000000  +0.000000  +0.000000  +0.000000
  +0.000000  +0.000000  +0.000000  +0.000000
#
# Mach: 1.9
  +0.000000  +0.000000  +0.000000  +0.000000  +0.000000  +0.000000  +0.000000  +0.000000  +0.000000  +0.000000
  +0.000000  +0.000000  +0.000000  +0.000000  +0.000000  +0.000000  +0.000000  +0.000000  +0.000000  +0.000000
  +0.000000  +0.000000  +0.000000  +0.000000  +0.000000  +0.000000  +0.000000  +0.000000  +0.000000  +0.000000
  +0.000000  +0.000000  +0.000000  +0.000000  +0.000000  +0.000000  +0.000000  +0.000000  +0.000000  +0.000000
  +0.000000  +0.000000  +0.000000  +0.000000
#
# Mach: 2
  +0.000000  +0.000000  +0.000000  +0.000000  +0.000000  +0.000000  +0.000000  +0.000000  +0.000000  +0.000000
  +0.000000  +0.000000  +0.000000  +0.000000  +0.000000  +0.000000  +0.000000  +0.000000  +0.000000  +0.000000
  +0.000000  +0.000000  +0.000000  +0.000000  +0.000000  +0.000000  +0.000000  +0.000000  +0.000000  +0.000000
  +0.000000  +0.000000  +0.000000  +0.000000  +0.000000  +0.000000  +0.000000  +0.000000  +0.000000  +0.000000
  +0.000000  +0.000000  +0.000000  +0.000000
#
# Mach: 2.5
  +0.000000  +0.000000  +0.000000  +0.000000  +0.000000  +0.000000  +0.000000  +0.000000  +0.000000  +0.000000
  +0.000000  +0.000000  +0.000000  +0.000000  +0.000000  +0.000000  +0.000000  +0.000000  +0.000000  +0.000000
  +0.000000  +0.000000  +0.000000  +0.000000  +0.000000  +0.000000  +0.000000  +0.000000  +0.000000  +0.000000
  +0.000000  +0.000000  +0.000000  +0.000000  +0.000000  +0.000000  +0.000000  +0.000000  +0.000000  +0.000000
  +0.000000  +0.000000  +0.000000  +0.000000
#
# End of Aero Data
#
#-----------------------------------------------------
# PROPULSION DATA
#-----------------------------------------------------
#
      +2.000000   # Thrust multiplier
      +2.000000   # Fuel Flow Multiplier
#-----------------------------------------------------
# MACH BREAKPOINTS
#-----------------------------------------------------
+22.000000  # Number of Mach Breaks
#
  +0.000000  +0.200000  +0.300000  +0.400000  +0.500000  +0.600000  +0.700000  +0.800000  +0.900000  +1.000000
  +1.050000  +1.100000  +1.150000  +1.200000  +1.300000  +1.400000  +1.500000  +1.600000  +1.700000  +1.800000
  +2.000000  +2.500000
#-----------------------------------------------------
#     ALTITUDE BREAKPOINTS
#-----------------------------------------------------
+8.000000  # Number of Alt Break Points
#
  +0.000000 +10000.000000 +20000.000000 +30000.000000 +35000.000000 +45000.000000 +55000.000000 +65000.000000
#
#-----------------------------------------------------
#    THRST1 - THRUST AT IDLE (THROTL = 0.00)
#-----------------------------------------------------
# Alt: 0
     +0.000000   +441.000000   +278.000000    +42.000000   -347.000000   -708.000000  -1388.000000  -1874.000000  -2360.000000  -2499.000000
   -729.000000  +1041.000000  +2256.000000  +3471.000000  +5553.000000  +6803.000000  +7081.000000  +6664.000000  +6248.000000  +5831.000000
  +5415.000000  +4582.000000
#
# Alt: 10000
   +461.000000   +461.000000   +318.000000   +135.000000   -185.000000   -476.000000  -1003.000000  -1425.000000  -1261.000000  -1009.000000
    +35.000000  +1078.000000  +2282.000000  +3485.000000  +5296.000000  +6753.000000  +7371.000000  +7344.000000  +7056.000000  +6605.000000
  +6155.000000  +5057.000000
#
# Alt: 20000
   +479.000000   +479.000000   +361.000000   +239.000000     +0.000000   -208.000000   -555.000000   -902.000000     +0.000000   +694.000000
   +902.000000  +1111.000000  +2291.000000  +3471.000000  +4956.000000  +6636.000000  +7636.000000  +8053.000000  +7914.000000  +7428.000000
  +6942.000000  +5553.000000
#
# Alt: 30000
   +701.000000   +701.000000   +625.000000   +524.000000   +347.000000   +243.000000   +208.000000   +139.000000     +0.000000   -208.000000
   +721.000000  +1650.000000  +2422.000000  +3193.000000  +4782.000000  +5833.000000  +6541.000000  +6906.000000  +6929.000000  +6609.000000
  +6248.000000  +5415.000000
#
# Alt: 35000
   +923.000000   +923.000000   +833.000000   +784.000000   +694.000000   +632.000000   +417.000000   +417.000000   +597.000000   +417.000000
   +333.000000   +250.000000  +1111.000000  +1972.000000  +2884.000000  +4026.000000  +4651.000000  +4859.000000  +4908.000000  +4968.000000
  +4980.000000  +4980.000000
#
# Alt: 45000
  +1111.000000  +1111.000000  +1059.000000   +972.000000   +944.000000   +833.000000   +764.000000   +625.000000   +521.000000   +521.000000
   +434.000000   +347.000000   +312.000000   +278.000000  +1944.000000  +3059.000000  +3684.000000  +3892.000000  +3941.000000  +4001.000000
  +4013.000000  +4013.000000
#
# Alt: 55000
  +1222.000000  +1222.000000  +1165.000000  +1069.000000  +1039.000000   +916.000000   +840.000000   +687.000000   +573.000000   +573.000000
   +478.000000   +382.000000   +263.000000   +144.000000  +1007.000000  +2355.000000  +2980.000000  +3188.000000  +3237.000000  +3298.000000
  +3310.000000  +3309.000000
#
# Alt: 65000
     +0.000000     +0.000000     +0.000000     +0.000000     +0.000000     +0.000000     +0.000000     +0.000000     +0.000000     +0.000000
     +0.000000     +0.000000     +0.000000     +0.000000     +0.000000     +0.000000     +0.000000     +0.000000     +0.000000     +0.000000
     +0.000000     +0.000000
#-----------------------------------------------------
#    THRST2 - THRUST AT MIL POWER (THROTL = 1.00)
#-----------------------------------------------------
# Alt: 0
 +10971.000000 +10971.000000 +10971.000000 +10971.000000 +10971.000000 +10971.000000 +10971.000000 +11249.000000 +13888.000000 +13888.000000
 +13888.000000 +13888.000000 +13888.000000 +13888.000000 +13888.000000 +13888.000000 +13888.000000 +13888.000000 +13888.000000 +13888.000000
 +13888.000000 +13888.000000
#
# Alt: 10000
  +7501.000000  +7501.000000  +7501.000000  +7501.000000  +7501.000000  +7501.000000  +8980.000000  +8980.000000 +10564.000000 +10564.000000
 +10564.000000 +10564.000000 +10564.000000 +10564.000000 +10564.000000 +10564.000000 +10564.000000 +10564.000000 +10564.000000 +10564.000000
 +10564.000000 +10564.000000
#
# Alt: 20000
  +6816.000000  +6816.000000  +6816.000000  +6816.000000  +6816.000000  +6816.000000  +6816.000000  +6816.000000  +7834.000000  +8696.000000
  +8696.000000  +8696.000000  +8696.000000  +8696.000000  +8696.000000  +8696.000000  +8696.000000  +8696.000000  +8696.000000  +8696.000000
  +8696.000000  +8696.000000
#
# Alt: 30000
  +5023.000000  +5023.000000  +5023.000000  +5023.000000  +5023.000000  +5023.000000  +5023.000000  +5023.000000  +5460.000000  +6279.000000
  +6279.000000  +6279.000000  +6279.000000  +6279.000000  +6279.000000  +6279.000000  +6279.000000  +6279.000000  +6279.000000  +6279.000000
  +6279.000000  +6279.000000
#
# Alt: 35000
  +3953.000000  +3953.000000  +3953.000000  +3953.000000  +3953.000000  +3953.000000  +3953.000000  +3953.000000  +4392.000000  +4699.000000
  +4699.000000  +4699.000000  +4699.000000  +4699.000000  +4699.000000  +4699.000000  +4699.000000  +4699.000000  +4699.000000  +4699.000000
  +4699.000000  +4699.000000
#
# Alt: 45000
  +2478.000000  +2478.000000  +2478.000000  +2478.000000  +2478.000000  +2478.000000  +2478.000000  +2478.000000  +2753.000000  +2753.000000
  +2753.000000  +2753.000000  +2753.000000  +2753.000000  +2753.000000  +2753.000000  +2753.000000  +2753.000000  +2753.000000  +2753.000000
  +2753.000000  +2753.000000
#
# Alt: 55000
  +1205.000000  +1205.000000  +1205.000000  +1205.000000  +1205.000000  +1205.000000  +1205.000000  +1205.000000  +1339.000000  +1339.000000
  +1339.000000  +1339.000000  +1339.000000  +1339.000000  +1339.000000  +1339.000000  +1339.000000  +1339.000000  +1339.000000  +1339.000000
  +1339.000000  +1339.000000
#
# Alt: 65000
     +0.000000     +0.000000     +0.000000     +0.000000     +0.000000     +0.000000     +0.000000     +0.000000     +0.000000     +0.000000
     +0.000000     +0.000000     +0.000000     +0.000000     +0.000000     +0.000000     +0.000000     +0.000000     +0.000000     +0.000000
     +0.000000     +0.000000
#-----------------------------------------------------
#    THRST3 - THRUST AT FULL AB (THROTL = 1.05)
#-----------------------------------------------------
# Alt: 0
 +17909.000000 +17909.000000 +18181.000000 +18439.000000 +18826.000000 +19364.000000 +20591.000000 +21792.000000 +26047.000000 +26563.000000
 +26875.000000 +27187.000000 +26875.000000 +26563.000000 +26563.000000 +26563.000000 +26563.000000 +26563.000000 +26563.000000 +26563.000000
 +26563.000000 +26563.000000
#
# Alt: 10000
 +11841.000000 +11841.000000 +11841.000000 +11841.000000 +14956.000000 +15630.000000 +16326.000000 +17596.000000 +19856.000000 +21661.000000
 +22858.000000 +24056.000000 +25003.000000 +25950.000000 +26896.000000 +26818.000000 +26818.000000 +26818.000000 +26818.000000 +26818.000000
 +26818.000000 +26818.000000
#
# Alt: 20000
  +8937.000000  +8937.000000  +8937.000000  +8937.000000  +9680.000000 +11084.000000 +12048.000000 +13367.000000 +14937.000000 +16219.000000
 +17102.000000 +17985.000000 +18705.000000 +19425.000000 +20667.000000 +21985.000000 +22979.000000 +23789.000000 +24051.000000 +24051.000000
 +24051.000000 +24051.000000
#
# Alt: 30000
  +7801.000000  +7801.000000  +7801.000000  +7801.000000  +7801.000000  +7801.000000  +8020.000000  +9178.000000 +10343.000000 +11509.000000
 +12092.000000 +12674.000000 +13257.000000 +13840.000000 +15005.000000 +16171.000000 +17336.000000 +18502.000000 +19667.000000 +20833.000000
 +23163.000000 +23163.000000
#
# Alt: 35000
  +5808.000000  +5808.000000  +5808.000000  +5808.000000  +5808.000000  +5808.000000  +5992.000000  +6626.000000  +8420.000000  +9311.000000
  +9841.000000 +10371.000000 +11015.000000 +11660.000000 +12491.000000 +13551.000000 +14611.000000 +15671.000000 +16732.000000 +17792.000000
 +19912.000000 +19912.000000
#
# Alt: 45000
  +3960.000000  +3960.000000  +3960.000000  +3960.000000  +3960.000000  +3960.000000  +4065.000000  +4427.000000  +5301.000000  +5864.000000
  +6194.000000  +6523.000000  +6918.000000  +7313.000000  +7718.000000  +8418.000000  +9296.000000  +9860.000000 +10759.000000 +11398.000000
 +12392.000000 +12392.000000
#
# Alt: 55000
  +2348.000000  +2348.000000  +2348.000000  +2348.000000  +2348.000000  +2348.000000  +2401.000000  +2509.000000  +2814.000000  +3120.000000
  +3273.000000  +3426.000000  +3578.000000  +3731.000000  +4037.000000  +4342.000000  +4648.000000  +4953.000000  +5259.000000  +5564.000000
  +6176.000000  +5574.000000
#
# Alt: 65000
     +0.000000     +0.000000     +0.000000     +0.000000     +0.000000     +0.000000     +0.000000     +0.000000     +0.000000     +0.000000
     +0.000000     +0.000000     +0.000000     +0.000000     +0.000000     +0.000000     +0.000000     +0.000000     +0.000000     +0.000000
     +0.000000     +0.000000
#-----------------------------------------------------
#    ROLL DATA
#-----------------------------------------------------
#    ALPHA BREAKPOINTS
7 # Num ALPHA
   -10   0   10   15   18   20   90
#
7 # DYNAMIC PRESSURE BREAKPOINTS
   0   100   200   300   400   500   2000
#-----------------------------------------------------
#     RCMDMX - PEAK ROLL RATE
#-----------------------------------------------------
1   # Table Multiplier

# ALPHA -10
 0.00 68.18 136.36 150.00 177.27 177.27 163.64
#
# ALPHA 0
 0.00 190.91 259.09 272.73 300.00 300.00 286.36
#
# ALPHA 10
 0.00 68.18 136.36 150.00 177.27 177.27 163.64
#
# ALPHA 15
 0.00 13.64 27.27 40.91 54.55 54.55 54.55
#
# ALPHA 18
 0.00 6.82 6.82 20.45 34.09 34.09 27.27
#
# ALPHA 20
 0.00 0.00 0.00 0.00 0.00 0.00 0.00
#
# ALPHA 90
 0.00 0.00 0.00 0.00 0.00 0.00 0.00
#
# End Of Roll Data
#
#-----------------------------------------------------
# LIMITERS
#-----------------------------------------------------
17   # Number of limiters
# Type Key Values
#
# Neg G Limiter
0 0     250.0     -3.0     100.0     0.0
# Pos G Limiter (Cat I)
3 1     24.0     8.0     29.0     7.0     34.0     1.0
# Roll Rate Limiter
0 2     15.0     1.0     29.0     0.0
# Yaw Alpha Limiter
0 3     14.0     1.0     26.0     0.0
# Yaw Roll Rate Limiter
0 4     20.0     1.0     360.0     0.0
# Cat III Command Type
0 5     100.0     7.0     420.0     15.0
# Cat III AOA Limiter
1 6     24.0
# Cat III Roll Rate Limiter
2 7     0.6
# Cat III Yaw Alpha Limiter
0 8     3.0     1.0     15.0     0.0
# Cat III Yaw Roll Rate Limiter
0 9     20.0     1.0     180.0     0.0
# Pitch and Yaw Control Damper
3 10     0.00     0.30     15.00     0.85     50.00     1.00
# Roll Control Damper
3 11     0.00     0.60     15.00     0.85     50.00     1.00
# Command Type
1 12     15
# Low Speed Omega
3 13     0.01     0.10     40.00     0.80     60.00     1.00
# Stores Drag
0 14     0.9     0.000052     1.0     0.000104
# Cat III Max Gs
1 16     8.0
# AOA Limiter
1 17     24.0
#-----------------------------------------------------
# Vapor data
#-----------------------------------------------------
38   #Total Number of vapor chains - MUST MATCH THE REAL NUMBER OF CHAINS DEFINED LATER OR YOU'LL GET CTDs!
#
#		              POSITION				  SIZE					   TIME/ALPHA				   OTHER	
#	startX  startY  startZ  endX	endY	endZ	Init	Growth	RandPos t1	a1	t2	a2	t3	a3	t4	a4	LEVEL	PSID
# level 0
	+3.77	+5.65	+1.68	-9.40	+5.65	-0.50	+0.212	+0.2000	+1.000	+0.00	+0.90	+1.00	+0.60	+0.00	+0.00	+0.00	+0.00	+0	+1
	+3.34	+6.05	+1.68	-9.50	+6.05	-0.50	+0.312	+0.2000	+1.000	+0.00	+0.70	+1.00	+0.60	+0.00	+0.00	+0.00	+0.00	+0	+1
	+2.91	+6.45	+1.68	-9.60	+6.45	-0.50	+0.312	+0.2000	+1.000	+0.00	+0.70	+1.00	+0.60	+0.00	+0.00	+0.00	+0.00	+0	+1
	+2.23	+6.85	+1.68	-9.70	+6.85	-0.50	+0.812	+0.2500	+1.000	+0.00	+0.90	+1.00	+0.60	+0.00	+0.00	+0.00	+0.00	+0	+1
	+1.71	+7.25	+1.68	-9.80	+7.25	-0.50	+0.812	+0.2500	+1.000	+0.00	+0.90	+1.00	+0.60	+0.00	+0.00	+0.00	+0.00	+0	+1
	+1.28	+7.65	+1.68	-9.90	+7.65	-0.50	+0.812	+0.2500	+1.000	+0.00	+0.90	+1.00	+0.60	+0.00	+0.00	+0.00	+0.00	+0	+1
	+0.90	+8.05	+1.68	-10.00	+8.00	-0.50	+0.812	+0.2500	+1.000	+0.00	+0.90	+1.00	+0.60	+0.00	+0.00	+0.00	+0.00	+0	+1
	+0.45	+8.45	+1.68	-10.10	+8.40	-0.50	+0.812	+0.2500	+1.000	+0.00	+0.90	+1.00	+0.60	+0.00	+0.00	+0.00	+0.00	+0	+1
	-0.08	+8.85	+1.68	-10.20	+8.80	-0.50	+0.812	+0.2500	+1.000	+0.00	+0.90	+1.00	+0.60	+0.00	+0.00	+0.00	+0.00	+0	+1
	-0.59	+9.25	+1.68	-10.30	+9.20	-0.50	+0.812	+0.2000	+1.000	+0.00	+0.90	+1.00	+0.60	+0.00	+0.00	+0.00	+0.00	+0	+1
	-1.11	+9.65	+1.68	-10.40	+9.60	-0.50	+0.812	+0.2500	+1.000	+0.00	+0.90	+1.00	+0.60	+0.00	+0.00	+0.00	+0.00	+0	+1
	-1.62	+10.05	+1.68	-10.50	+10.00	-0.50	+0.812	+0.2500	+1.000	+0.00	+0.90	+1.00	+0.60	+0.00	+0.00	+0.00	+0.00	+0	+1
	-2.14	+10.45	+1.68	-10.60	+10.40	-0.50	+0.812	+0.2500	+1.000	+0.00	+0.90	+1.00	+0.60	+0.00	+0.00	+0.00	+0.00	+0	+1
	-2.57	+10.85	+1.68	-10.70	+10.80	-0.50	+0.812	+0.2500	+1.000	+0.00	+0.90	+1.00	+0.60	+0.00	+0.00	+0.00	+0.00	+0	+1
	-3.08	+11.25	+1.68	-10.80	+11.20	-0.50	+0.812	+0.2500	+1.000	+0.00	+0.90	+1.00	+0.60	+0.00	+0.00	+0.00	+0.00	+0	+1
	-3.60	+11.65	+1.68	-10.90	+11.65	-0.50	+0.812	+0.2500	+1.000	+0.00	+0.90	+1.00	+0.60	+0.00	+0.00	+0.00	+0.00	+0	+1
	-4.20	+12.05	+1.68	-11.00	+12.00	-0.50	+0.812	+0.2500	+1.000	+0.00	+0.90	+1.00	+0.60	+0.00	+0.00	+0.00	+0.00	+0	+1
	-4.71	+12.45	+1.68	-11.10	+12.40	-0.50	+0.112	+0.2000	+1.000	+0.00	+0.90	+1.00	+0.60	+0.00	+0.00	+0.00	+0.00	+0	+1
	-5.14	+12.85	+1.68	-11.20	+12.80	-0.50	+0.212	+0.2000	+1.000	+0.00	+0.90	+1.00	+0.60	+0.00	+0.00	+0.00	+0.00	+0	+1
	-5.74	+13.25	+1.68	-11.60	+13.20	-0.50	+0.312	+0.2000	+1.000	+0.00	+0.70	+1.00	+0.60	+0.00	+0.00	+0.00	+0.00	+0	+1
# level 1
	-5.91	+13.65	+1.50	-12.10	+13.70	-0.50	+0.312	+0.2000	+1.000	+0.00	+0.70	+1.00	+0.60	+0.00	+0.00	+0.00	+0.00	+1	+1
	-6.42	+14.05	+1.34	-12.10	+14.20	-0.50	+0.812	+0.2500	+1.000	+0.00	+0.90	+1.00	+0.60	+0.00	+0.00	+0.00	+0.00	+1	+1
	-6.77	+14.45	+1.18	-12.20	+14.50	-0.50	+0.812	+0.2500	+1.000	+0.00	+0.90	+1.00	+0.60	+0.00	+0.00	+0.00	+0.00	+1	+1
	-7.28	+14.85	+1.02	-12.20	+15.00	-0.50	+0.812	+0.2500	+1.000	+0.00	+0.90	+1.00	+0.60	+0.00	+0.00	+0.00	+0.00	+1	+1
	-7.88	+15.25	+1.02	-12.30	+15.60	-0.50	+0.812	+0.2500	+1.000	+0.00	+0.90	+1.00	+0.60	+0.00	+0.00	+0.00	+0.00	+1	+1
	-8.68	+15.65	+0.86	-12.40	+16.00	-0.50	+0.812	+0.2500	+1.000	+0.00	+0.90	+1.00	+0.60	+0.00	+0.00	+0.00	+0.00	+1	+1
	-9.11	+16.05	+0.86	-12.50	+16.40	-0.50	+0.812	+0.2500	+1.000	+0.00	+0.90	+1.00	+0.60	+0.00	+0.00	+0.00	+0.00	+1	+1
	-9.80	+16.45	+0.70	-12.60	+16.80	-0.50	+0.812	+0.2000	+1.000	+0.00	+0.90	+1.00	+0.60	+0.00	+0.00	+0.00	+0.00	+1	+1
	-10.04	+16.85	+0.70	-12.70	+17.20	-0.50	+0.812	+0.2500	+1.000	+0.00	+0.90	+1.00	+0.60	+0.00	+0.00	+0.00	+0.00	+1	+1
	-10.48	+17.25	+0.54	-12.80	+17.60	-0.50	+0.812	+0.2500	+1.000	+0.00	+0.90	+1.00	+0.60	+0.00	+0.00	+0.00	+0.00	+1	+1
	-10.90	+17.65	+0.54	-12.90	+18.00	-0.50	+0.812	+0.2500	+1.000	+0.00	+0.90	+1.00	+0.60	+0.00	+0.00	+0.00	+0.00	+1	+1
	-11.46	+18.05	+0.38	-13.00	+18.40	-0.50	+0.812	+0.2500	+1.000	+0.00	+0.90	+1.00	+0.60	+0.00	+0.00	+0.00	+0.00	+1	+1
	-11.86	+18.45	+0.38	-13.10	+18.80	-0.50	+0.812	+0.2500	+1.000	+0.00	+0.90	+1.00	+0.60	+0.00	+0.00	+0.00	+0.00	+1	+1
	+3.34	+6.05	+1.68	-16.80	+6.05	-0.80	+0.312	+0.2000	+1.000	+0.00	+0.70	+1.00	+0.60	+0.00	+0.00	+0.00	+0.00	+1	+1
	+2.91	+6.45	+1.68	-17.60	+6.45	-0.80	+0.312	+0.2000	+1.000	+0.00	+0.70	+1.00	+0.60	+0.00	+0.00	+0.00	+0.00	+1	+1
	+2.23	+6.85	+1.68	-16.70	+6.85	-0.80	+0.812	+0.2500	+1.000	+0.00	+0.90	+1.00	+0.60	+0.00	+0.00	+0.00	+0.00	+1	+1
	+1.71	+7.25	+1.68	-16.50	+7.25	-0.80	+0.812	+0.2500	+1.000	+0.00	+0.90	+1.00	+0.60	+0.00	+0.00	+0.00	+0.00	+1	+1
	+1.28	+7.65	+1.68	-16.30	+7.65	-0.80	+0.812	+0.2500	+1.000	+0.00	+0.90	+1.00	+0.60	+0.00	+0.00	+0.00	+0.00	+1	+1
#
#-----------------------------------------------------
# ADDITIONAL DATA
#-----------------------------------------------------
#
#-----------------------------------------------------
# Aircraft
#-----------------------------------------------------
typeAC 11
isComplex 0
#-----------------------------------------------------
# Engine
#-----------------------------------------------------
typeEngine 11
nEngines 2
engine1Location -19.80 1.80 1.56
engine2Location -19.80 -1.80 1.56
engine3Location 0.00 0.00 0.00
engine4Location 0.00 0.00 0.00
engineSmokes 3
normSpoolRate 2.2
abSpoolRate 2.2
nozzleMil 0.00
LGIdle 0
jfsStartUpTime 15
jfsSpoolUpRate 15.0
jfsSpoolUpLimit 0.25
lightupSpoolRate 10.0
flameoutSpoolRate 35.0
jfsRechargeTime 60
jfsMinRechargeRpm 0.12
jfsSpinTime 240
FTITStart 6.100
FTITIdle 5.100
FTITMax 7.600
FTITAB 7.623
mainGenRpm 0.63
stbyGenRpm 0.60
epuBurnTime 600
DeepStallEngineStall 0
engineDamageStopThreshold 15
engineDamageNoRestartThreshold 3
engineDamageHitThreshold 42
complexnozzle 0
animExhNozIdle 0.0
animExhNozMil 10.0
animExhNozMax 5.0
animExhNozAB 0.0
animExhNozABMax 15.0
animExhNozRate 5.0
PropEngineSwitchStates 0
animEngineRPMMult 1000
HeatBlurShift -7
hasReverseThrust 0
ReverseThrustFactor 0.0
minReverseThrustSpeed 0
animReverseAngle 0
animReverseRate 0.0
#-----------------------------------------------------
# JetBlast data
#-----------------------------------------------------
WakeFactor 1.0
WakeAngle 4.28
WakeRange 668
#-----------------------------------------------------
# Flight Dynamics
#-----------------------------------------------------
area2Span 0.0726
pitchMomentum 1.40
rollMomentum 1.40
yawMomentum 1.40
pitchElasticity 1.00
gearPitchFactor 0.00
pitchGearGain 1.00
rollGearGain 1.00
yawGearGain 1.00
AFMcriticalAOA 0.0
#-----------------------------------------------------
# Controls
#-----------------------------------------------------
elevonMaxAngle 20.0
aileronMaxAngle 20.0
rudderMaxAngle 20.0
rollCouple -0.05
elevatorRoll 0
elevRate 60
animAileronRate 45
rudderRate 120
animSpoiler1Max 0
animSpoiler1Rate 45.0
animSpoiler1OffAtWingSweep 70.0
animSpoiler1AirBrake 0
animSpoiler2Max 0
animSpoiler2Rate 45.0
animSpoiler2OffAtWingSweep 70.0
animSpoiler2AirBrake 0
#-----------------------------------------------------
# Trim
#-----------------------------------------------------
pitchElevatorTrimRate 0.05
pitchAileronTrimRate 0.05
pitchRudderTrimRate 0.25
trimDeadZonePercentage 0.05
#-----------------------------------------------------
# Flaps
#-----------------------------------------------------
hasFlapperons 0
flapGearRelative 1
maxFlapVcas 320 #Falcas 06/14/2013
flapVcasRange 100 #Falcas 06/14/2013
flap2Nozzle 0 #Falcas 06/14/2013
#-----------------------------------------------------
# Lef (Slats)
#-----------------------------------------------------
haslef 4
lefGround 0.0
lefMaxAngle 20.0
lefMaxMach 0.40
lefNStages 1
CDlefFactor 0.00
lefRate 5
#-----------------------------------------------------
# Tef (Flaps)
#-----------------------------------------------------
hasTef 1
tefMaxAngle 60.0
CLtefFactor 0.00
CDtefFactor 0.00
AFMCDtefFactor 0.05
tefNStages 2
tefTakeoff 30.0
tefRate 5
NoTefSound 0
#-----------------------------------------------------
# Air-Brakes
#-----------------------------------------------------
CDSPDBFactor 0.080
airbrakeMaxAngle 60
airbrakeOutRateFactor 0.500000
airbrakeInRateFactor 0.166667
airbrakeApproachAngle 0
minAirbrakeSpeed -1
#-----------------------------------------------------
# Drag Chute
#-----------------------------------------------------
dragChuteCd 0.300 #Falcas 08/27/2013
dragChuteMaxSpeed 180 #Falcas 08/27/2013
dragChuteDropSpeed 45 #Falcas 08/27/2013
dragChuteMinRunwayLength 8900 #Falcas 08/27/2013
dragChuteDelay 3.0 #Falcas 08/27/2013
#-----------------------------------------------------
# Gear and NWS
#-----------------------------------------------------
CDLDGFactor 0.020
sinkRate 24
MLGWOWPercentage 0.90
NLGWOWPercentage 0.50
NWSRateUp 1.5
NWSRateDown 4.0
animWheelRadius1 0.00
animWheelRadius2 0.00
animWheelRadius3 0.00
animWheelRadius4 0.00
animWheelRadius5 0.00
animWheelRadius6 0.00
animWheelRadius7 0.00
animWheelRadius8 0.00
animGearMaxComp1 0.00
animGearMaxComp2 0.00
animGearMaxComp3 0.00
animGearMaxComp4 0.00
animGearMaxComp5 0.00
animGearMaxComp6 0.00
animGearMaxComp7 0.00
animGearMaxComp8 0.00
animGearMaxExt1 0.00
animGearMaxExt2 0.00
animGearMaxExt3 0.00
animGearMaxExt4 0.00
animGearMaxExt5 0.00
animGearMaxExt6 0.00
animGearMaxExt7 0.00
animGearMaxExt8 0.00
animGearInverted 0
GearDofRate1 0.60 #Added Falcas 01/13/1014
GearDofRate2 0.60
GearDofRate3 0.60
GearDofRate4 0.60
GearDofRate5 0.60
GearDofRate6 0.60
GearDofRate7 0.60
GearDofRate8 0.60
GearDelayDown1 1.50 #Added Falcas 01/13/1014
GearDelayDown2 1.50
GearDelayDown3 1.50
GearDelayDown4 1.50
GearDelayDown5 1.50
GearDelayDown6 1.50
GearDelayDown7 1.50
GearDelayDown8 1.50
GearDelayUp1 0.00 #Added Falcas 01/13/1014
GearDelayUp2 0.00
GearDelayUp3 0.00
GearDelayUp4 0.00
GearDelayUp5 0.00
GearDelayUp6 0.00
GearDelayUp7 0.00
GearDelayUp8 0.00
DoorDofRate1 0.60 #Added Falcas 01/13/1014
DoorDofRate2 0.60
DoorDofRate3 0.60
DoorDofRate4 0.60
DoorDofRate5 0.60
DoorDofRate6 0.60
DoorDofRate7 0.60
DoorDofRate8 0.60
DoorDelayDown1 0.00 #Added Falcas 01/13/1014
DoorDelayDown2 0.00
DoorDelayDown3 0.00
DoorDelayDown4 0.00
DoorDelayDown5 0.00
DoorDelayDown6 0.00
DoorDelayDown7 0.00
DoorDelayDown8 0.00
DoorDelayUp1 1.50 #Added Falcas 01/13/1014
DoorDelayUp2 1.50
DoorDelayUp3 1.50
DoorDelayUp4 1.50
DoorDelayUp5 1.50
DoorDelayUp6 1.50
DoorDelayUp7 1.50
DoorDelayUp8 1.50
#-----------------------------------------------------
# Hook
#-----------------------------------------------------
hookTipLocation 0.00 0.00 0.00
animHookAngle 0.0
animHookRate 0.0
#-----------------------------------------------------
# Wing fold
#-----------------------------------------------------
animWingFoldAngle 0
animWingFoldRate 0.0
#-----------------------------------------------------
# Canopy
#-----------------------------------------------------
canopyMaxAngle 55
canopyOpenRate 5.0
canopyCloseRate 5.0
canopyMaxSpeed 70
#-----------------------------------------------------
# Fuel
#-----------------------------------------------------
fuelGaugeMultiplier 10.0
fuelFlowFactorNormal 0.843
fuelFlowFactorAb 1.970
minFuelFlow 1521
fuelFwdRes 1397
fuelAftRes 1203
fuelFwd1 955
fuelFwd2 1307
fuelAft1 3380
fuelWingAl 2093
fuelWingFr 2093
fuelFwdResRate 45.000
fuelAftResRate 45.000
fuelFwd1Rate 45.000
fuelFwd2Rate 45.000
fuelAft1Rate 45.000
fuelWingAlRate 45.000
fuelWingFrRate 45.000
fuelClineRate 45.000
fuelWingExtRate 45.000
fuelMinFwd 279
fuelMinAft 91
#-----------------------------------------------------
# Air-Air Refuel
#-----------------------------------------------------
receiverRefuelServiceType 1 #Added Falcas 01/21/2014
refuelLocation 0.00 0.00 0.00
refuelSpeed 315
refuelAltitude 20000
refuelRate 50
AIBoomDistance 10
decelDistance 5000
desiredClosureFactor 0.40
longLeg 60
shortLeg 25
IL78Factor 30.0
animRefuelAngle 0.0
animRefuelRate 0.0
#-----------------------------------------------------
# Avionics
#-----------------------------------------------------
avionicsCanUseSpice 0
avionicsJDAMAvionicsType 0
avionicsDiffICPStyle 0
avionicsMLUPFL 0
avionicsDatalink 0
avionicsHudLadderTapeType 2
avionicsHudVAHTapeType 2
avionicsHudDGFTDefaultMode 3
avionicsDGFTMasterModeLabelOnHud 0
avionicsDGFTAttitudeAwareness 0
avionicsMLUM2TAOnHUD 0
avionicsHudAATargetAspectAngle 0
avionicsHudOlderMasterModeWindow 1
avionicsNewAMRAAMdlz 0
avionicsBullseyeOnHud 0
avionicsDEDHudRepeaterBlanksOnDGFT 1
avionicsHudNavDeclutterEnabled 1
avionicsHudNavSpdAltTapesLag 0
avionicsZenithNadirOnHud 0
avionicsGhostHorizonAwareness 0
avionicsEPAFRadarCues 0
avionicsRadarJamChevrons 0
avionicsColorMfd 0
avionicsGrayScaleGM 1
avionicsActivateMFDBoot 2
avionicsMMCUpgrade 0
avionicsEGIUpgrade 0
avionicsDigitalFLCS 0
avionicsRWRType 0
avionicsGunEEGSMode 0
avionicsGunSSLCMode 0
avionicsGunLCOSMode 1
avionicsGunSNAPMode 0
avionicsEngineType 0
avionicsMfdCataSymbolAim120 0
avionicsHudOldBAIType 0
avionicsCursorEnableAsToggle 0
avionicsMaverickHandoffCapeable 0
#-----------------------------------------------------
# Autopilot
#-----------------------------------------------------
maxAutopilotMach 0.95
#-----------------------------------------------------
# Locations
#-----------------------------------------------------
PilotEyePos 14.50 0.00 -2.40
wingTipLocation -16.40 19.50 0.20
#-----------------------------------------------------
# Counter measure
#-----------------------------------------------------
hasEWS 0
ecmStrength 0.000
nChaff 30
nFlare 60
#-----------------------------------------------------
# Hardpoint data
#-----------------------------------------------------
hardpoint1Grp 0
hardpoint2Grp nopylon-left
hardpoint3Grp f4-inner-wing-left
hardpoint4Grp recessed-aim
hardpoint5Grp recessed-aim
hardpoint6Grp nopylon-left
hardpoint7Grp recessed-aim
hardpoint8Grp recessed-aim
hardpoint9Grp f4-inner-wing-right
hardpoint10Grp nopylon-right
hardpoint11Grp 0
hardpoint12Grp 0
hardpoint13Grp 0
hardpoint14Grp 0
hardpoint15Grp 0
hardpoint16Grp 0
#-----------------------------------------------------
# Sounds
#-----------------------------------------------------
sndExternalVol -2000
sndSpdBrakeStart 141
sndSpdBrakeLoop 140
sndSpdBrakeEnd 139
sndSpdBrakeWind 142
sndOverSpeed1 191
sndOverSpeed2 192
sndGunStart 25
sndGunLoop 26
sndGunEnd 27
sndBBPullup 68
sndBBBingo 66
sndBBWarning 63
sndBBCaution 64
sndBBBeeps 301
sndBBChaffFlareLow 184
sndBBFlare 138
sndBBChaffFlare 183
sndBBChaffFlareOut 185
sndBBAltitude 65
sndBBLock 67
sndTouchDown 42
sndWheelBrakes 132
sndDragChute 218
sndLowSpeed 167
sndFlapStart 145
sndFlapLoop 144
sndFlapEnd 143
sndHookStart 195
sndHookLoop 194
sndHookEnd 193
sndGearCloseStart 147
sndGearCloseEnd 146
sndGearOpenStart 149
sndGearOpenEnd 150
sndGearLoop 148
sndCanopyOpenStart 271
sndCanopyOpenLoop 275
sndCanopyOpenEnd 272
sndCanopyCloseStart 273
sndCanopyCloseLoop 361
sndCanopyCloseEnd 274
sndEject 5
sndWind 33
sndBattery 304
sndRadioBuzz 305
sndJFSStart 288
sndJFSLoop 289
sndJFSEnd 290
sndJFSStartInt 306
sndJFSLoopInt 307
sndJFSendInt 308
#-----------------------------------------------------
# Sounds Engine Ext
#-----------------------------------------------------
sndAbExt 225
#
sndExt 222
#
sndExt2 -1
#
sndExt3 -1
#-----------------------------------------------------
# Sounds Engine Int
#-----------------------------------------------------
sndInt -1
#
sndInt2 -1
#
sndInt3 -1
#
sndAbInt 40
#
sndAbInt2 -1
#-----------------------------------------------------
# Sounds Aero
#-----------------------------------------------------
sndAero1 0
#
sndAero2 0
#
sndAero3 0
#
sndAero4 0
#-----------------------------------------------------
# AI behaviour
#-----------------------------------------------------
rollLimitForAiInWP 45 #Falcas 01/09/2014
followRate 80
BingoReturnDistance 50
jokerFactor 4.0
bingoFactor 4.0
fumesFactor 20.1
largePark 0
minTakeoffRunwayLengthClean 4000 #Falcas 01/08/2014
minTakeoffRunwayLengthMTOW 7500 #Falcas 07/24/2014
optTakeoffPitch 12.0 #Falcas 07/19/2014
gearRetractAlt 20 #Falcas 06/13/2013
maxClimbPitch 15.0 #Falcas 06/13/2013
optClimbSpeed 300 #Falcas 06/13/2013
optClimbMach 0.80 #Falcas 06/13/2013
minClimbRate 2700 #Falcas 07/24/2014
descentPath -1.0
landingAOA 12.0
aiLandingOffset -300 #Falcas 01/09/2014
MinTGTMAR 4
MaxMARIdedStart 15
AddMARIded5k 0
AddMARIded18k 2
AddMARIded28k 4
AddMARIdedSpike 1
MaxWEZtaStart 3
IsShortBurnThreat 1
IsLongBurnThreat 0
#-----------------------------------------------------
# Missions
#-----------------------------------------------------
misTypeCapability 41 100 100 100 100 100 100 100 100 100 100 100 100 100 100 100 100 100 100 100 100 100 100 100 100 100 100 100 100 100 100 100 100 100 100 100 100 100 100 100 100 100
#-----------------------------------------------------
# TFR
#-----------------------------------------------------
Has_TFR 0
Has_OnboardTFR 0
PID_K 0.5
PID_KI 0.0
PID_KD 0.4
TFR_LimitMX 0.0
TFR_Corner 420
TFR_Gain 0.010
EVA_Gain 15.0 #10-12-2014
TFR_MaxRoll 60
TFR_SoftG 2.0
TFR_MedG 2.0
TFR_HardG 2.0
TFR_Clearance 20
SlowPercent 0
TFR_lookAhead 7000 #10-12-2014
EVA1_SoftFactor 0.6
EVA2_SoftFactor 0.5
EVA1_MedFactor 0.6
EVA2_MedFactor 0.5
EVA1_HardFactor 0.6
EVA2_HardFactor 0.5
TFR_GammaCorrMult 1.5 #10-12-2014
#-----------------------------------------------------
# TGP
#-----------------------------------------------------
Has_TGP 1 #Falcas, Needs to be removed from file later on.
Has_OnboardTGP 0 #Falcas, Needs to be removed from file later on.
#Switch: 0 - No TGP, 1 - Internal TGP, 2 - External on AC, 3 - External on HP
TGP_Type 3 #Added Falcas 14/06/2014
TGP_PodWeight 0.0
TGP_PodDrag 0.0
#Switch: 0 - none, 1 - left, 2 - right
TGP_PodPowerSwitch 0
TGP_PodPosX 0.00
TGP_PodPosY 0.00
TGP_PodPosZ 0.00
#-----------------------------------------------------
# HTS
#-----------------------------------------------------
Has_HTS 0
Has_OnboardHTS 0
HTS_PodWeight 0.0
HTS_PodDrag 0.0
#Switch: 0 - none, 1 - left, 2 - right
HTS_PodPowerSwitch 0
HTS_PodPosX 0.00
HTS_PodPosY 0.00
HTS_PodPosZ 0.00
#-----------------------------------------------------
# Lantirn
#-----------------------------------------------------
Has_LANTIRN 0
Has_OnboardLANTIRN 0
LANTIRN_PodWeight 0.0
LANTIRN_PodDrag 0.0
#Switch: 0 - none, 1 - left, 2 - right
LANTIRN_PodPowerSwitch 1
LANTIRN_PodPosX 0.00
LANTIRN_PodPosY 0.00
LANTIRN_PodPosZ 0.00
LantirnCameraX 10.00
LantirnCameraY 2.00
LantirnCameraZ 5.00
#-----------------------------------------------------
# Gun
#-----------------------------------------------------
gunLocation 27.10 0.00 3.90
gunTrailID 11
GunEffect 5900
gunPitch 0.00
gunYaw 0.00
canDoGunStrafe 0
#-----------------------------------------------------
# Weapons
#-----------------------------------------------------
A2GHarmAlt 20000
A2GAGMAlt 8000
A2GGBUAlt 20000
A2GDumbHDAlt 1500
A2GClusterAlt 14000
A2GDumbLDAlt 16000
A2GGunRocketAlt 3500
A2GCameraAlt 12000
A2GBombMissileAlt 20000
A2GIAMBombAlt 20000
maxRippleCount 24
maxLoadoutDrag 41 -1 -1 -1 -1 -1 -1 -1 -1 -1 -1 -1 -1 -1 -1 -1 -1 -1 -1 -1 -1 -1 -1 -1 -1 -1 -1 -1 -1 -1 -1 -1 -1 -1 -1 -1 -1 -1 -1 -1 -1 -1
maxLoadoutWeight 41 100 100 100 100 100 100 100 100 100 100 100 100 100 100 100 100 100 100 100 100 100 100 100 100 100 100 100 100 100 100 100 100 100 100 100 100 100 100 100 100 100
minNumFuelTanks 41 0 0 0 0 0 0 0 0 0 0 0 0 0 0 0 0 0 0 0 0 0 0 0 0 0 0 0 0 0 0 0 0 0 0 0 0 0 0 0 0 0
extTanksLoadOrder 0 #Added Falcas 02/14/2014
loadRadarGuidedFirst 0 #Added Falcas
#-----------------------------------------------------
# Rockets
#-----------------------------------------------------
rktAltIsAgl 0
rktHighAlt 3000
rktPreferedAlt 2000
rktLowAlt 1000
rktEmergencyAlt 700
rktFireRange 10000
rktPopupRange -1
rktPopupAlt 0
#-----------------------------------------------------
# ARMs
#-----------------------------------------------------
maxNumARMs 0
#-----------------------------------------------------
# Camera View TopGun
#-----------------------------------------------------
TopGunCamera1 7  -15.00  -22.80   -2.80   +0.00  +28.00   +0.00  60.0 #Left wing looking towards cockpit. (Revientor)
TopGunCamera2 7  +27.00  -22.80   -2.10   +0.00 +120.00   +0.00  60.0 #Right of cockpit looking toward pilots. (Revientor)
TopGunCamera3 7  +25.00   +0.00   +5.80   -2.00 -180.00   +0.00  60.0 #Before air intake looking backwards to gear. (Revientor)
TopGunCamera4 7  +43.00   +0.00   -9.00  -16.00 +180.00   +0.00  47.0 #Placed near the gun (created by Revient0R), looking backward.
#-----------------------------------------------------
# Lights
#-----------------------------------------------------
Light1Position -21.50 -1.80 1.56 # Left Burner1 Falcas 06/13/2013
Light1Color 0.80 0.65 0.40
Light1Type 10
Light1Radius 95
Light1Attenuation 0.060

Light2Position -24.00 -1.80 1.56 # Left Burner2 Falcas 06/13/2013
Light2Color 0.80 0.65 0.40
Light2Type 10
Light2Radius 95
Light2Attenuation 0.100

Light3Position -29.00 -1.80 1.56 # Left Burner3 Falcas 06/13/2013
Light3Color 0.80 0.65 0.40
Light3Type 10
Light3Radius 95
Light3Attenuation 0.200

Light4Position -21.50 1.80 1.56 # Right Burner1 Falcas 06/13/2013
Light4Color 0.80 0.65 0.40
Light4Type 10
Light4Radius 95
Light4Attenuation 0.060

Light5Position -24.00 1.80 1.56 # Right Burner2 Falcas 06/13/2013
Light5Color 0.80 0.65 0.40
Light5Type 10
Light5Radius 95
Light5Attenuation 0.100

Light6Position -29.00 1.80 1.56 # Right Burner3 Falcas 06/13/2013
Light6Color 0.80 0.65 0.40
Light6Type 10
Light6Radius 95
Light6Attenuation 0.200

animStrobeOnTime 0.020
animStrobeOffTime 1.000
animWingFlashOnTime 0.030
animWingFlashOffTime 1.500
numFormationLightLevels 0
#-----------------------------------------------------
# Spot Lights
#-----------------------------------------------------
SpotLight1Color 0.25 0.25 0.24 # color of the light
SpotLight1Position 18.74 0.00 5.68 # the light's position
SpotLight1LookAt 19.54 0.00 6.18 # position in model space at which the light should point
SpotLight1Attenuation 0.00010 # attenuation of the light
SpotLight1InnerConeDeg 30.000 # inner cone angle in degrees
SpotLight1OuterConeDeg 45.000 # outer cone angle in degrees
#-----------------------------------------------------
# Additionals that are not included in FMM.
#-----------------------------------------------------
#
# End of Additional
#
END OF DATA